s =  10 n =  3 d =  2 dia =  1
CFVol =  0.0 CfVol =  57.1666666667 	 pcon =  0.0
s =  10 n =  3 d =  3 dia =  1
CFVol =  4.16666666667 CfVol =  57.1666666667 	 pcon =  0.0728862973761
s =  10 n =  3 d =  4 dia =  1
CFVol =  27.0 CfVol =  57.1666666667 	 pcon =  0.472303206997
s =  10 n =  3 d =  5 dia =  1
CFVol =  45.5 CfVol =  57.1666666667 	 pcon =  0.795918367347
s =  10 n =  3 d =  6 dia =  1
CFVol =  54.1666666667 CfVol =  57.1666666667 	 pcon =  0.947521865889
s =  10 n =  3 d =  7 dia =  1
CFVol =  56.8333333333 CfVol =  57.1666666667 	 pcon =  0.99416909621
s =  10 n =  3 d =  8 dia =  1
CFVol =  57.1666666667 CfVol =  57.1666666667 	 pcon =  1.0
s =  10 n =  3 d =  9 dia =  1
CFVol =  57.1666666667 CfVol =  57.1666666667 	 pcon =  1.0
s =  10 n =  4 d =  2 dia =  1
CFVol =  0.0416666666667 CfVol =  54.0 	 pcon =  0.000771604938272
s =  10 n =  4 d =  3 dia =  1
CFVol =  17.5 CfVol =  54.0 	 pcon =  0.324074074074
s =  10 n =  4 d =  4 dia =  1
CFVol =  42.5416666667 CfVol =  54.0 	 pcon =  0.787808641975
s =  10 n =  4 d =  5 dia =  1
CFVol =  51.9166666667 CfVol =  54.0 	 pcon =  0.961419753086
s =  10 n =  4 d =  6 dia =  1
CFVol =  53.875 CfVol =  54.0 	 pcon =  0.997685185185
s =  10 n =  4 d =  7 dia =  1
CFVol =  54.0 CfVol =  54.0 	 pcon =  1.0
s =  10 n =  4 d =  8 dia =  1
CFVol =  54.0 CfVol =  54.0 	 pcon =  1.0
s =  10 n =  4 d =  9 dia =  1
CFVol =  54.0 CfVol =  54.0 	 pcon =  1.0
s =  10 n =  5 d =  2 dia =  1
CFVol =  0.991666666667 CfVol =  26.0416666667 	 pcon =  0.03808
s =  10 n =  5 d =  3 dia =  1
CFVol =  17.4583333333 CfVol =  26.0416666667 	 pcon =  0.6704
s =  10 n =  5 d =  4 dia =  1
CFVol =  24.9583333333 CfVol =  26.0416666667 	 pcon =  0.9584
s =  10 n =  5 d =  5 dia =  1
CFVol =  26.0083333333 CfVol =  26.0416666667 	 pcon =  0.99872
s =  10 n =  5 d =  6 dia =  1
CFVol =  26.0416666667 CfVol =  26.0416666667 	 pcon =  1.0
s =  10 n =  5 d =  7 dia =  1
CFVol =  26.0416666667 CfVol =  26.0416666667 	 pcon =  1.0
s =  10 n =  5 d =  8 dia =  1
CFVol =  26.0416666667 CfVol =  26.0416666667 	 pcon =  1.0
s =  10 n =  5 d =  9 dia =  1
CFVol =  26.0416666667 CfVol =  26.0416666667 	 pcon =  1.0
s =  10 n =  6 d =  2 dia =  1
CFVol =  1.3375 CfVol =  5.68888888889 	 pcon =  0.235107421875
s =  10 n =  6 d =  3 dia =  1
CFVol =  5.24166666667 CfVol =  5.68888888889 	 pcon =  0.92138671875
s =  10 n =  6 d =  4 dia =  1
CFVol =  5.68194444444 CfVol =  5.68888888889 	 pcon =  0.998779296875
s =  10 n =  6 d =  5 dia =  1
CFVol =  5.68888888889 CfVol =  5.68888888889 	 pcon =  1.0
s =  10 n =  6 d =  6 dia =  1
CFVol =  5.68888888889 CfVol =  5.68888888889 	 pcon =  1.0
s =  10 n =  6 d =  7 dia =  1
CFVol =  5.68888888889 CfVol =  5.68888888889 	 pcon =  1.0
s =  10 n =  6 d =  8 dia =  1
CFVol =  5.68888888889 CfVol =  5.68888888889 	 pcon =  1.0
s =  10 n =  6 d =  9 dia =  1
CFVol =  5.68888888889 CfVol =  5.68888888889 	 pcon =  1.0
s =  10 n =  7 d =  2 dia =  1
CFVol =  0.284126984127 CfVol =  0.433928571429 	 pcon =  0.654778235025
s =  10 n =  7 d =  3 dia =  1
CFVol =  0.432738095238 CfVol =  0.433928571429 	 pcon =  0.997256515775
s =  10 n =  7 d =  4 dia =  1
CFVol =  0.433928571429 CfVol =  0.433928571429 	 pcon =  1.0
s =  10 n =  7 d =  5 dia =  1
CFVol =  0.433928571429 CfVol =  0.433928571429 	 pcon =  1.0
s =  10 n =  7 d =  6 dia =  1
CFVol =  0.433928571429 CfVol =  0.433928571429 	 pcon =  1.0
s =  10 n =  7 d =  7 dia =  1
CFVol =  0.433928571429 CfVol =  0.433928571429 	 pcon =  1.0
s =  10 n =  7 d =  8 dia =  1
CFVol =  0.433928571429 CfVol =  0.433928571429 	 pcon =  1.0
s =  10 n =  7 d =  9 dia =  1
CFVol =  0.433928571429 CfVol =  0.433928571429 	 pcon =  1.0
s =  11 n =  3 d =  2 dia =  1
CFVol =  0.0 CfVol =  85.3333333333 	 pcon =  0.0
s =  11 n =  3 d =  3 dia =  1
CFVol =  1.33333333333 CfVol =  85.3333333333 	 pcon =  0.015625
s =  11 n =  3 d =  4 dia =  1
CFVol =  24.3333333333 CfVol =  85.3333333333 	 pcon =  0.28515625
s =  11 n =  3 d =  5 dia =  1
CFVol =  55.0 CfVol =  85.3333333333 	 pcon =  0.64453125
s =  11 n =  3 d =  6 dia =  1
CFVol =  73.6666666667 CfVol =  85.3333333333 	 pcon =  0.86328125
s =  11 n =  3 d =  7 dia =  1
CFVol =  82.3333333333 CfVol =  85.3333333333 	 pcon =  0.96484375
s =  11 n =  3 d =  8 dia =  1
CFVol =  85.0 CfVol =  85.3333333333 	 pcon =  0.99609375
s =  11 n =  3 d =  9 dia =  1
CFVol =  85.3333333333 CfVol =  85.3333333333 	 pcon =  1.0
s =  11 n =  4 d =  2 dia =  1
CFVol =  0.0 CfVol =  100.041666667 	 pcon =  0.0
s =  11 n =  4 d =  3 dia =  1
CFVol =  14.7083333333 CfVol =  100.041666667 	 pcon =  0.147022074136
s =  11 n =  4 d =  4 dia =  1
CFVol =  61.4166666667 CfVol =  100.041666667 	 pcon =  0.613910870471
s =  11 n =  4 d =  5 dia =  1
CFVol =  88.5833333333 CfVol =  100.041666667 	 pcon =  0.885464389838
s =  11 n =  4 d =  6 dia =  1
CFVol =  97.9583333333 CfVol =  100.041666667 	 pcon =  0.979175343607
s =  11 n =  4 d =  7 dia =  1
CFVol =  99.9166666667 CfVol =  100.041666667 	 pcon =  0.998750520616
s =  11 n =  4 d =  8 dia =  1
CFVol =  100.041666667 CfVol =  100.041666667 	 pcon =  1.0
s =  11 n =  4 d =  9 dia =  1
CFVol =  100.041666667 CfVol =  100.041666667 	 pcon =  1.0
s =  11 n =  5 d =  2 dia =  1
CFVol =  0.233333333333 CfVol =  64.8 	 pcon =  0.00360082304527
s =  11 n =  5 d =  3 dia =  1
CFVol =  28.2833333333 CfVol =  64.8 	 pcon =  0.436471193416
s =  11 n =  5 d =  4 dia =  1
CFVol =  56.1666666667 CfVol =  64.8 	 pcon =  0.866769547325
s =  11 n =  5 d =  5 dia =  1
CFVol =  63.7166666667 CfVol =  64.8 	 pcon =  0.983281893004
s =  11 n =  5 d =  6 dia =  1
CFVol =  64.7666666667 CfVol =  64.8 	 pcon =  0.999485596708
s =  11 n =  5 d =  7 dia =  1
CFVol =  64.8 CfVol =  64.8 	 pcon =  1.0
s =  11 n =  5 d =  8 dia =  1
CFVol =  64.8 CfVol =  64.8 	 pcon =  1.0
s =  11 n =  5 d =  9 dia =  1
CFVol =  64.8 CfVol =  64.8 	 pcon =  1.0
s =  11 n =  6 d =  2 dia =  1
CFVol =  1.3375 CfVol =  21.7013888889 	 pcon =  0.061632
s =  11 n =  6 d =  3 dia =  1
CFVol =  16.475 CfVol =  21.7013888889 	 pcon =  0.759168
s =  11 n =  6 d =  4 dia =  1
CFVol =  21.2541666667 CfVol =  21.7013888889 	 pcon =  0.979392
s =  11 n =  6 d =  5 dia =  1
CFVol =  21.6944444444 CfVol =  21.7013888889 	 pcon =  0.99968
s =  11 n =  6 d =  6 dia =  1
CFVol =  21.7013888889 CfVol =  21.7013888889 	 pcon =  1.0
s =  11 n =  6 d =  7 dia =  1
CFVol =  21.7013888889 CfVol =  21.7013888889 	 pcon =  1.0
s =  11 n =  6 d =  8 dia =  1
CFVol =  21.7013888889 CfVol =  21.7013888889 	 pcon =  1.0
s =  11 n =  6 d =  9 dia =  1
CFVol =  21.7013888889 CfVol =  21.7013888889 	 pcon =  1.0
s =  11 n =  7 d =  2 dia =  1
CFVol =  0.975793650794 CfVol =  3.25079365079 	 pcon =  0.300170898438
s =  11 n =  7 d =  3 dia =  1
CFVol =  3.09801587302 CfVol =  3.25079365079 	 pcon =  0.953002929688
s =  11 n =  7 d =  4 dia =  1
CFVol =  3.2496031746 CfVol =  3.25079365079 	 pcon =  0.999633789062
s =  11 n =  7 d =  5 dia =  1
CFVol =  3.25079365079 CfVol =  3.25079365079 	 pcon =  1.0
s =  11 n =  7 d =  6 dia =  1
CFVol =  3.25079365079 CfVol =  3.25079365079 	 pcon =  1.0
s =  11 n =  7 d =  7 dia =  1
CFVol =  3.25079365079 CfVol =  3.25079365079 	 pcon =  1.0
s =  11 n =  7 d =  8 dia =  1
CFVol =  3.25079365079 CfVol =  3.25079365079 	 pcon =  1.0
s =  11 n =  7 d =  9 dia =  1
CFVol =  3.25079365079 CfVol =  3.25079365079 	 pcon =  1.0
s =  12 n =  3 d =  2 dia =  1
CFVol =  0.0 CfVol =  121.5 	 pcon =  0.0
s =  12 n =  3 d =  3 dia =  1
CFVol =  0.166666666667 CfVol =  121.5 	 pcon =  0.00137174211248
s =  12 n =  3 d =  4 dia =  1
CFVol =  17.8333333333 CfVol =  121.5 	 pcon =  0.146776406036
s =  12 n =  3 d =  5 dia =  1
CFVol =  58.6666666667 CfVol =  121.5 	 pcon =  0.482853223594
s =  12 n =  3 d =  6 dia =  1
CFVol =  91.1666666667 CfVol =  121.5 	 pcon =  0.750342935528
s =  12 n =  3 d =  7 dia =  1
CFVol =  109.833333333 CfVol =  121.5 	 pcon =  0.903978052126
s =  12 n =  3 d =  8 dia =  1
CFVol =  118.5 CfVol =  121.5 	 pcon =  0.975308641975
s =  12 n =  3 d =  9 dia =  1
CFVol =  121.166666667 CfVol =  121.5 	 pcon =  0.997256515775
s =  12 n =  4 d =  2 dia =  1
CFVol =  0.0 CfVol =  170.666666667 	 pcon =  0.0
s =  12 n =  4 d =  3 dia =  1
CFVol =  8.58333333333 CfVol =  170.666666667 	 pcon =  0.05029296875
s =  12 n =  4 d =  4 dia =  1
CFVol =  73.4583333333 CfVol =  170.666666667 	 pcon =  0.430419921875
s =  12 n =  4 d =  5 dia =  1
CFVol =  131.916666667 CfVol =  170.666666667 	 pcon =  0.77294921875
s =  12 n =  4 d =  6 dia =  1
CFVol =  159.208333333 CfVol =  170.666666667 	 pcon =  0.932861328125
s =  12 n =  4 d =  7 dia =  1
CFVol =  168.583333333 CfVol =  170.666666667 	 pcon =  0.98779296875
s =  12 n =  4 d =  8 dia =  1
CFVol =  170.541666667 CfVol =  170.666666667 	 pcon =  0.999267578125
s =  12 n =  4 d =  9 dia =  1
CFVol =  170.666666667 CfVol =  170.666666667 	 pcon =  1.0
s =  12 n =  5 d =  2 dia =  1
CFVol =  0.00833333333333 CfVol =  140.058333333 	 pcon =  5.94990182662e-05
s =  12 n =  5 d =  3 dia =  1
CFVol =  33.0833333333 CfVol =  140.058333333 	 pcon =  0.236211102517
s =  12 n =  5 d =  4 dia =  1
CFVol =  101.925 CfVol =  140.058333333 	 pcon =  0.727732492414
s =  12 n =  5 d =  5 dia =  1
CFVol =  131.425 CfVol =  140.058333333 	 pcon =  0.938359017076
s =  12 n =  5 d =  6 dia =  1
CFVol =  138.975 CfVol =  140.058333333 	 pcon =  0.992265127625
s =  12 n =  5 d =  7 dia =  1
CFVol =  140.025 CfVol =  140.058333333 	 pcon =  0.999762003927
s =  12 n =  5 d =  8 dia =  1
CFVol =  140.058333333 CfVol =  140.058333333 	 pcon =  1.0
s =  12 n =  5 d =  9 dia =  1
CFVol =  140.058333333 CfVol =  140.058333333 	 pcon =  1.0
s =  12 n =  6 d =  2 dia =  1
CFVol =  0.579166666667 CfVol =  64.8 	 pcon =  0.00893775720165
s =  12 n =  6 d =  3 dia =  1
CFVol =  35.2333333333 CfVol =  64.8 	 pcon =  0.543724279835
s =  12 n =  6 d =  4 dia =  1
CFVol =  59.5597222222 CfVol =  64.8 	 pcon =  0.919131515775
s =  12 n =  6 d =  5 dia =  1
CFVol =  64.3527777778 CfVol =  64.8 	 pcon =  0.993098422497
s =  12 n =  6 d =  6 dia =  1
CFVol =  64.7930555556 CfVol =  64.8 	 pcon =  0.999892832647
s =  12 n =  6 d =  7 dia =  1
CFVol =  64.8 CfVol =  64.8 	 pcon =  1.0
s =  12 n =  6 d =  8 dia =  1
CFVol =  64.8 CfVol =  64.8 	 pcon =  1.0
s =  12 n =  6 d =  9 dia =  1
CFVol =  64.8 CfVol =  64.8 	 pcon =  1.0
s =  12 n =  7 d =  2 dia =  1
CFVol =  1.43134920635 CfVol =  15.5009920635 	 pcon =  0.0923392
s =  12 n =  7 d =  3 dia =  1
CFVol =  12.8496031746 CfVol =  15.5009920635 	 pcon =  0.8289536
s =  12 n =  7 d =  4 dia =  1
CFVol =  15.3482142857 CfVol =  15.5009920635 	 pcon =  0.990144
s =  12 n =  7 d =  5 dia =  1
CFVol =  15.4998015873 CfVol =  15.5009920635 	 pcon =  0.9999232
s =  12 n =  7 d =  6 dia =  1
CFVol =  15.5009920635 CfVol =  15.5009920635 	 pcon =  1.0
s =  12 n =  7 d =  7 dia =  1
CFVol =  15.5009920635 CfVol =  15.5009920635 	 pcon =  1.0
s =  12 n =  7 d =  8 dia =  1
CFVol =  15.5009920635 CfVol =  15.5009920635 	 pcon =  1.0
s =  12 n =  7 d =  9 dia =  1
CFVol =  15.5009920635 CfVol =  15.5009920635 	 pcon =  1.0
s =  13 n =  3 d =  2 dia =  1
CFVol =  0.0 CfVol =  166.666666667 	 pcon =  0.0
s =  13 n =  3 d =  3 dia =  1
CFVol =  0.0 CfVol =  166.666666667 	 pcon =  0.0
s =  13 n =  3 d =  4 dia =  1
CFVol =  10.3333333333 CfVol =  166.666666667 	 pcon =  0.062
s =  13 n =  3 d =  5 dia =  1
CFVol =  55.0 CfVol =  166.666666667 	 pcon =  0.33
s =  13 n =  3 d =  6 dia =  1
CFVol =  103.666666667 CfVol =  166.666666667 	 pcon =  0.622
s =  13 n =  3 d =  7 dia =  1
CFVol =  136.333333333 CfVol =  166.666666667 	 pcon =  0.818
s =  13 n =  3 d =  8 dia =  1
CFVol =  155.0 CfVol =  166.666666667 	 pcon =  0.93
s =  13 n =  3 d =  9 dia =  1
CFVol =  163.666666667 CfVol =  166.666666667 	 pcon =  0.982
s =  13 n =  4 d =  2 dia =  1
CFVol =  0.0 CfVol =  273.375 	 pcon =  0.0
s =  13 n =  4 d =  3 dia =  1
CFVol =  3.25 CfVol =  273.375 	 pcon =  0.0118884316415
s =  13 n =  4 d =  4 dia =  1
CFVol =  73.4583333333 CfVol =  273.375 	 pcon =  0.268709038256
s =  13 n =  4 d =  5 dia =  1
CFVol =  174.041666667 CfVol =  273.375 	 pcon =  0.636640755982
s =  13 n =  4 d =  6 dia =  1
CFVol =  234.625 CfVol =  273.375 	 pcon =  0.858253315043
s =  13 n =  4 d =  7 dia =  1
CFVol =  261.916666667 CfVol =  273.375 	 pcon =  0.958085657674
s =  13 n =  4 d =  8 dia =  1
CFVol =  271.291666667 CfVol =  273.375 	 pcon =  0.992379210486
s =  13 n =  4 d =  9 dia =  1
CFVol =  273.25 CfVol =  273.375 	 pcon =  0.999542752629
s =  13 n =  5 d =  2 dia =  1
CFVol =  0.0 CfVol =  273.066666667 	 pcon =  0.0
s =  13 n =  5 d =  3 dia =  1
CFVol =  28.2833333333 CfVol =  273.066666667 	 pcon =  0.103576660156
s =  13 n =  5 d =  4 dia =  1
CFVol =  153.5 CfVol =  273.066666667 	 pcon =  0.562133789062
s =  13 n =  5 d =  5 dia =  1
CFVol =  234.883333333 CfVol =  273.066666667 	 pcon =  0.860168457031
s =  13 n =  5 d =  6 dia =  1
CFVol =  264.433333333 CfVol =  273.066666667 	 pcon =  0.968383789062
s =  13 n =  5 d =  7 dia =  1
CFVol =  271.983333333 CfVol =  273.066666667 	 pcon =  0.996032714844
s =  13 n =  5 d =  8 dia =  1
CFVol =  273.033333333 CfVol =  273.066666667 	 pcon =  0.999877929688
s =  13 n =  5 d =  9 dia =  1
CFVol =  273.066666667 CfVol =  273.066666667 	 pcon =  1.0
s =  13 n =  6 d =  2 dia =  1
CFVol =  0.0819444444444 CfVol =  163.401388889 	 pcon =  0.000501491725387
s =  13 n =  6 d =  3 dia =  1
CFVol =  54.5180555556 CfVol =  163.401388889 	 pcon =  0.333644994858
s =  13 n =  6 d =  4 dia =  1
CFVol =  132.945833333 CfVol =  163.401388889 	 pcon =  0.813615075351
s =  13 n =  6 d =  5 dia =  1
CFVol =  158.161111111 CfVol =  163.401388889 	 pcon =  0.967930029155
s =  13 n =  6 d =  6 dia =  1
CFVol =  162.954166667 CfVol =  163.401388889 	 pcon =  0.99726304516
s =  13 n =  6 d =  7 dia =  1
CFVol =  163.394444444 CfVol =  163.401388889 	 pcon =  0.999957500701
s =  13 n =  6 d =  8 dia =  1
CFVol =  163.401388889 CfVol =  163.401388889 	 pcon =  1.0
s =  13 n =  6 d =  9 dia =  1
CFVol =  163.401388889 CfVol =  163.401388889 	 pcon =  1.0
s =  13 n =  7 d =  2 dia =  1
CFVol =  0.975793650794 CfVol =  55.5428571429 	 pcon =  0.017568301326
s =  13 n =  7 d =  3 dia =  1
CFVol =  35.5535714286 CfVol =  55.5428571429 	 pcon =  0.640110596708
s =  13 n =  7 d =  4 dia =  1
CFVol =  52.8884920635 CfVol =  55.5428571429 	 pcon =  0.952210505258
s =  13 n =  7 d =  5 dia =  1
CFVol =  55.3900793651 CfVol =  55.5428571429 	 pcon =  0.997249371285
s =  13 n =  7 d =  6 dia =  1
CFVol =  55.5416666667 CfVol =  55.5428571429 	 pcon =  0.999978566529
s =  13 n =  7 d =  7 dia =  1
CFVol =  55.5428571429 CfVol =  55.5428571429 	 pcon =  1.0
s =  13 n =  7 d =  8 dia =  1
CFVol =  55.5428571429 CfVol =  55.5428571429 	 pcon =  1.0
s =  13 n =  7 d =  9 dia =  1
CFVol =  55.5428571429 CfVol =  55.5428571429 	 pcon =  1.0
s =  14 n =  3 d =  2 dia =  1
CFVol =  0.0 CfVol =  221.833333333 	 pcon =  0.0
s =  14 n =  3 d =  3 dia =  1
CFVol =  0.0 CfVol =  221.833333333 	 pcon =  0.0
s =  14 n =  3 d =  4 dia =  1
CFVol =  4.5 CfVol =  221.833333333 	 pcon =  0.0202854996243
s =  14 n =  3 d =  5 dia =  1
CFVol =  45.5 CfVol =  221.833333333 	 pcon =  0.205108940646
s =  14 n =  3 d =  6 dia =  1
CFVol =  108.333333333 CfVol =  221.833333333 	 pcon =  0.488354620586
s =  14 n =  3 d =  7 dia =  1
CFVol =  158.833333333 CfVol =  221.833333333 	 pcon =  0.716003005259
s =  14 n =  3 d =  8 dia =  1
CFVol =  191.5 CfVol =  221.833333333 	 pcon =  0.863260706236
s =  14 n =  3 d =  9 dia =  1
CFVol =  210.166666667 CfVol =  221.833333333 	 pcon =  0.947407963937
s =  14 n =  4 d =  2 dia =  1
CFVol =  0.0 CfVol =  416.666666667 	 pcon =  0.0
s =  14 n =  4 d =  3 dia =  1
CFVol =  0.666666666667 CfVol =  416.666666667 	 pcon =  0.0016
s =  14 n =  4 d =  4 dia =  1
CFVol =  61.4166666667 CfVol =  416.666666667 	 pcon =  0.1474
s =  14 n =  4 d =  5 dia =  1
CFVol =  204.833333333 CfVol =  416.666666667 	 pcon =  0.4916
s =  14 n =  4 d =  6 dia =  1
CFVol =  317.208333333 CfVol =  416.666666667 	 pcon =  0.7613
s =  14 n =  4 d =  7 dia =  1
CFVol =  377.916666667 CfVol =  416.666666667 	 pcon =  0.907
s =  14 n =  4 d =  8 dia =  1
CFVol =  405.208333333 CfVol =  416.666666667 	 pcon =  0.9725
s =  14 n =  4 d =  9 dia =  1
CFVol =  414.583333333 CfVol =  416.666666667 	 pcon =  0.995
s =  14 n =  5 d =  2 dia =  1
CFVol =  0.0 CfVol =  492.075 	 pcon =  0.0
s =  14 n =  5 d =  3 dia =  1
CFVol =  17.4583333333 CfVol =  492.075 	 pcon =  0.0354790089587
s =  14 n =  5 d =  4 dia =  1
CFVol =  195.083333333 CfVol =  492.075 	 pcon =  0.396450405595
s =  14 n =  5 d =  5 dia =  1
CFVol =  370.891666667 CfVol =  492.075 	 pcon =  0.75372995309
s =  14 n =  5 d =  6 dia =  1
CFVol =  453.891666667 CfVol =  492.075 	 pcon =  0.922403427662
s =  14 n =  5 d =  7 dia =  1
CFVol =  483.441666667 CfVol =  492.075 	 pcon =  0.98245524903
s =  14 n =  5 d =  8 dia =  1
CFVol =  490.991666667 CfVol =  492.075 	 pcon =  0.997798438585
s =  14 n =  5 d =  9 dia =  1
CFVol =  492.041666667 CfVol =  492.075 	 pcon =  0.999932259649
s =  14 n =  6 d =  2 dia =  1
CFVol =  0.00138888888889 CfVol =  364.088888889 	 pcon =  3.81469726562e-06
s =  14 n =  6 d =  3 dia =  1
CFVol =  62.8722222222 CfVol =  364.088888889 	 pcon =  0.17268371582
s =  14 n =  6 d =  4 dia =  1
CFVol =  245.106944444 CfVol =  364.088888889 	 pcon =  0.673206329346
s =  14 n =  6 d =  5 dia =  1
CFVol =  333.619444444 CfVol =  364.088888889 	 pcon =  0.916313171387
s =  14 n =  6 d =  6 dia =  1
CFVol =  358.848611111 CfVol =  364.088888889 	 pcon =  0.985607147217
s =  14 n =  6 d =  7 dia =  1
CFVol =  363.641666667 CfVol =  364.088888889 	 pcon =  0.99877166748
s =  14 n =  6 d =  8 dia =  1
CFVol =  364.081944444 CfVol =  364.088888889 	 pcon =  0.999980926514
s =  14 n =  6 d =  9 dia =  1
CFVol =  364.088888889 CfVol =  364.088888889 	 pcon =  1.0
s =  14 n =  7 d =  2 dia =  1
CFVol =  0.284126984127 CfVol =  163.401388889 	 pcon =  0.00173882845219
s =  14 n =  7 d =  3 dia =  1
CFVol =  70.7037698413 CfVol =  163.401388889 	 pcon =  0.43269993188
s =  14 n =  7 d =  4 dia =  1
CFVol =  143.031746032 CfVol =  163.401388889 	 pcon =  0.875339842607
s =  14 n =  7 d =  5 dia =  1
CFVol =  160.74702381 CfVol =  163.401388889 	 pcon =  0.983755553748
s =  14 n =  7 d =  6 dia =  1
CFVol =  163.248611111 CfVol =  163.401388889 	 pcon =  0.999065015427
s =  14 n =  7 d =  7 dia =  1
CFVol =  163.400198413 CfVol =  163.401388889 	 pcon =  0.999992714406
s =  14 n =  7 d =  8 dia =  1
CFVol =  163.401388889 CfVol =  163.401388889 	 pcon =  1.0
s =  14 n =  7 d =  9 dia =  1
CFVol =  163.401388889 CfVol =  163.401388889 	 pcon =  1.0
s =  15 n =  3 d =  2 dia =  1
CFVol =  0.0 CfVol =  288.0 	 pcon =  0.0
s =  15 n =  3 d =  3 dia =  1
CFVol =  0.0 CfVol =  288.0 	 pcon =  0.0
s =  15 n =  3 d =  4 dia =  1
CFVol =  1.33333333333 CfVol =  288.0 	 pcon =  0.00462962962963
s =  15 n =  3 d =  5 dia =  1
CFVol =  33.0 CfVol =  288.0 	 pcon =  0.114583333333
s =  15 n =  3 d =  6 dia =  1
CFVol =  103.666666667 CfVol =  288.0 	 pcon =  0.359953703704
s =  15 n =  3 d =  7 dia =  1
CFVol =  174.333333333 CfVol =  288.0 	 pcon =  0.605324074074
s =  15 n =  3 d =  8 dia =  1
CFVol =  225.0 CfVol =  288.0 	 pcon =  0.78125
s =  15 n =  3 d =  9 dia =  1
CFVol =  257.666666667 CfVol =  288.0 	 pcon =  0.894675925926
s =  15 n =  4 d =  2 dia =  1
CFVol =  0.0 CfVol =  610.041666667 	 pcon =  0.0
s =  15 n =  4 d =  3 dia =  1
CFVol =  0.0416666666667 CfVol =  610.041666667 	 pcon =  6.83013455365e-05
s =  15 n =  4 d =  4 dia =  1
CFVol =  42.5416666667 CfVol =  610.041666667 	 pcon =  0.0697356737928
s =  15 n =  4 d =  5 dia =  1
CFVol =  216.083333333 CfVol =  610.041666667 	 pcon =  0.354210777952
s =  15 n =  4 d =  6 dia =  1
CFVol =  396.083333333 CfVol =  610.041666667 	 pcon =  0.64927259067
s =  15 n =  4 d =  7 dia =  1
CFVol =  510.583333333 CfVol =  610.041666667 	 pcon =  0.836964688204
s =  15 n =  4 d =  8 dia =  1
CFVol =  571.291666667 CfVol =  610.041666667 	 pcon =  0.936479748651
s =  15 n =  4 d =  9 dia =  1
CFVol =  598.583333333 CfVol =  610.041666667 	 pcon =  0.981217129977
s =  15 n =  5 d =  2 dia =  1
CFVol =  0.0 CfVol =  833.333333333 	 pcon =  0.0
s =  15 n =  5 d =  3 dia =  1
CFVol =  7.45 CfVol =  833.333333333 	 pcon =  0.00894
s =  15 n =  5 d =  4 dia =  1
CFVol =  211.133333333 CfVol =  833.333333333 	 pcon =  0.25336
s =  15 n =  5 d =  5 dia =  1
CFVol =  523.716666667 CfVol =  833.333333333 	 pcon =  0.62846
s =  15 n =  5 d =  6 dia =  1
CFVol =  712.1 CfVol =  833.333333333 	 pcon =  0.85452
s =  15 n =  5 d =  7 dia =  1
CFVol =  795.15 CfVol =  833.333333333 	 pcon =  0.95418
s =  15 n =  5 d =  8 dia =  1
CFVol =  824.7 CfVol =  833.333333333 	 pcon =  0.98964
s =  15 n =  5 d =  9 dia =  1
CFVol =  832.25 CfVol =  833.333333333 	 pcon =  0.9987
s =  15 n =  6 d =  2 dia =  1
CFVol =  0.0 CfVol =  738.1125 	 pcon =  0.0
s =  15 n =  6 d =  3 dia =  1
CFVol =  54.5180555556 CfVol =  738.1125 	 pcon =  0.0738614446383
s =  15 n =  6 d =  4 dia =  1
CFVol =  381.725 CfVol =  738.1125 	 pcon =  0.517163711494
s =  15 n =  6 d =  5 dia =  1
CFVol =  618.241666667 CfVol =  738.1125 	 pcon =  0.837598152946
s =  15 n =  6 d =  6 dia =  1
CFVol =  707.643055556 CfVol =  738.1125 	 pcon =  0.958719782629
s =  15 n =  6 d =  7 dia =  1
CFVol =  732.872222222 CfVol =  738.1125 	 pcon =  0.992900434855
s =  15 n =  6 d =  8 dia =  1
CFVol =  737.665277778 CfVol =  738.1125 	 pcon =  0.999394100192
s =  15 n =  6 d =  9 dia =  1
CFVol =  738.105555556 CfVol =  738.1125 	 pcon =  0.999990591618
s =  15 n =  7 d =  2 dia =  1
CFVol =  0.0242063492063 CfVol =  416.101587302 	 pcon =  5.81741333008e-05
s =  15 n =  7 d =  3 dia =  1
CFVol =  105.323015873 CfVol =  416.101587302 	 pcon =  0.253118515015
s =  15 n =  7 d =  4 dia =  1
CFVol =  316.977380952 CfVol =  416.101587302 	 pcon =  0.761778831482
s =  15 n =  7 d =  5 dia =  1
CFVol =  395.728968254 CfVol =  416.101587302 	 pcon =  0.95103931427
s =  15 n =  7 d =  6 dia =  1
CFVol =  413.447222222 CfVol =  416.101587302 	 pcon =  0.993620872498
s =  15 n =  7 d =  7 dia =  1
CFVol =  415.948809524 CfVol =  416.101587302 	 pcon =  0.999632835388
s =  15 n =  7 d =  8 dia =  1
CFVol =  416.100396825 CfVol =  416.101587302 	 pcon =  0.999997138977
s =  15 n =  7 d =  9 dia =  1
CFVol =  416.101587302 CfVol =  416.101587302 	 pcon =  1.0
s =  16 n =  3 d =  2 dia =  1
CFVol =  0.0 CfVol =  366.166666667 	 pcon =  0.0
s =  16 n =  3 d =  3 dia =  1
CFVol =  0.0 CfVol =  366.166666667 	 pcon =  0.0
s =  16 n =  3 d =  4 dia =  1
CFVol =  0.166666666667 CfVol =  366.166666667 	 pcon =  0.00045516613564
s =  16 n =  3 d =  5 dia =  1
CFVol =  20.5 CfVol =  366.166666667 	 pcon =  0.0559854346837
s =  16 n =  3 d =  6 dia =  1
CFVol =  91.1666666667 CfVol =  366.166666667 	 pcon =  0.248975876195
s =  16 n =  3 d =  7 dia =  1
CFVol =  180.0 CfVol =  366.166666667 	 pcon =  0.491579426491
s =  16 n =  3 d =  8 dia =  1
CFVol =  252.5 CfVol =  366.166666667 	 pcon =  0.689576695494
s =  16 n =  3 d =  9 dia =  1
CFVol =  303.166666667 CfVol =  366.166666667 	 pcon =  0.827947200728
s =  16 n =  4 d =  2 dia =  1
CFVol =  0.0 CfVol =  864.0 	 pcon =  0.0
s =  16 n =  4 d =  3 dia =  1
CFVol =  0.0 CfVol =  864.0 	 pcon =  0.0
s =  16 n =  4 d =  4 dia =  1
CFVol =  23.9583333333 CfVol =  864.0 	 pcon =  0.0277295524691
s =  16 n =  4 d =  5 dia =  1
CFVol =  204.833333333 CfVol =  864.0 	 pcon =  0.237075617284
s =  16 n =  4 d =  6 dia =  1
CFVol =  458.125 CfVol =  864.0 	 pcon =  0.530237268519
s =  16 n =  4 d =  7 dia =  1
CFVol =  649.916666667 CfVol =  864.0 	 pcon =  0.752218364198
s =  16 n =  4 d =  8 dia =  1
CFVol =  764.541666667 CfVol =  864.0 	 pcon =  0.884886188272
s =  16 n =  4 d =  9 dia =  1
CFVol =  825.25 CfVol =  864.0 	 pcon =  0.955150462963
s =  16 n =  5 d =  2 dia =  1
CFVol =  0.0 CfVol =  1342.09166667 	 pcon =  0.0
s =  16 n =  5 d =  3 dia =  1
CFVol =  1.99166666667 CfVol =  1342.09166667 	 pcon =  0.00148400196211
s =  16 n =  5 d =  4 dia =  1
CFVol =  195.083333333 CfVol =  1342.09166667 	 pcon =  0.145357681728
s =  16 n =  5 d =  5 dia =  1
CFVol =  666.55 CfVol =  1342.09166667 	 pcon =  0.496650129462
s =  16 n =  5 d =  6 dia =  1
CFVol =  1030.85833333 CfVol =  1342.09166667 	 pcon =  0.768098304264
s =  16 n =  5 d =  7 dia =  1
CFVol =  1220.85833333 CfVol =  1342.09166667 	 pcon =  0.909668365921
s =  16 n =  5 d =  8 dia =  1
CFVol =  1303.90833333 CfVol =  1342.09166667 	 pcon =  0.971549384977
s =  16 n =  5 d =  9 dia =  1
CFVol =  1333.45833333 CfVol =  1342.09166667 	 pcon =  0.993567255093
s =  16 n =  6 d =  2 dia =  1
CFVol =  0.0 CfVol =  1388.88888889 	 pcon =  0.0
s =  16 n =  6 d =  3 dia =  1
CFVol =  35.2333333333 CfVol =  1388.88888889 	 pcon =  0.025368
s =  16 n =  6 d =  4 dia =  1
CFVol =  509.370833333 CfVol =  1388.88888889 	 pcon =  0.366747
s =  16 n =  6 d =  5 dia =  1
CFVol =  1022.38888889 CfVol =  1388.88888889 	 pcon =  0.73612
s =  16 n =  6 d =  6 dia =  1
CFVol =  1269.00416667 CfVol =  1388.88888889 	 pcon =  0.913683
s =  16 n =  6 d =  7 dia =  1
CFVol =  1358.41944444 CfVol =  1388.88888889 	 pcon =  0.978062
s =  16 n =  6 d =  8 dia =  1
CFVol =  1383.64861111 CfVol =  1388.88888889 	 pcon =  0.996227
s =  16 n =  6 d =  9 dia =  1
CFVol =  1388.44166667 CfVol =  1388.88888889 	 pcon =  0.999678
s =  16 n =  7 d =  2 dia =  1
CFVol =  0.000198412698413 CfVol =  949.001785714 	 pcon =  2.09075158129e-07
s =  16 n =  7 d =  3 dia =  1
CFVol =  120.027380952 CfVol =  949.001785714 	 pcon =  0.126477508008
s =  16 n =  7 d =  4 dia =  1
CFVol =  591.556547619 CfVol =  949.001785714 	 pcon =  0.623346084827
s =  16 n =  7 d =  5 dia =  1
CFVol =  849.497222222 CfVol =  949.001785714 	 pcon =  0.895148180973
s =  16 n =  7 d =  6 dia =  1
CFVol =  928.629166667 CfVol =  949.001785714 	 pcon =  0.978532580914
s =  16 n =  7 d =  7 dia =  1
CFVol =  946.347420635 CfVol =  949.001785714 	 pcon =  0.997202992535
s =  16 n =  7 d =  8 dia =  1
CFVol =  948.849007937 CfVol =  949.001785714 	 pcon =  0.999839012128
s =  16 n =  7 d =  9 dia =  1
CFVol =  949.000595238 CfVol =  949.001785714 	 pcon =  0.999998745549
s =  17 n =  3 d =  2 dia =  1
CFVol =  0.0 CfVol =  457.333333333 	 pcon =  0.0
s =  17 n =  3 d =  3 dia =  1
CFVol =  0.0 CfVol =  457.333333333 	 pcon =  0.0
s =  17 n =  3 d =  4 dia =  1
CFVol =  0.0 CfVol =  457.333333333 	 pcon =  0.0
s =  17 n =  3 d =  5 dia =  1
CFVol =  10.6666666667 CfVol =  457.333333333 	 pcon =  0.0233236151603
s =  17 n =  3 d =  6 dia =  1
CFVol =  73.6666666667 CfVol =  457.333333333 	 pcon =  0.161078717201
s =  17 n =  3 d =  7 dia =  1
CFVol =  174.333333333 CfVol =  457.333333333 	 pcon =  0.381195335277
s =  17 n =  3 d =  8 dia =  1
CFVol =  271.0 CfVol =  457.333333333 	 pcon =  0.592565597668
s =  17 n =  3 d =  9 dia =  1
CFVol =  343.666666667 CfVol =  457.333333333 	 pcon =  0.751457725948
s =  17 n =  4 d =  2 dia =  1
CFVol =  0.0 CfVol =  1190.04166667 	 pcon =  0.0
s =  17 n =  4 d =  3 dia =  1
CFVol =  0.0 CfVol =  1190.04166667 	 pcon =  0.0
s =  17 n =  4 d =  4 dia =  1
CFVol =  10.5416666667 CfVol =  1190.04166667 	 pcon =  0.00885823325514
s =  17 n =  4 d =  5 dia =  1
CFVol =  174.041666667 CfVol =  1190.04166667 	 pcon =  0.146248380659
s =  17 n =  4 d =  6 dia =  1
CFVol =  492.125 CfVol =  1190.04166667 	 pcon =  0.413535940618
s =  17 n =  4 d =  7 dia =  1
CFVol =  782.041666667 CfVol =  1190.04166667 	 pcon =  0.657154861524
s =  17 n =  4 d =  8 dia =  1
CFVol =  975.958333333 CfVol =  1190.04166667 	 pcon =  0.820104338083
s =  17 n =  4 d =  9 dia =  1
CFVol =  1090.58333333 CfVol =  1190.04166667 	 pcon =  0.916424494941
s =  17 n =  5 d =  2 dia =  1
CFVol =  0.0 CfVol =  2073.6 	 pcon =  0.0
s =  17 n =  5 d =  3 dia =  1
CFVol =  0.266666666667 CfVol =  2073.6 	 pcon =  0.000128600823045
s =  17 n =  5 d =  4 dia =  1
CFVol =  153.5 CfVol =  2073.6 	 pcon =  0.0740258487654
s =  17 n =  5 d =  5 dia =  1
CFVol =  768.883333333 CfVol =  2073.6 	 pcon =  0.370796360597
s =  17 n =  5 d =  6 dia =  1
CFVol =  1385.43333333 CfVol =  2073.6 	 pcon =  0.668129501029
s =  17 n =  5 d =  7 dia =  1
CFVol =  1762.31666667 CfVol =  2073.6 	 pcon =  0.849882651749
s =  17 n =  5 d =  8 dia =  1
CFVol =  1952.36666667 CfVol =  2073.6 	 pcon =  0.941534850823
s =  17 n =  5 d =  9 dia =  1
CFVol =  2035.41666667 CfVol =  2073.6 	 pcon =  0.98158596965
s =  17 n =  6 d =  2 dia =  1
CFVol =  0.0 CfVol =  2460.50138889 	 pcon =  0.0
s =  17 n =  6 d =  3 dia =  1
CFVol =  16.475 CfVol =  2460.50138889 	 pcon =  0.0066957897583
s =  17 n =  6 d =  4 dia =  1
CFVol =  587.252777778 CfVol =  2460.50138889 	 pcon =  0.238671996053
s =  17 n =  6 d =  5 dia =  1
CFVol =  1524.90972222 CfVol =  2460.50138889 	 pcon =  0.619755684394
s =  17 n =  6 d =  6 dia =  1
CFVol =  2093.1125 CfVol =  2460.50138889 	 pcon =  0.850685356022
s =  17 n =  6 d =  7 dia =  1
CFVol =  2340.61666667 CfVol =  2460.50138889 	 pcon =  0.95127630378
s =  17 n =  6 d =  8 dia =  1
CFVol =  2430.03194444 CfVol =  2460.50138889 	 pcon =  0.987616570922
s =  17 n =  6 d =  9 dia =  1
CFVol =  2455.26111111 CfVol =  2460.50138889 	 pcon =  0.997870239862
s =  17 n =  7 d =  2 dia =  1
CFVol =  0.0 CfVol =  1984.12698413 	 pcon =  0.0
s =  17 n =  7 d =  3 dia =  1
CFVol =  105.323015873 CfVol =  1984.12698413 	 pcon =  0.0530828
s =  17 n =  7 d =  4 dia =  1
CFVol =  946.623412698 CfVol =  1984.12698413 	 pcon =  0.4770982
s =  17 n =  7 d =  5 dia =  1
CFVol =  1620.25119048 CfVol =  1984.12698413 	 pcon =  0.8166066
s =  17 n =  7 d =  6 dia =  1
CFVol =  1884.61944444 CfVol =  1984.12698413 	 pcon =  0.9498482
s =  17 n =  7 d =  7 dia =  1
CFVol =  1963.75436508 CfVol =  1984.12698413 	 pcon =  0.9897322
s =  17 n =  7 d =  8 dia =  1
CFVol =  1981.47261905 CfVol =  1984.12698413 	 pcon =  0.9986622
s =  17 n =  7 d =  9 dia =  1
CFVol =  1983.97420635 CfVol =  1984.12698413 	 pcon =  0.999923
s =  18 n =  3 d =  2 dia =  1
CFVol =  0.0 CfVol =  562.5 	 pcon =  0.0
s =  18 n =  3 d =  3 dia =  1
CFVol =  0.0 CfVol =  562.5 	 pcon =  0.0
s =  18 n =  3 d =  4 dia =  1
CFVol =  0.0 CfVol =  562.5 	 pcon =  0.0
s =  18 n =  3 d =  5 dia =  1
CFVol =  4.5 CfVol =  562.5 	 pcon =  0.008
s =  18 n =  3 d =  6 dia =  1
CFVol =  54.1666666667 CfVol =  562.5 	 pcon =  0.0962962962963
s =  18 n =  3 d =  7 dia =  1
CFVol =  158.833333333 CfVol =  562.5 	 pcon =  0.28237037037
s =  18 n =  3 d =  8 dia =  1
CFVol =  277.666666667 CfVol =  562.5 	 pcon =  0.49362962963
s =  18 n =  3 d =  9 dia =  1
CFVol =  376.166666667 CfVol =  562.5 	 pcon =  0.668740740741
s =  18 n =  4 d =  2 dia =  1
CFVol =  0.0 CfVol =  1600.66666667 	 pcon =  0.0
s =  18 n =  4 d =  3 dia =  1
CFVol =  0.0 CfVol =  1600.66666667 	 pcon =  0.0
s =  18 n =  4 d =  4 dia =  1
CFVol =  3.375 CfVol =  1600.66666667 	 pcon =  0.00210849645981
s =  18 n =  4 d =  5 dia =  1
CFVol =  131.916666667 CfVol =  1600.66666667 	 pcon =  0.082413577676
s =  18 n =  4 d =  6 dia =  1
CFVol =  492.125 CfVol =  1600.66666667 	 pcon =  0.307450020825
s =  18 n =  4 d =  7 dia =  1
CFVol =  890.833333333 CfVol =  1600.66666667 	 pcon =  0.556538942107
s =  18 n =  4 d =  8 dia =  1
CFVol =  1192.54166667 CfVol =  1600.66666667 	 pcon =  0.745028113286
s =  18 n =  4 d =  9 dia =  1
CFVol =  1386.58333333 CfVol =  1600.66666667 	 pcon =  0.866253644315
s =  18 n =  5 d =  2 dia =  1
CFVol =  0.0 CfVol =  3094.10833333 	 pcon =  0.0
s =  18 n =  5 d =  3 dia =  1
CFVol =  0.00833333333333 CfVol =  3094.10833333 	 pcon =  2.69329074343e-06
s =  18 n =  5 d =  4 dia =  1
CFVol =  101.925 CfVol =  3094.10833333 	 pcon =  0.0329416390829
s =  18 n =  5 d =  5 dia =  1
CFVol =  806.183333333 CfVol =  3094.10833333 	 pcon =  0.260554333101
s =  18 n =  5 d =  6 dia =  1
CFVol =  1736.01666667 CfVol =  3094.10833333 	 pcon =  0.561071714253
s =  18 n =  5 d =  7 dia =  1
CFVol =  2404.325 CfVol =  3094.10833333 	 pcon =  0.777065552003
s =  18 n =  5 d =  8 dia =  1
CFVol =  2782.825 CfVol =  3094.10833333 	 pcon =  0.89939481757
s =  18 n =  5 d =  9 dia =  1
CFVol =  2972.875 CfVol =  3094.10833333 	 pcon =  0.960818006265
s =  18 n =  6 d =  2 dia =  1
CFVol =  0.0 CfVol =  4147.2 	 pcon =  0.0
s =  18 n =  6 d =  3 dia =  1
CFVol =  5.24166666667 CfVol =  4147.2 	 pcon =  0.00126390496399
s =  18 n =  6 d =  4 dia =  1
CFVol =  587.252777778 CfVol =  4147.2 	 pcon =  0.141602232296
s =  18 n =  6 d =  5 dia =  1
CFVol =  2067.05555556 CfVol =  4147.2 	 pcon =  0.498421960734
s =  18 n =  6 d =  6 dia =  1
CFVol =  3201.49583333 CfVol =  4147.2 	 pcon =  0.771965623392
s =  18 n =  6 d =  7 dia =  1
CFVol =  3779.79722222 CfVol =  4147.2 	 pcon =  0.911409438229
s =  18 n =  6 d =  8 dia =  1
CFVol =  4027.31527778 CfVol =  4147.2 	 pcon =  0.971092611347
s =  18 n =  6 d =  9 dia =  1
CFVol =  4116.73055556 CfVol =  4147.2 	 pcon =  0.992653008188
s =  18 n =  7 d =  2 dia =  1
CFVol =  0.0 CfVol =  3866.50218254 	 pcon =  0.0
s =  18 n =  7 d =  3 dia =  1
CFVol =  70.7037698413 CfVol =  3866.50218254 	 pcon =  0.0182862355957
s =  18 n =  7 d =  4 dia =  1
CFVol =  1314.5343254 CfVol =  3866.50218254 	 pcon =  0.339980236228
s =  18 n =  7 d =  5 dia =  1
CFVol =  2781.82202381 CfVol =  3866.50218254 	 pcon =  0.719467335715
s =  18 n =  7 d =  6 dia =  1
CFVol =  3502.24603175 CfVol =  3866.50218254 	 pcon =  0.905791815549
s =  18 n =  7 d =  7 dia =  1
CFVol =  3766.99464286 CfVol =  3866.50218254 	 pcon =  0.974264196686
s =  18 n =  7 d =  8 dia =  1
CFVol =  3846.12956349 CfVol =  3866.50218254 	 pcon =  0.994730995074
s =  18 n =  7 d =  9 dia =  1
CFVol =  3863.84781746 CfVol =  3866.50218254 	 pcon =  0.999313497069
s =  19 n =  3 d =  2 dia =  1
CFVol =  0.0 CfVol =  682.666666667 	 pcon =  0.0
s =  19 n =  3 d =  3 dia =  1
CFVol =  0.0 CfVol =  682.666666667 	 pcon =  0.0
s =  19 n =  3 d =  4 dia =  1
CFVol =  0.0 CfVol =  682.666666667 	 pcon =  0.0
s =  19 n =  3 d =  5 dia =  1
CFVol =  1.33333333333 CfVol =  682.666666667 	 pcon =  0.001953125
s =  19 n =  3 d =  6 dia =  1
CFVol =  35.6666666667 CfVol =  682.666666667 	 pcon =  0.05224609375
s =  19 n =  3 d =  7 dia =  1
CFVol =  136.333333333 CfVol =  682.666666667 	 pcon =  0.19970703125
s =  19 n =  3 d =  8 dia =  1
CFVol =  271.0 CfVol =  682.666666667 	 pcon =  0.39697265625
s =  19 n =  3 d =  9 dia =  1
CFVol =  397.666666667 CfVol =  682.666666667 	 pcon =  0.58251953125
s =  19 n =  4 d =  2 dia =  1
CFVol =  0.0 CfVol =  2109.375 	 pcon =  0.0
s =  19 n =  4 d =  3 dia =  1
CFVol =  0.0 CfVol =  2109.375 	 pcon =  0.0
s =  19 n =  4 d =  4 dia =  1
CFVol =  0.666666666667 CfVol =  2109.375 	 pcon =  0.000316049382716
s =  19 n =  4 d =  5 dia =  1
CFVol =  88.5833333333 CfVol =  2109.375 	 pcon =  0.0419950617284
s =  19 n =  4 d =  6 dia =  1
CFVol =  458.125 CfVol =  2109.375 	 pcon =  0.217185185185
s =  19 n =  4 d =  7 dia =  1
CFVol =  962.083333333 CfVol =  2109.375 	 pcon =  0.456098765432
s =  19 n =  4 d =  8 dia =  1
CFVol =  1397.41666667 CfVol =  2109.375 	 pcon =  0.662479012346
s =  19 n =  4 d =  9 dia =  1
CFVol =  1701.25 CfVol =  2109.375 	 pcon =  0.806518518519
s =  19 n =  5 d =  2 dia =  1
CFVol =  0.0 CfVol =  4481.86666667 	 pcon =  0.0
s =  19 n =  5 d =  3 dia =  1
CFVol =  0.0 CfVol =  4481.86666667 	 pcon =  0.0
s =  19 n =  5 d =  4 dia =  1
CFVol =  56.1666666667 CfVol =  4481.86666667 	 pcon =  0.0125319807223
s =  19 n =  5 d =  5 dia =  1
CFVol =  768.883333333 CfVol =  4481.86666667 	 pcon =  0.171554263105
s =  19 n =  5 d =  6 dia =  1
CFVol =  2035.1 CfVol =  4481.86666667 	 pcon =  0.454074195276
s =  19 n =  5 d =  7 dia =  1
CFVol =  3111.15 CfVol =  4481.86666667 	 pcon =  0.694163890046
s =  19 n =  5 d =  8 dia =  1
CFVol =  3792.03333333 CfVol =  4481.86666667 	 pcon =  0.846083477123
s =  19 n =  5 d =  9 dia =  1
CFVol =  4170.58333333 CfVol =  4481.86666667 	 pcon =  0.93054605224
s =  19 n =  6 d =  2 dia =  1
CFVol =  0.0 CfVol =  6703.90138889 	 pcon =  0.0
s =  19 n =  6 d =  3 dia =  1
CFVol =  1.00555555556 CfVol =  6703.90138889 	 pcon =  0.000149995576788
s =  19 n =  6 d =  4 dia =  1
CFVol =  509.370833333 CfVol =  6703.90138889 	 pcon =  0.0759812538677
s =  19 n =  6 d =  5 dia =  1
CFVol =  2560.0625 CfVol =  6703.90138889 	 pcon =  0.381876515106
s =  19 n =  6 d =  6 dia =  1
CFVol =  4567.66944444 CfVol =  6703.90138889 	 pcon =  0.681344963101
s =  19 n =  6 d =  7 dia =  1
CFVol =  5757.30833333 CfVol =  6703.90138889 	 pcon =  0.858799674899
s =  19 n =  6 d =  8 dia =  1
CFVol =  6336.49861111 CfVol =  6703.90138889 	 pcon =  0.945195676895
s =  19 n =  6 d =  9 dia =  1
CFVol =  6584.01666667 CfVol =  6703.90138889 	 pcon =  0.982117170992
s =  19 n =  7 d =  2 dia =  1
CFVol =  0.0 CfVol =  7109.48571429 	 pcon =  0.0
s =  19 n =  7 d =  3 dia =  1
CFVol =  35.5535714286 CfVol =  7109.48571429 	 pcon =  0.00500086403678
s =  19 n =  7 d =  4 dia =  1
CFVol =  1596.23571429 CfVol =  7109.48571429 	 pcon =  0.224521966628
s =  19 n =  7 d =  5 dia =  1
CFVol =  4340.06785714 CfVol =  7109.48571429 	 pcon =  0.610461576485
s =  19 n =  7 d =  6 dia =  1
CFVol =  6018.375 CfVol =  7109.48571429 	 pcon =  0.84652747637
s =  19 n =  7 d =  7 dia =  1
CFVol =  6745.2265873 CfVol =  7109.48571429 	 pcon =  0.948764349262
s =  19 n =  7 d =  8 dia =  1
CFVol =  7009.9781746 CfVol =  7109.48571429 	 pcon =  0.986003553044
s =  19 n =  7 d =  9 dia =  1
CFVol =  7089.11309524 CfVol =  7109.48571429 	 pcon =  0.997134445463
