%!PS-Adobe-3.0 EPSF-3.0
%%Title: /home/ganesh/Checkouts/polytope-comps/samplers/figs/Uniform-meandeg.eps
%%Creator: matplotlib version 1.3.1, http://matplotlib.org/
%%CreationDate: Sun Jun  5 16:29:48 2016
%%Orientation: portrait
%%BoundingBox: 13 193 598 598
%%EndComments
%%BeginProlog
/mpldict 9 dict def
mpldict begin
/m { moveto } bind def
/l { lineto } bind def
/r { rlineto } bind def
/c { curveto } bind def
/cl { closepath } bind def
/box {
m
1 index 0 r
0 exch r
neg 0 r
cl
} bind def
/clipbox {
box
clip
newpath
} bind def
%!PS-Adobe-3.0 Resource-Font
%%Title: Liberation Sans
%%Copyright: Copyright (c) 2007 Red Hat, Inc. All rights reserved. LIBERATION is a trademark of Red Hat, Inc.
%%Creator: Converted from TrueType to type 3 by PPR
25 dict begin
/_d{bind def}bind def
/_m{moveto}_d
/_l{lineto}_d
/_cl{closepath eofill}_d
/_c{curveto}_d
/_sc{7 -1 roll{setcachedevice}{pop pop pop pop pop pop}ifelse}_d
/_e{exec}_d
/FontName /LiberationSans def
/PaintType 0 def
/FontMatrix[.001 0 0 .001 0 0]def
/FontBBox[-203 -303 1050 910]def
/FontType 3 def
/Encoding [ /uni00A0 /period /zero /one /two /three /four /five /six /colon /equal /C /D /M /N /R /a /b /d /e /f /g /m /n /o /r /s /t ] def
/FontInfo 10 dict dup begin
/FamilyName (Liberation Sans) def
/FullName (Liberation Sans) def
/Notice (Copyright (c) 2007 Red Hat, Inc. All rights reserved. LIBERATION is a trademark of Red Hat, Inc. Liberation is a trademark of Red Hat, Inc. registered in U.S. Patent and Trademark Office and certain other jurisdictions.) def
/Weight (Regular) def
/Version (Version 1.07.3) def
/ItalicAngle 0.0 def
/isFixedPitch false def
/UnderlinePosition -217 def
/UnderlineThickness 150 def
end readonly def
/CharStrings 28 dict dup begin
/uni00A0{278 0 0 0 0 0 _sc
}_d
/period{278 0 91 0 187 107 _sc
91 0 _m
91 107 _l
187 107 _l
187 0 _l
91 0 _l
_cl}_d
/zero{{556 0 39 -9 517 698 _sc
517 344 _m
517 278 510 222 498 177 _c
485 132 468 96 447 68 _c
425 40 400 20 371 8 _c
341 -3 310 -9 277 -9 _c
243 -9 212 -3 183 8 _c
154 20 129 39 108 67 _c
86 95 69 131 57 177 _c
45 222 39 278 39 344 _c
39 413 45 470 57 516 _c
69 561 86 597 108 625 _c
129 652 154 671 184 682 _c
213 692 245 698 280 698 _c
}_e{312 698 343 692 372 682 _c
401 671 426 652 448 625 _c
469 597 486 561 498 516 _c
510 470 517 413 517 344 _c
428 344 _m
428 398 424 444 418 480 _c
411 516 401 545 389 567 _c
376 589 360 604 342 613 _c
324 622 303 627 280 627 _c
255 627 233 622 214 613 _c
195 604 179 589 166 567 _c
153 545 143 516 137 480 _c
131 444 128 398 128 344 _c
128 291 131 247 138 211 _c
}_e{144 175 154 146 167 124 _c
180 102 196 86 214 76 _c
232 66 254 62 278 62 _c
301 62 322 66 340 76 _c
358 86 374 102 387 124 _c
400 146 410 175 417 211 _c
424 247 428 291 428 344 _c
_cl}_e}_d
/one{556 0 76 0 507 688 _sc
76 0 _m
76 75 _l
251 75 _l
251 604 _l
96 493 _l
96 576 _l
259 688 _l
340 688 _l
340 75 _l
507 75 _l
507 0 _l
76 0 _l
_cl}_d
/two{{556 0 50 0 506 698 _sc
50 0 _m
50 62 _l
66 100 87 133 111 163 _c
135 192 160 218 186 242 _c
212 265 239 287 265 307 _c
291 327 314 348 335 368 _c
355 388 372 409 385 431 _c
398 453 405 479 405 507 _c
405 526 402 543 396 558 _c
390 573 381 586 370 596 _c
359 606 346 613 331 618 _c
315 623 298 626 279 626 _c
261 626 245 623 230 618 _c
214 613 200 606 188 596 _c
}_e{176 586 166 574 158 560 _c
150 546 146 529 144 510 _c
54 518 _l
57 542 64 566 75 588 _c
85 610 100 629 119 645 _c
137 661 160 674 187 684 _c
213 693 244 698 279 698 _c
313 698 344 694 371 686 _c
397 678 420 666 438 650 _c
456 634 470 614 480 591 _c
490 567 495 540 495 510 _c
495 486 490 464 482 444 _c
474 423 463 403 449 384 _c
435 365 419 347 401 329 _c
}_e{383 311 364 294 344 278 _c
324 261 304 244 284 228 _c
264 212 245 195 227 179 _c
209 162 194 145 180 128 _c
166 111 155 93 147 75 _c
506 75 _l
506 0 _l
50 0 _l
_cl}_e}_d
/three{{556 0 38 -9 512 698 _sc
512 190 _m
512 158 506 130 496 105 _c
486 80 471 59 451 42 _c
431 25 407 12 378 4 _c
349 -4 316 -9 279 -9 _c
236 -9 200 -4 171 6 _c
141 16 117 30 99 48 _c
80 65 66 85 56 107 _c
46 129 40 153 38 177 _c
129 185 _l
131 167 136 150 143 135 _c
150 120 160 107 172 97 _c
184 86 198 78 216 72 _c
234 66 255 63 279 63 _c
}_e{323 63 357 73 383 95 _c
408 117 421 149 421 193 _c
421 218 415 238 404 254 _c
392 269 378 281 362 290 _c
345 298 327 304 307 307 _c
287 310 269 312 253 312 _c
203 312 _l
203 388 _l
251 388 _l
267 388 285 389 303 393 _c
321 396 337 402 352 411 _c
366 420 378 432 388 448 _c
398 463 403 483 403 507 _c
403 543 392 572 370 594 _c
348 615 316 626 274 626 _c
}_e{235 626 204 616 180 596 _c
156 576 142 548 138 512 _c
50 519 _l
53 549 61 575 74 598 _c
87 620 104 639 124 654 _c
144 668 166 679 192 687 _c
218 694 245 698 275 698 _c
313 698 346 693 374 683 _c
402 673 424 660 442 644 _c
459 628 472 609 480 587 _c
488 565 493 541 493 516 _c
493 496 490 477 485 459 _c
479 441 471 426 459 412 _c
447 398 432 386 414 376 _c
}_e{396 366 374 358 349 353 _c
349 351 _l
377 348 401 342 421 332 _c
441 322 458 310 472 296 _c
485 282 495 265 502 247 _c
508 229 512 210 512 190 _c
_cl}_e}_d
/four{556 0 23 0 527 688 _sc
430 156 _m
430 0 _l
347 0 _l
347 156 _l
23 156 _l
23 224 _l
338 688 _l
430 688 _l
430 225 _l
527 225 _l
527 156 _l
430 156 _l
347 589 _m
346 587 344 583 342 579 _c
339 574 336 569 333 563 _c
330 557 327 552 323 546 _c
319 540 316 535 314 531 _c
138 271 _l
136 268 134 264 131 260 _c
127 256 124 251 121 247 _c
118 243 115 239 112 235 _c
108 231 106 227 104 225 _c
347 225 _l
347 589 _l
_cl}_d
/five{{556 0 40 -9 514 688 _sc
514 224 _m
514 189 508 157 498 129 _c
488 100 472 75 452 55 _c
431 34 405 18 375 7 _c
345 -3 310 -9 270 -9 _c
234 -9 202 -5 175 3 _c
148 11 125 23 107 38 _c
89 52 74 70 63 90 _c
52 110 44 131 40 154 _c
129 164 _l
132 151 137 138 144 126 _c
150 114 159 103 171 93 _c
182 83 196 76 212 70 _c
228 64 248 62 272 62 _c
}_e{294 62 315 65 334 72 _c
352 79 368 89 381 103 _c
394 117 404 134 412 154 _c
419 174 423 196 423 222 _c
423 243 419 262 412 280 _c
405 298 395 313 383 326 _c
370 339 354 349 336 356 _c
318 363 297 367 274 367 _c
259 367 245 365 233 363 _c
221 360 209 356 199 352 _c
188 348 178 343 170 337 _c
161 331 153 324 146 318 _c
60 318 _l
83 688 _l
474 688 _l
474 613 _l
}_e{163 613 _l
150 395 _l
165 407 184 417 208 426 _c
232 434 260 439 292 439 _c
326 439 356 433 384 423 _c
411 413 434 398 454 379 _c
473 360 488 337 498 311 _c
508 284 514 255 514 224 _c
_cl}_e}_d
/six{{556 0 51 -9 512 698 _sc
512 225 _m
512 190 507 158 497 130 _c
487 101 473 76 455 56 _c
436 35 413 19 385 8 _c
357 -3 326 -9 290 -9 _c
250 -9 215 -1 185 13 _c
155 28 130 50 110 79 _c
90 108 76 143 66 185 _c
56 227 51 274 51 328 _c
51 389 56 443 67 489 _c
78 535 94 574 116 605 _c
137 635 163 658 193 674 _c
223 690 258 698 297 698 _c
}_e{320 698 342 695 363 691 _c
383 686 402 678 419 667 _c
435 656 450 642 463 624 _c
475 606 485 584 493 558 _c
409 543 _l
400 572 385 593 365 607 _c
345 620 322 627 296 627 _c
272 627 250 621 230 610 _c
210 598 194 581 180 559 _c
166 536 156 507 149 473 _c
141 439 138 399 138 354 _c
154 383 176 405 205 421 _c
234 437 267 445 305 445 _c
336 445 364 440 390 430 _c
}_e{415 420 437 405 455 386 _c
473 366 487 343 497 316 _c
507 289 512 259 512 225 _c
423 221 _m
423 245 420 266 414 285 _c
408 304 399 320 387 334 _c
375 348 361 358 344 366 _c
326 373 306 377 284 377 _c
268 377 251 374 235 370 _c
219 365 204 357 191 347 _c
178 336 167 322 159 305 _c
151 287 147 266 147 242 _c
147 216 150 193 157 171 _c
163 149 173 129 185 113 _c
}_e{197 97 211 84 229 75 _c
246 65 265 61 287 61 _c
308 61 327 64 344 72 _c
360 79 374 90 386 104 _c
398 118 407 134 413 154 _c
419 174 423 196 423 221 _c
_cl}_e}_d
/colon{278 0 91 0 187 528 _sc
91 427 _m
91 528 _l
187 528 _l
187 427 _l
91 427 _l
91 0 _m
91 101 _l
187 101 _l
187 0 _l
91 0 _l
_cl}_d
/equal{584 0 49 168 535 490 _sc
49 418 _m
49 490 _l
535 490 _l
535 418 _l
49 418 _l
49 168 _m
49 240 _l
535 240 _l
535 168 _l
49 168 _l
_cl}_d
/C{{722 0 51 -9 684 698 _sc
387 622 _m
347 622 313 615 283 602 _c
253 589 227 571 207 547 _c
187 523 171 494 161 460 _c
151 426 146 388 146 347 _c
146 305 151 267 162 233 _c
173 199 189 169 210 145 _c
231 120 257 101 287 87 _c
317 73 352 67 391 67 _c
417 67 442 70 464 77 _c
486 84 505 94 523 107 _c
541 119 557 134 571 152 _c
585 169 597 188 608 210 _c
684 172 _l
}_e{672 146 656 122 638 100 _c
620 78 598 58 574 42 _c
549 26 521 13 490 4 _c
459 -4 424 -9 386 -9 _c
330 -9 282 0 240 17 _c
198 34 163 59 135 91 _c
107 123 86 160 72 204 _c
58 248 51 295 51 347 _c
51 401 58 449 73 493 _c
87 536 109 573 138 603 _c
166 633 201 657 243 673 _c
285 689 332 698 386 698 _c
459 698 520 683 569 655 _c
}_e{618 626 654 584 678 528 _c
589 499 _l
583 515 574 530 563 545 _c
551 559 537 572 521 584 _c
505 596 485 605 463 612 _c
441 618 415 622 387 622 _c
_cl}_e}_d
/D{{722 0 82 0 674 688 _sc
674 351 _m
674 293 665 243 648 199 _c
631 155 608 119 578 89 _c
548 59 512 37 471 22 _c
430 7 386 0 339 0 _c
82 0 _l
82 688 _l
310 688 _l
362 688 411 681 456 668 _c
500 654 539 634 571 607 _c
603 579 629 544 647 502 _c
665 460 674 409 674 351 _c
581 351 _m
581 397 574 437 561 470 _c
547 503 528 530 504 551 _c
480 572 451 588 418 598 _c
}_e{384 608 348 613 308 613 _c
175 613 _l
175 75 _l
329 75 _l
365 75 398 80 429 92 _c
459 104 486 121 508 144 _c
530 167 548 196 561 231 _c
574 265 581 305 581 351 _c
_cl}_e}_d
/M{{833 0 82 0 751 688 _sc
667 0 _m
667 459 _l
667 475 667 492 667 510 _c
667 527 668 543 669 557 _c
669 573 670 589 671 605 _c
667 589 662 572 657 556 _c
653 542 648 527 643 511 _c
638 495 633 481 628 469 _c
451 0 _l
385 0 _l
205 469 _l
203 473 201 479 199 486 _c
197 492 194 499 192 507 _c
189 514 186 521 184 529 _c
182 537 180 544 178 552 _c
172 569 166 587 162 605 _c
}_e{162 587 162 569 163 551 _c
163 535 164 519 164 503 _c
164 486 165 471 165 459 _c
165 0 _l
82 0 _l
82 688 _l
205 688 _l
388 211 _l
390 204 392 195 396 185 _c
399 175 402 164 405 154 _c
408 143 411 133 413 123 _c
415 113 417 106 418 102 _c
419 106 421 114 424 124 _c
426 134 429 144 433 155 _c
436 165 439 176 443 186 _c
446 196 449 204 452 211 _c
631 688 _l
}_e{751 688 _l
751 0 _l
667 0 _l
_cl}_e}_d
/N{722 0 82 0 641 688 _sc
528 0 _m
160 586 _l
160 570 161 554 163 539 _c
163 525 164 511 164 496 _c
164 481 165 468 165 457 _c
165 0 _l
82 0 _l
82 688 _l
190 688 _l
563 98 _l
561 114 560 130 560 146 _c
559 160 558 175 558 191 _c
557 207 557 222 557 237 _c
557 688 _l
641 688 _l
641 0 _l
528 0 _l
_cl}_d
/R{{722 0 82 0 676 688 _sc
568 0 _m
390 286 _l
175 286 _l
175 0 _l
82 0 _l
82 688 _l
406 688 _l
444 688 479 683 509 674 _c
539 665 565 652 585 635 _c
605 618 621 597 632 573 _c
642 549 648 521 648 491 _c
648 469 644 447 638 426 _c
632 405 622 386 608 368 _c
594 350 577 335 556 323 _c
535 310 510 301 480 296 _c
676 0 _l
568 0 _l
555 490 _m
}_e{555 510 551 528 544 544 _c
536 559 526 572 512 582 _c
498 592 482 600 463 605 _c
443 610 421 613 396 613 _c
175 613 _l
175 359 _l
400 359 _l
426 359 449 362 469 369 _c
489 375 505 385 518 397 _c
530 409 540 422 546 438 _c
552 454 555 471 555 490 _c
_cl}_e}_d
/a{{556 0 42 -9 556 538 _sc
202 -9 _m
149 -9 109 4 82 32 _c
55 60 42 98 42 147 _c
42 182 48 211 62 233 _c
75 255 92 273 114 286 _c
135 298 159 307 187 312 _c
214 316 242 319 271 320 _c
389 322 _l
389 351 _l
389 373 386 391 382 407 _c
377 422 370 434 361 444 _c
351 453 340 460 326 464 _c
312 468 295 471 276 471 _c
258 471 243 469 229 467 _c
}_e{215 465 204 460 194 454 _c
184 448 176 439 170 428 _c
164 417 160 403 158 387 _c
66 396 _l
69 416 75 435 84 453 _c
93 470 106 485 123 498 _c
139 510 160 520 186 527 _c
211 534 242 538 278 538 _c
344 538 393 522 427 492 _c
461 462 478 418 478 360 _c
478 133 _l
478 107 481 87 488 74 _c
495 60 508 54 527 54 _c
532 54 537 54 542 55 _c
546 55 551 56 556 58 _c
}_e{556 3 _l
545 1 534 0 523 -2 _c
512 -3 500 -4 488 -4 _c
471 -4 457 -2 445 2 _c
433 6 424 12 416 21 _c
408 30 403 41 399 55 _c
395 68 393 83 392 101 _c
389 101 _l
379 84 369 69 358 55 _c
346 41 333 30 318 20 _c
303 10 286 3 267 -1 _c
248 -6 226 -9 202 -9 _c
222 56 _m
250 56 274 61 295 71 _c
316 81 334 95 348 111 _c
}_e{362 127 372 144 379 163 _c
385 181 389 199 389 217 _c
389 261 _l
293 259 _l
271 258 251 256 232 254 _c
212 251 195 246 181 238 _c
166 230 154 218 146 204 _c
137 189 133 170 133 146 _c
133 117 140 95 156 79 _c
171 63 193 56 222 56 _c
_cl}_e}_d
/b{{556 0 64 -9 514 725 _sc
514 267 _m
514 83 449 -9 320 -9 _c
280 -9 246 -2 220 12 _c
193 26 171 50 155 82 _c
154 82 _l
154 73 153 64 153 55 _c
153 46 152 38 152 30 _c
151 22 150 16 150 10 _c
150 4 149 1 149 0 _c
64 0 _l
64 2 65 7 65 14 _c
65 21 66 30 66 40 _c
66 50 67 60 67 72 _c
67 84 67 96 67 109 _c
67 725 _l
155 725 _l
}_e{155 518 _l
155 508 155 498 155 490 _c
155 481 154 473 154 466 _c
154 458 153 450 153 443 _c
155 443 _l
171 477 193 501 220 516 _c
246 530 280 538 320 538 _c
386 538 435 515 467 470 _c
498 425 514 357 514 267 _c
422 264 _m
422 300 419 331 415 357 _c
410 383 403 404 393 421 _c
383 438 370 450 354 458 _c
338 466 319 470 297 470 _c
274 470 254 466 236 459 _c
}_e{218 451 203 439 191 423 _c
179 406 170 384 164 357 _c
158 330 155 297 155 258 _c
155 220 158 189 164 163 _c
170 137 179 116 191 100 _c
203 84 217 72 235 65 _c
253 58 273 55 296 55 _c
318 55 336 58 352 66 _c
367 74 380 86 391 102 _c
401 118 409 140 414 167 _c
419 193 422 226 422 264 _c
_cl}_e}_d
/d{{556 0 42 -9 492 725 _sc
401 85 _m
384 51 362 26 336 12 _c
309 -2 276 -9 236 -9 _c
169 -9 120 13 89 58 _c
57 102 42 170 42 262 _c
42 446 106 538 236 538 _c
276 538 309 530 336 516 _c
362 501 384 478 401 446 _c
402 446 _l
402 449 401 454 401 461 _c
401 468 401 475 401 483 _c
401 491 401 498 401 505 _c
401 512 401 517 401 520 _c
401 725 _l
489 725 _l
489 109 _l
}_e{489 96 489 84 489 72 _c
489 60 489 50 489 40 _c
489 30 490 21 490 14 _c
490 7 491 2 492 0 _c
408 0 _l
407 3 406 8 406 14 _c
405 20 404 26 404 34 _c
404 42 403 50 403 59 _c
403 67 403 76 403 85 _c
401 85 _l
134 265 _m
134 228 136 197 141 171 _c
145 145 153 123 163 107 _c
173 90 185 78 201 70 _c
217 62 236 58 259 58 _c
}_e{281 58 302 61 320 69 _c
338 77 352 89 364 106 _c
376 122 385 144 391 171 _c
397 198 401 231 401 271 _c
401 308 397 339 391 365 _c
385 391 376 412 364 428 _c
352 444 337 455 320 462 _c
302 469 282 473 260 473 _c
238 473 220 469 204 462 _c
188 454 175 442 165 426 _c
154 409 146 387 141 361 _c
136 334 134 302 134 265 _c
_cl}_e}_d
/e{{556 0 42 -9 512 538 _sc
135 246 _m
135 218 137 192 143 169 _c
149 145 158 125 170 109 _c
182 92 197 79 215 70 _c
233 60 256 56 282 56 _c
320 56 350 63 373 79 _c
396 94 412 113 420 137 _c
498 115 _l
492 100 484 85 474 71 _c
464 56 450 43 434 31 _c
418 19 397 9 372 2 _c
347 -5 317 -9 282 -9 _c
204 -9 144 14 103 60 _c
62 106 42 176 42 268 _c
}_e{42 317 48 359 61 393 _c
73 427 90 455 112 477 _c
133 498 158 513 187 523 _c
215 533 246 538 279 538 _c
323 538 360 530 390 516 _c
420 502 444 482 462 457 _c
480 431 492 402 500 368 _c
508 334 512 297 512 257 _c
512 246 _l
135 246 _l
421 313 _m
416 368 402 408 378 434 _c
354 460 321 473 277 473 _c
262 473 247 470 231 466 _c
215 461 200 453 186 441 _c
}_e{172 429 161 412 152 392 _c
142 371 137 345 136 313 _c
421 313 _l
_cl}_e}_d
/f{{278 0 14 0 279 724 _sc
176 464 _m
176 0 _l
88 0 _l
88 464 _l
14 464 _l
14 528 _l
88 528 _l
88 588 _l
88 607 89 625 93 641 _c
97 657 103 672 113 684 _c
123 696 136 706 153 713 _c
169 720 191 724 217 724 _c
227 724 238 723 250 722 _c
261 721 271 720 279 718 _c
279 651 _l
273 651 267 652 260 653 _c
252 654 246 655 240 655 _c
227 655 216 653 208 649 _c
}_e{200 645 193 640 189 634 _c
184 627 181 619 179 609 _c
177 599 176 588 176 576 _c
176 528 _l
279 528 _l
279 464 _l
176 464 _l
_cl}_e}_d
/g{{556 0 42 -207 492 537 _sc
268 -207 _m
237 -207 210 -203 187 -197 _c
163 -191 143 -182 127 -170 _c
110 -158 96 -145 86 -129 _c
76 -113 68 -95 64 -76 _c
152 -63 _l
158 -87 171 -106 191 -120 _c
211 -133 237 -140 270 -140 _c
290 -140 308 -137 324 -131 _c
340 -125 354 -116 366 -104 _c
377 -92 386 -76 392 -57 _c
398 -37 401 -14 401 13 _c
401 98 _l
400 98 _l
394 84 386 72 376 60 _c
}_e{366 48 355 37 341 27 _c
327 17 311 10 293 5 _c
275 0 254 -3 230 -3 _c
196 -3 168 2 144 13 _c
120 24 100 41 85 63 _c
70 85 59 113 52 147 _c
45 180 42 219 42 263 _c
42 305 45 343 52 377 _c
59 411 70 439 86 463 _c
102 487 122 505 148 518 _c
173 530 204 537 240 537 _c
277 537 309 528 337 511 _c
365 493 386 469 401 438 _c
402 438 _l
}_e{402 446 402 455 403 465 _c
403 475 404 484 404 493 _c
404 502 405 510 406 517 _c
406 523 407 527 408 528 _c
492 528 _l
491 525 490 520 490 513 _c
490 506 489 498 489 488 _c
489 478 489 468 489 456 _c
489 444 489 431 489 419 _c
489 15 _l
489 -58 470 -113 434 -151 _c
398 -188 342 -207 268 -207 _c
401 264 _m
401 300 397 332 389 358 _c
381 384 370 406 357 423 _c
}_e{344 439 329 451 313 459 _c
296 467 279 471 262 471 _c
239 471 220 467 204 459 _c
188 451 174 439 164 422 _c
153 405 145 384 140 358 _c
135 332 133 300 133 264 _c
133 226 135 194 140 168 _c
145 142 153 121 163 105 _c
173 89 187 78 203 71 _c
219 64 238 61 260 61 _c
278 61 295 64 312 72 _c
328 79 343 91 357 107 _c
370 123 381 144 389 170 _c
}_e{397 196 401 227 401 264 _c
_cl}_e}_d
/m{{833 0 66 0 767 538 _sc
375 0 _m
375 335 _l
375 361 373 382 370 399 _c
366 416 361 430 353 441 _c
345 451 335 459 323 463 _c
311 467 296 470 278 470 _c
259 470 242 466 228 459 _c
213 451 200 441 190 427 _c
179 413 171 396 165 376 _c
159 356 157 332 157 306 _c
157 0 _l
69 0 _l
69 416 _l
69 426 69 438 69 450 _c
69 462 68 474 68 485 _c
68 495 67 505 67 513 _c
}_e{67 521 66 526 66 528 _c
149 528 _l
149 526 150 522 150 515 _c
150 507 151 499 151 490 _c
151 481 152 472 152 462 _c
152 452 153 444 153 438 _c
155 438 _l
163 453 171 467 180 479 _c
189 491 200 502 212 511 _c
224 519 238 526 254 531 _c
270 535 288 538 309 538 _c
349 538 380 530 404 514 _c
427 498 443 472 453 438 _c
454 438 _l
462 453 470 467 480 479 _c
}_e{490 491 501 502 514 511 _c
527 519 542 526 558 531 _c
574 535 593 538 614 538 _c
640 538 663 534 683 527 _c
702 520 718 509 731 494 _c
743 479 752 460 758 436 _c
764 412 767 384 767 352 _c
767 0 _l
680 0 _l
680 335 _l
680 361 678 382 675 399 _c
671 416 666 430 658 441 _c
650 451 640 459 628 463 _c
616 467 601 470 583 470 _c
565 470 548 466 533 459 _c
}_e{518 452 505 442 495 428 _c
484 414 476 397 470 377 _c
464 357 462 333 462 306 _c
462 0 _l
375 0 _l
_cl}_e}_d
/n{{556 0 66 0 491 538 _sc
403 0 _m
403 335 _l
403 361 401 382 397 399 _c
393 416 387 430 379 441 _c
370 451 359 459 345 463 _c
331 467 314 470 294 470 _c
273 470 254 466 237 459 _c
220 451 206 441 194 427 _c
182 413 173 396 167 376 _c
160 356 157 332 157 306 _c
157 0 _l
69 0 _l
69 416 _l
69 426 69 438 69 450 _c
69 462 68 474 68 485 _c
68 495 67 505 67 513 _c
}_e{67 521 66 526 66 528 _c
149 528 _l
149 526 150 522 150 515 _c
150 507 151 499 151 490 _c
151 481 152 472 152 462 _c
152 452 153 444 153 438 _c
155 438 _l
163 453 172 467 182 479 _c
192 491 204 502 218 511 _c
231 519 246 526 264 531 _c
281 535 301 538 324 538 _c
353 538 378 534 399 527 _c
420 520 437 509 451 494 _c
465 479 475 460 481 436 _c
487 412 491 384 491 352 _c
}_e{491 0 _l
403 0 _l
_cl}_e}_d
/o{{556 0 42 -9 514 538 _sc
514 265 _m
514 172 493 103 453 58 _c
412 13 353 -9 276 -9 _c
239 -9 206 -3 177 7 _c
148 17 124 34 104 57 _c
84 80 68 109 58 143 _c
47 177 42 218 42 265 _c
42 447 121 538 279 538 _c
319 538 355 532 385 521 _c
415 509 439 492 458 470 _c
477 447 491 418 500 384 _c
509 350 514 310 514 265 _c
422 265 _m
422 305 418 339 412 366 _c
}_e{406 392 396 414 384 430 _c
372 446 357 457 339 463 _c
321 469 302 473 280 473 _c
258 473 237 469 219 463 _c
201 456 185 445 173 429 _c
160 413 150 391 144 365 _c
137 338 134 305 134 265 _c
134 223 137 189 145 163 _c
152 136 162 115 174 99 _c
186 83 201 71 219 65 _c
236 58 255 55 275 55 _c
297 55 318 58 336 64 _c
354 70 369 82 382 98 _c
}_e{394 114 404 135 411 162 _c
418 189 422 223 422 265 _c
_cl}_e}_d
/r{{333 0 66 0 316 538 _sc
69 0 _m
69 405 _l
69 416 69 427 69 439 _c
69 451 68 462 68 473 _c
68 483 67 493 67 503 _c
67 512 66 520 66 528 _c
149 528 _l
149 520 150 512 150 502 _c
150 492 151 483 152 473 _c
152 463 153 453 153 444 _c
153 434 153 426 153 420 _c
155 420 _l
161 440 168 458 175 473 _c
182 487 190 499 200 509 _c
209 519 220 526 233 531 _c
}_e{246 535 262 538 281 538 _c
288 538 295 537 301 536 _c
307 535 312 534 316 533 _c
316 453 _l
310 454 304 455 296 456 _c
288 457 279 458 270 458 _c
249 458 232 453 218 444 _c
204 434 192 422 183 406 _c
174 390 167 370 163 348 _c
159 326 157 301 157 275 _c
157 0 _l
69 0 _l
_cl}_e}_d
/s{{500 0 28 -9 464 537 _sc
464 146 _m
464 121 459 99 449 80 _c
439 60 425 44 407 31 _c
389 17 366 7 340 1 _c
314 -5 284 -9 250 -9 _c
219 -9 191 -6 167 -2 _c
142 2 120 9 102 20 _c
83 30 67 44 55 61 _c
43 78 34 99 28 124 _c
105 139 _l
113 111 128 90 152 77 _c
175 63 208 57 250 57 _c
268 57 285 58 301 61 _c
317 63 330 68 342 74 _c
}_e{353 80 362 89 368 100 _c
374 110 378 123 378 139 _c
378 155 374 168 367 178 _c
359 188 349 197 336 204 _c
322 210 306 216 287 221 _c
268 226 247 232 225 239 _c
203 244 182 250 161 257 _c
140 264 121 273 105 284 _c
88 295 74 309 64 326 _c
54 342 49 363 49 389 _c
49 437 66 473 100 499 _c
134 524 184 537 250 537 _c
308 537 355 526 389 506 _c
}_e{423 485 445 452 455 407 _c
375 397 _l
372 411 367 422 359 432 _c
351 441 342 448 331 454 _c
319 460 307 464 293 466 _c
279 468 265 470 250 470 _c
210 470 181 464 162 452 _c
143 440 134 421 134 397 _c
134 383 137 371 144 362 _c
151 352 161 344 174 338 _c
186 332 201 326 219 322 _c
237 317 256 312 277 307 _c
291 303 305 300 320 296 _c
334 292 349 287 363 281 _c
}_e{377 275 390 268 402 261 _c
414 253 424 244 434 233 _c
443 222 450 209 456 195 _c
461 181 464 164 464 146 _c
_cl}_e}_d
/t{278 0 15 -7 271 646 _sc
271 4 _m
257 1 243 -1 229 -3 _c
215 -5 200 -7 182 -7 _c
111 -7 76 32 76 112 _c
76 464 _l
15 464 _l
15 528 _l
80 528 _l
105 646 _l
164 646 _l
164 528 _l
262 528 _l
262 464 _l
164 464 _l
164 131 _l
164 105 168 87 176 77 _c
184 67 199 62 220 62 _c
228 62 236 62 244 64 _c
252 65 261 67 271 69 _c
271 4 _l
_cl}_d
end readonly def

/BuildGlyph
 {exch begin
 CharStrings exch
 2 copy known not{pop /.notdef}if
 true 3 1 roll get exec
 end}_d

/BuildChar {
 1 index /Encoding get exch get
 1 index /BuildGlyph get exec
}_d

FontName currentdict end definefont pop
%!PS-Adobe-3.0 Resource-Font
%%Title: cmmi10
%%Copyright: Copyright (C) 1994, Basil K. Malyshev. All Rights Reserved.012BaKoMa Fonts Collection, Level-B.
%%Creator: Converted from TrueType to type 3 by PPR
25 dict begin
/_d{bind def}bind def
/_m{moveto}_d
/_l{lineto}_d
/_cl{closepath eofill}_d
/_c{curveto}_d
/_sc{7 -1 roll{setcachedevice}{pop pop pop pop pop pop}ifelse}_d
/_e{exec}_d
/FontName /Cmmi10 def
/PaintType 0 def
/FontMatrix[.001 0 0 .001 0 0]def
/FontBBox[-34 -250 1048 750]def
/FontType 3 def
/Encoding [ /e /g /d /R /n ] def
/FontInfo 10 dict dup begin
/FamilyName (cmmi10) def
/FullName (cmmi10) def
/Notice (Copyright (C) 1994, Basil K. Malyshev. All Rights Reserved.012BaKoMa Fonts Collection, Level-B. ) def
/Weight (Regular) def
/Version (1.1/12-Nov-94) def
/ItalicAngle 0.0 def
/isFixedPitch false def
/UnderlinePosition -133 def
/UnderlineThickness 20 def
end readonly def
/CharStrings 5 dict dup begin
/e{{465 0 44 -10 430 442 _sc
201 -10 _m
169 -10 141 -2 117 14 _c
93 30 75 53 63 81 _c
50 109 44 138 44 170 _c
44 217 56 262 80 304 _c
104 346 136 379 177 404 _c
218 429 262 442 309 442 _c
337 442 362 434 384 419 _c
405 404 416 383 416 356 _c
416 317 400 288 370 270 _c
339 251 304 239 266 235 _c
228 231 185 229 139 229 _c
136 229 _l
125 189 120 155 120 127 _c
}_e{120 97 126 71 140 49 _c
154 26 175 15 203 15 _c
243 15 281 24 318 42 _c
354 60 384 86 407 118 _c
409 120 411 121 415 121 _c
418 121 421 119 425 115 _c
428 111 430 108 430 105 _c
430 102 429 100 428 99 _c
404 65 371 38 330 19 _c
288 0 245 -10 201 -10 _c
142 255 _m
180 255 216 256 249 260 _c
282 264 312 273 339 287 _c
365 301 379 324 379 355 _c
}_e{379 367 375 378 368 387 _c
361 396 352 403 342 408 _c
331 413 320 416 308 416 _c
280 416 254 408 232 393 _c
209 377 190 357 176 333 _c
161 308 150 282 142 255 _c
_cl}_e}_d
/g{{477 0 14 -204 476 442 _sc
14 -142 _m
14 -126 19 -111 31 -99 _c
42 -87 56 -81 72 -81 _c
82 -81 91 -84 99 -91 _c
106 -97 110 -106 110 -117 _c
110 -129 106 -139 99 -149 _c
92 -159 83 -166 73 -170 _c
91 -175 119 -178 157 -178 _c
187 -178 215 -166 241 -142 _c
266 -118 283 -91 291 -61 _c
320 55 _l
284 18 246 0 207 0 _c
178 0 153 7 133 22 _c
113 36 97 56 87 80 _c
}_e{76 104 71 130 71 158 _c
71 188 77 220 89 254 _c
101 288 119 319 142 348 _c
164 376 190 399 220 416 _c
249 433 280 442 313 442 _c
332 442 349 436 365 426 _c
381 415 393 401 403 383 _c
409 409 424 422 446 422 _c
454 422 461 419 467 414 _c
473 409 476 402 476 394 _c
476 392 476 390 476 389 _c
476 388 475 387 475 386 _c
361 -67 _l
355 -87 346 -106 332 -124 _c
}_e{318 -141 301 -155 282 -167 _c
263 -179 242 -188 220 -194 _c
198 -200 176 -204 156 -204 _c
118 -204 84 -200 56 -193 _c
28 -185 14 -168 14 -142 _c
209 26 _m
251 26 293 55 335 114 _c
390 332 _l
385 355 376 375 362 391 _c
348 407 331 416 311 416 _c
289 416 268 407 248 389 _c
228 371 212 349 199 324 _c
187 300 175 265 163 220 _c
151 175 146 140 146 114 _c
146 91 151 71 161 53 _c
}_e{171 35 187 26 209 26 _c
_cl}_e}_d
/d{{520 0 38 -10 519 694 _sc
174 -10 _m
132 -10 98 5 74 37 _c
50 68 38 105 38 149 _c
38 191 49 236 71 282 _c
93 328 122 366 160 396 _c
198 426 238 442 282 442 _c
302 442 319 436 335 425 _c
351 414 363 400 372 382 _c
428 605 _l
430 616 432 625 433 632 _c
433 642 411 648 368 648 _c
361 648 358 652 358 661 _c
358 663 358 666 360 670 _c
361 674 362 677 364 679 _c
}_e{366 681 368 683 372 683 _c
507 694 _l
515 694 519 689 519 681 _c
375 106 _l
370 94 368 78 368 58 _c
368 29 377 15 397 15 _c
417 15 433 28 444 55 _c
455 81 464 112 472 147 _c
473 151 476 153 480 153 _c
492 153 _l
494 153 496 151 498 149 _c
500 147 501 145 501 143 _c
489 96 476 59 462 31 _c
448 3 426 -10 395 -10 _c
372 -10 352 -3 335 9 _c
}_e{318 21 307 39 303 61 _c
260 13 217 -10 174 -10 _c
175 15 _m
199 15 222 24 245 42 _c
267 60 287 81 303 106 _c
303 106 304 108 304 110 _c
359 330 _l
355 353 346 373 333 390 _c
319 407 302 416 280 416 _c
257 416 236 406 217 388 _c
197 370 181 348 168 323 _c
154 296 142 259 130 213 _c
118 167 113 131 113 105 _c
113 81 118 60 128 42 _c
138 24 153 15 175 15 _c
}_e{_cl}_e}_d
/R{{759 0 39 -21 755 683 _sc
49 0 _m
42 0 39 4 39 13 _c
39 15 40 18 41 22 _c
41 26 43 29 45 31 _c
47 33 49 35 52 35 _c
92 35 121 37 137 42 _c
145 44 152 53 156 69 _c
293 618 _l
294 624 295 629 295 632 _c
295 639 291 643 283 644 _c
270 646 246 648 211 648 _c
204 648 201 652 201 661 _c
201 663 202 666 203 670 _c
204 674 205 677 207 679 _c
}_e{209 681 211 683 214 683 _c
517 683 _l
541 683 566 680 592 675 _c
618 669 642 661 664 649 _c
686 637 704 621 718 601 _c
732 581 739 558 739 532 _c
739 498 727 468 705 442 _c
683 416 655 394 621 376 _c
587 358 555 346 523 339 _c
549 329 570 314 587 294 _c
603 273 612 249 612 222 _c
612 218 611 216 611 214 _c
611 212 611 210 611 208 _c
603 119 _l
602 106 601 95 601 86 _c
}_e{600 76 600 69 600 64 _c
600 46 602 31 608 20 _c
613 9 624 4 640 4 _c
660 4 679 13 695 33 _c
711 52 721 73 726 96 _c
728 102 732 105 736 105 _c
745 105 _l
751 105 755 100 755 92 _c
750 72 742 54 732 37 _c
721 19 707 5 691 -5 _c
675 -15 657 -21 639 -21 _c
600 -21 567 -12 539 4 _c
511 21 498 48 498 86 _c
498 100 499 112 502 123 _c
524 212 _l
}_e{526 220 528 229 528 240 _c
528 268 518 289 500 305 _c
481 321 457 329 429 329 _c
306 329 _l
240 65 _l
238 59 238 55 238 51 _c
238 44 242 40 250 39 _c
262 36 286 35 322 35 _c
328 35 332 30 332 22 _c
330 12 328 6 327 4 _c
325 1 321 0 315 0 _c
49 0 _l
312 355 _m
423 355 _l
495 355 550 373 587 410 _c
603 427 617 449 627 475 _c
}_e{637 501 642 527 642 553 _c
642 577 634 597 620 611 _c
606 625 588 634 567 640 _c
545 645 522 648 496 648 _c
429 648 _l
411 648 399 646 393 643 _c
387 640 381 630 377 614 _c
312 355 _l
_cl}_e}_d
/n{{600 0 27 -10 574 442 _sc
77 17 _m
77 21 77 24 78 26 _c
153 324 _l
157 342 160 359 160 373 _c
160 401 150 416 131 416 _c
110 416 94 403 84 378 _c
74 353 64 322 55 284 _c
55 282 54 280 52 279 _c
50 278 48 278 47 278 _c
35 278 _l
33 278 31 279 29 281 _c
27 283 27 286 27 288 _c
34 317 41 342 48 362 _c
54 382 65 400 79 417 _c
}_e{93 433 110 442 132 442 _c
156 442 178 434 198 418 _c
217 402 227 382 227 358 _c
247 384 270 404 297 419 _c
323 434 352 442 382 442 _c
405 442 425 437 443 429 _c
460 421 473 408 483 392 _c
493 376 498 356 498 334 _c
498 306 491 273 479 235 _c
467 196 452 153 434 105 _c
424 83 420 63 420 45 _c
420 25 427 15 443 15 _c
469 15 490 29 508 57 _c
}_e{525 85 537 115 545 147 _c
546 151 549 153 553 153 _c
565 153 _l
567 153 569 152 571 150 _c
573 148 574 146 574 144 _c
574 143 573 142 573 141 _c
564 103 548 68 526 37 _c
503 5 475 -10 441 -10 _c
417 -10 397 -2 381 13 _c
364 29 356 48 356 72 _c
356 84 358 97 364 111 _c
372 133 381 159 392 189 _c
403 219 412 247 419 275 _c
426 303 430 327 430 349 _c
}_e{430 367 426 383 418 396 _c
410 409 398 416 380 416 _c
355 416 332 410 312 400 _c
292 389 274 375 259 357 _c
243 339 229 318 217 294 _c
149 22 _l
147 12 142 5 134 -1 _c
126 -7 117 -10 107 -10 _c
99 -10 92 -7 86 -3 _c
80 1 77 8 77 17 _c
_cl}_e}_d
end readonly def

/BuildGlyph
 {exch begin
 CharStrings exch
 2 copy known not{pop /.notdef}if
 true 3 1 roll get exec
 end}_d

/BuildChar {
 1 index /Encoding get exch get
 1 index /BuildGlyph get exec
}_d

FontName currentdict end definefont pop
end
%%EndProlog
mpldict begin
13.5 193.5 translate
585 405 0 0 clipbox
gsave
0 0 m
585 0 l
585 405 l
0 405 l
cl
1.000 setgray
fill
grestore
gsave
73.125 217.227 m
279.205 217.227 l
279.205 364.5 l
73.125 364.5 l
cl
0.918 0.918 0.949 setrgbcolor
fill
grestore
0.300 setlinewidth
1 setlinejoin
0 setlinecap
[] 0 setdash
0.950 setgray
gsave
100.444 249.769 m
159.425 285.877 l
158.443 354.874 l
96.1735 322.431 l
gsave
fill
grestore
stroke
grestore
0.900 setgray
gsave
159.425 285.877 m
254.969 265.691 l
258.966 336.768 l
158.443 354.874 l
gsave
fill
grestore
stroke
grestore
0.925 setgray
gsave
100.444 249.769 m
200.969 226.259 l
254.969 265.691 l
159.425 285.877 l
gsave
fill
grestore
stroke
grestore
0.750 setlinewidth
1 setlinecap
0.000 setgray
gsave
100.444 249.769 m
200.969 226.259 l
stroke
grestore
0.150 setgray
gsave
103.772649 230.078857 translate
346.836336 rotate
/LiberationSans findfont
11.0 scalefont
setfont
0.000000 0.031250 moveto
/N glyphshow

7.943848 0.031250 moveto
/o glyphshow

14.061523 0.031250 moveto
/period glyphshow

17.117676 0.031250 moveto
/uni00A0 glyphshow

20.173828 0.031250 moveto
/o glyphshow

26.291504 0.031250 moveto
/f glyphshow

29.347656 0.031250 moveto
/uni00A0 glyphshow

32.403809 0.031250 moveto
/R glyphshow

40.347656 0.031250 moveto
/o glyphshow

46.465332 0.031250 moveto
/b glyphshow

52.583008 0.031250 moveto
/o glyphshow

58.700684 0.031250 moveto
/t glyphshow

61.756836 0.031250 moveto
/s glyphshow

67.256836 0.031250 moveto
/uni00A0 glyphshow

/Cmmi10 findfont
11.0 scalefont
setfont
70.312988 0.031250 moveto
/n glyphshow


grestore
/p0_0 {
newpath
translate
102.366 249.32 m
161.258 285.49 l
160.368 354.527 l
} bind def
/p0_1 {
newpath
translate
113.973 246.605 m
172.321 283.153 l
171.986 352.434 l
} bind def
/p0_2 {
newpath
translate
125.706 243.861 m
183.496 280.792 l
183.727 350.32 l
} bind def
/p0_3 {
newpath
translate
137.567 241.087 m
194.783 278.407 l
195.593 348.182 l
} bind def
/p0_4 {
newpath
translate
149.558 238.283 m
206.185 275.998 l
207.586 346.022 l
} bind def
/p0_5 {
newpath
translate
161.681 235.447 m
217.704 273.564 l
219.707 343.839 l
} bind def
/p0_6 {
newpath
translate
173.939 232.58 m
229.341 271.105 l
231.96 341.632 l
} bind def
/p0_7 {
newpath
translate
186.333 229.682 m
241.098 268.621 l
244.345 339.401 l
} bind def
/p0_8 {
newpath
translate
198.866 226.75 m
252.977 266.111 l
256.866 337.146 l
} bind def
1.750 setlinewidth
0 setlinecap
0.900 setgray
gsave
0 0 p0_0
stroke
grestore
gsave
0 0 p0_1
stroke
grestore
gsave
0 0 p0_2
stroke
grestore
gsave
0 0 p0_3
stroke
grestore
gsave
0 0 p0_4
stroke
grestore
gsave
0 0 p0_5
stroke
grestore
gsave
0 0 p0_6
stroke
grestore
gsave
0 0 p0_7
stroke
grestore
gsave
0 0 p0_8
stroke
grestore
1.000 setlinewidth
1 setlinecap
1.000 setgray
gsave
206.1 147.3 73.12 217.2 clipbox
178.95 292.854 m
stroke
grestore
1.750 setlinewidth
0.150 setgray
gsave
102.874 249.631 m
101.35 248.695 l
stroke
grestore
/LiberationSans findfont
10.000 scalefont
setfont
gsave
96.662473 236.017279 translate
0.000000 rotate
0.000000 0.000000 m /five glyphshow
grestore
1.000 setlinewidth
1.000 setgray
gsave
206.1 147.3 73.12 217.2 clipbox
178.95 292.854 m
stroke
grestore
1.750 setlinewidth
0.150 setgray
gsave
114.476 246.92 m
112.966 245.974 l
stroke
grestore
gsave
105.651085 233.266008 translate
0.000000 rotate
0.000000 0.000000 m /one glyphshow
5.561523 0.000000 m /zero glyphshow
grestore
1.000 setlinewidth
1.000 setgray
gsave
206.1 147.3 73.12 217.2 clipbox
178.95 292.854 m
stroke
grestore
1.750 setlinewidth
0.150 setgray
gsave
126.204 244.179 m
124.708 243.223 l
stroke
grestore
gsave
117.398607 230.484844 translate
0.000000 rotate
0.000000 0.000000 m /one glyphshow
5.561523 0.000000 m /five glyphshow
grestore
1.000 setlinewidth
1.000 setgray
gsave
206.1 147.3 73.12 217.2 clipbox
178.95 292.854 m
stroke
grestore
1.750 setlinewidth
0.150 setgray
gsave
138.061 241.409 m
136.578 240.442 l
stroke
grestore
gsave
129.110231 227.673298 translate
0.000000 rotate
0.000000 0.000000 m /two glyphshow
5.561523 0.000000 m /zero glyphshow
grestore
1.000 setlinewidth
1.000 setgray
gsave
206.1 147.3 73.12 217.2 clipbox
178.95 292.854 m
stroke
grestore
1.750 setlinewidth
0.150 setgray
gsave
150.047 238.608 m
148.579 237.631 l
stroke
grestore
gsave
141.116192 224.830869 translate
0.000000 rotate
0.000000 0.000000 m /two glyphshow
5.561523 0.000000 m /five glyphshow
grestore
1.000 setlinewidth
1.000 setgray
gsave
206.1 147.3 73.12 217.2 clipbox
178.95 292.854 m
stroke
grestore
1.750 setlinewidth
0.150 setgray
gsave
162.165 235.776 m
160.712 234.788 l
stroke
grestore
gsave
153.160836 221.957045 translate
0.000000 rotate
0.000000 0.000000 m /three glyphshow
5.561523 0.000000 m /zero glyphshow
grestore
1.000 setlinewidth
1.000 setgray
gsave
206.1 147.3 73.12 217.2 clipbox
178.95 292.854 m
stroke
grestore
1.750 setlinewidth
0.150 setgray
gsave
174.417 232.913 m
172.98 231.914 l
stroke
grestore
gsave
165.433871 219.051304 translate
0.000000 rotate
0.000000 0.000000 m /three glyphshow
5.561523 0.000000 m /five glyphshow
grestore
1.000 setlinewidth
1.000 setgray
gsave
206.1 147.3 73.12 217.2 clipbox
178.95 292.854 m
stroke
grestore
1.750 setlinewidth
0.150 setgray
gsave
186.806 230.018 m
185.385 229.008 l
stroke
grestore
gsave
177.742238 216.113110 translate
0.000000 rotate
0.000000 0.000000 m /four glyphshow
5.561523 0.000000 m /zero glyphshow
grestore
1.000 setlinewidth
1.000 setgray
gsave
206.1 147.3 73.12 217.2 clipbox
178.95 292.854 m
stroke
grestore
1.750 setlinewidth
0.150 setgray
gsave
199.334 227.091 m
197.929 226.069 l
stroke
grestore
gsave
190.291369 213.141917 translate
0.000000 rotate
0.000000 0.000000 m /four glyphshow
5.561523 0.000000 m /five glyphshow
grestore
0.750 setlinewidth
0.000 setgray
gsave
254.969 265.691 m
200.969 226.259 l
stroke
grestore
0.150 setgray
gsave
210.952244 209.380892 translate
36.137773 rotate
/LiberationSans findfont
11.0 scalefont
setfont
0.000000 0.312500 moveto
/C glyphshow

7.943848 0.312500 moveto
/o glyphshow

14.061523 0.312500 moveto
/m glyphshow

23.224609 0.312500 moveto
/m glyphshow

32.387695 0.312500 moveto
/period glyphshow

35.443848 0.312500 moveto
/uni00A0 glyphshow

38.500000 0.312500 moveto
/R glyphshow

46.443848 0.312500 moveto
/a glyphshow

52.561523 0.312500 moveto
/n glyphshow

58.679199 0.312500 moveto
/g glyphshow

64.796875 0.312500 moveto
/e glyphshow

70.914551 0.312500 moveto
/uni00A0 glyphshow

/Cmmi10 findfont
11.0 scalefont
setfont
73.970703 0.312500 moveto
/d glyphshow


grestore
/p1_0 {
newpath
translate
97.5183 323.132 m
101.713 250.546 l
202.135 227.11 l
} bind def
/p1_1 {
newpath
translate
113.321 331.365 m
116.64 259.684 l
215.833 237.113 l
} bind def
/p1_2 {
newpath
translate
128.529 339.288 m
131.033 268.496 l
229.02 246.742 l
} bind def
/p1_3 {
newpath
translate
143.175 346.919 m
144.921 276.998 l
241.723 256.018 l
} bind def
/p1_4 {
newpath
translate
157.29 354.273 m
158.329 285.206 l
253.968 264.96 l
} bind def
1.750 setlinewidth
0 setlinecap
0.900 setgray
gsave
0 0 p1_0
stroke
grestore
gsave
0 0 p1_1
stroke
grestore
gsave
0 0 p1_2
stroke
grestore
gsave
0 0 p1_3
stroke
grestore
gsave
0 0 p1_4
stroke
grestore
1.000 setlinewidth
1 setlinecap
1.000 setgray
gsave
206.1 147.3 73.12 217.2 clipbox
178.95 292.854 m
stroke
grestore
1.750 setlinewidth
0.150 setgray
gsave
201.294 227.306 m
203.818 226.717 l
stroke
grestore
gsave
205.557770 214.523596 translate
0.000000 rotate
0.000000 0.000000 m /zero glyphshow
grestore
1.000 setlinewidth
1.000 setgray
gsave
206.1 147.3 73.12 217.2 clipbox
178.95 292.854 m
stroke
grestore
1.750 setlinewidth
0.150 setgray
gsave
215.004 237.302 m
217.494 236.735 l
stroke
grestore
gsave
216.366876 224.624247 translate
0.000000 rotate
0.000000 0.000000 m /five glyphshow
5.561523 0.000000 m /zero glyphshow
grestore
1.000 setlinewidth
1.000 setgray
gsave
206.1 147.3 73.12 217.2 clipbox
178.95 292.854 m
stroke
grestore
1.750 setlinewidth
0.150 setgray
gsave
228.201 246.924 m
230.659 246.378 l
stroke
grestore
gsave
226.840480 234.347588 translate
0.000000 rotate
0.000000 0.000000 m /one glyphshow
5.561523 0.000000 m /zero glyphshow
11.123047 0.000000 m /zero glyphshow
grestore
1.000 setlinewidth
1.000 setgray
gsave
206.1 147.3 73.12 217.2 clipbox
178.95 292.854 m
stroke
grestore
1.750 setlinewidth
0.150 setgray
gsave
240.915 256.193 m
243.341 255.667 l
stroke
grestore
gsave
239.436178 243.714373 translate
0.000000 rotate
0.000000 0.000000 m /one glyphshow
5.561523 0.000000 m /five glyphshow
11.123047 0.000000 m /zero glyphshow
grestore
1.000 setlinewidth
1.000 setgray
gsave
206.1 147.3 73.12 217.2 clipbox
178.95 292.854 m
stroke
grestore
1.750 setlinewidth
0.150 setgray
gsave
253.17 265.129 m
255.566 264.622 l
stroke
grestore
gsave
251.445494 252.743860 translate
0.000000 rotate
0.000000 0.000000 m /two glyphshow
5.561523 0.000000 m /zero glyphshow
11.123047 0.000000 m /zero glyphshow
grestore
0.750 setlinewidth
0.000 setgray
gsave
254.969 265.691 m
258.966 336.768 l
stroke
grestore
0.150 setgray
/LiberationSans findfont
11.000 scalefont
setfont
gsave
278.061083 279.831817 translate
86.781019 rotate
0.000000 0.000000 m /m glyphshow
9.163086 0.000000 m /e glyphshow
15.280762 0.000000 m /a glyphshow
21.398438 0.000000 m /n glyphshow
27.516113 0.000000 m /d glyphshow
33.633789 0.000000 m /e glyphshow
39.751465 0.000000 m /g glyphshow
grestore
/p2_0 {
newpath
translate
255.045 267.042 m
159.406 287.192 l
100.363 251.149 l
} bind def
/p2_1 {
newpath
translate
255.659 277.956 m
159.255 297.805 l
99.7082 262.29 l
} bind def
/p2_2 {
newpath
translate
256.282 289.046 m
159.102 308.582 l
99.0424 273.618 l
} bind def
/p2_3 {
newpath
translate
256.916 300.319 m
158.946 319.529 l
98.3653 285.138 l
} bind def
/p2_4 {
newpath
translate
257.561 311.777 m
158.788 330.649 l
97.6766 296.855 l
} bind def
/p2_5 {
newpath
translate
258.216 323.427 m
158.627 341.947 l
96.9761 308.774 l
} bind def
/p2_6 {
newpath
translate
258.882 335.273 m
158.464 353.426 l
96.2634 320.901 l
} bind def
1.750 setlinewidth
0 setlinecap
0.900 setgray
gsave
0 0 p2_0
stroke
grestore
gsave
0 0 p2_1
stroke
grestore
gsave
0 0 p2_2
stroke
grestore
gsave
0 0 p2_3
stroke
grestore
gsave
0 0 p2_4
stroke
grestore
gsave
0 0 p2_5
stroke
grestore
gsave
0 0 p2_6
stroke
grestore
1.000 setlinewidth
1 setlinecap
1.000 setgray
gsave
178.95 292.854 m
stroke
grestore
1.750 setlinewidth
0.150 setgray
gsave
254.247 267.211 m
256.642 266.706 l
stroke
grestore
/LiberationSans findfont
10.000 scalefont
setfont
gsave
261.026925 260.652786 translate
0.000000 rotate
0.000000 0.000000 m /zero glyphshow
grestore
1.000 setlinewidth
1.000 setgray
gsave
178.95 292.854 m
stroke
grestore
1.750 setlinewidth
0.150 setgray
gsave
254.854 278.121 m
257.27 277.624 l
stroke
grestore
gsave
261.941379 271.553327 translate
0.000000 rotate
0.000000 0.000000 m /one glyphshow
grestore
1.000 setlinewidth
1.000 setgray
gsave
178.95 292.854 m
stroke
grestore
1.750 setlinewidth
0.150 setgray
gsave
255.471 289.209 m
257.907 288.72 l
stroke
grestore
gsave
262.507498 282.630820 translate
0.000000 rotate
0.000000 0.000000 m /two glyphshow
grestore
1.000 setlinewidth
1.000 setgray
gsave
178.95 292.854 m
stroke
grestore
1.750 setlinewidth
0.150 setgray
gsave
256.098 300.479 m
258.555 299.997 l
stroke
grestore
gsave
263.116178 293.889610 translate
0.000000 rotate
0.000000 0.000000 m /three glyphshow
grestore
1.000 setlinewidth
1.000 setgray
gsave
178.95 292.854 m
stroke
grestore
1.750 setlinewidth
0.150 setgray
gsave
256.736 311.935 m
259.213 311.462 l
stroke
grestore
gsave
263.689574 305.334184 translate
0.000000 rotate
0.000000 0.000000 m /four glyphshow
grestore
1.000 setlinewidth
1.000 setgray
gsave
178.95 292.854 m
stroke
grestore
1.750 setlinewidth
0.150 setgray
gsave
257.384 323.582 m
259.882 323.117 l
stroke
grestore
gsave
264.563913 316.969179 translate
0.000000 rotate
0.000000 0.000000 m /five glyphshow
grestore
1.000 setlinewidth
1.000 setgray
gsave
178.95 292.854 m
stroke
grestore
1.750 setlinewidth
0.150 setgray
gsave
258.043 335.425 m
260.563 334.969 l
stroke
grestore
gsave
265.364494 328.799387 translate
0.000000 rotate
0.000000 0.000000 m /six glyphshow
grestore
/p3_0 {
newpath
translate
134.111 275.256 m
156.855 277.313 l
180.325 279.449 l
204.561 281.829 l
229.612 284.482 l
232.384 289.69 l
235.148 294.888 l
237.907 300.11 l
240.656 305.241 l
243.403 310.507 l
246.136 315.588 l
248.865 320.735 l
251.589 325.902 l
254.303 331.003 l
228.897 320.818 l
204.538 310.999 l
181.166 301.694 l
158.71 293.254 l
156.048 291.321 l
153.368 289.375 l
150.67 287.418 l
147.955 285.438 l
145.223 283.431 l
142.472 281.429 l
139.703 279.401 l
136.916 277.328 l
134.111 275.256 l
cl
} bind def
/p3_1 {
newpath
translate
105.066 252.529 m
128.37 247.428 l
152.194 242.223 l
176.558 236.784 l
201.477 231.333 l
204.346 237.831 l
207.186 243.114 l
210.013 248.193 l
212.834 253.314 l
215.645 258.384 l
218.452 263.582 l
221.252 268.78 l
224.046 274.022 l
226.832 279.257 l
229.612 284.482 l
204.561 281.829 l
180.325 279.449 l
156.855 277.313 l
134.111 275.256 l
131.287 273.163 l
128.446 271.028 l
125.585 268.888 l
122.706 266.703 l
119.809 264.483 l
116.896 262.197 l
113.962 259.898 l
111.011 257.556 l
108.046 255.09 l
105.066 252.529 l
cl
} bind def
0.300 setlinewidth
0 setlinecap
0.000 setgray
gsave
206.1 147.3 73.12 217.2 clipbox
0 0 p3_0
gsave
0.000 0.000 1.000 setrgbcolor
fill
grestore
stroke
grestore
gsave
206.1 147.3 73.12 217.2 clipbox
0 0 p3_1
gsave
0.000 0.000 0.500 setrgbcolor
fill
grestore
stroke
grestore
0.150 setgray
gsave
116.164773 357.718182 translate
0.000000 rotate
/LiberationSans findfont
12.0 scalefont
setfont
0.000000 0.625000 moveto
/M glyphshow

9.996094 0.625000 moveto
/e glyphshow

16.669922 0.625000 moveto
/a glyphshow

23.343750 0.625000 moveto
/n glyphshow

30.017578 0.625000 moveto
/uni00A0 glyphshow

33.351562 0.625000 moveto
/D glyphshow

42.017578 0.625000 moveto
/e glyphshow

48.691406 0.625000 moveto
/g glyphshow

55.365234 0.625000 moveto
/r glyphshow

59.361328 0.625000 moveto
/e glyphshow

66.035156 0.625000 moveto
/e glyphshow

72.708984 0.625000 moveto
/uni00A0 glyphshow

/Cmmi10 findfont
12.0 scalefont
setfont
76.042969 0.625000 moveto
/d glyphshow

82.283203 0.625000 moveto
/e glyphshow

87.861328 0.625000 moveto
/g glyphshow

/LiberationSans findfont
12.0 scalefont
setfont
93.585938 0.625000 moveto
/colon glyphshow

/Cmmi10 findfont
12.0 scalefont
setfont
96.919922 0.625000 moveto
/R glyphshow

/LiberationSans findfont
12.0 scalefont
setfont
106.025391 0.625000 moveto
/equal glyphshow

113.033203 0.625000 moveto
/zero glyphshow


grestore
gsave
320.42 217.227 m
526.5 217.227 l
526.5 364.5 l
320.42 364.5 l
cl
0.918 0.918 0.949 setrgbcolor
fill
grestore
0.950 setgray
gsave
347.739 249.769 m
406.721 285.877 l
405.739 354.874 l
343.469 322.431 l
gsave
fill
grestore
stroke
grestore
0.900 setgray
gsave
406.721 285.877 m
502.264 265.691 l
506.262 336.768 l
405.739 354.874 l
gsave
fill
grestore
stroke
grestore
0.925 setgray
gsave
347.739 249.769 m
448.264 226.259 l
502.264 265.691 l
406.721 285.877 l
gsave
fill
grestore
stroke
grestore
0.750 setlinewidth
1 setlinecap
0.000 setgray
gsave
347.739 249.769 m
448.264 226.259 l
stroke
grestore
0.150 setgray
gsave
351.068104 230.078857 translate
346.836336 rotate
/LiberationSans findfont
11.0 scalefont
setfont
0.000000 0.031250 moveto
/N glyphshow

7.943848 0.031250 moveto
/o glyphshow

14.061523 0.031250 moveto
/period glyphshow

17.117676 0.031250 moveto
/uni00A0 glyphshow

20.173828 0.031250 moveto
/o glyphshow

26.291504 0.031250 moveto
/f glyphshow

29.347656 0.031250 moveto
/uni00A0 glyphshow

32.403809 0.031250 moveto
/R glyphshow

40.347656 0.031250 moveto
/o glyphshow

46.465332 0.031250 moveto
/b glyphshow

52.583008 0.031250 moveto
/o glyphshow

58.700684 0.031250 moveto
/t glyphshow

61.756836 0.031250 moveto
/s glyphshow

67.256836 0.031250 moveto
/uni00A0 glyphshow

/Cmmi10 findfont
11.0 scalefont
setfont
70.312988 0.031250 moveto
/n glyphshow


grestore
/p4_0 {
newpath
translate
349.662 249.32 m
408.554 285.49 l
407.663 354.527 l
} bind def
/p4_1 {
newpath
translate
361.269 246.605 m
419.617 283.153 l
419.281 352.434 l
} bind def
/p4_2 {
newpath
translate
373.002 243.861 m
430.791 280.792 l
431.023 350.32 l
} bind def
/p4_3 {
newpath
translate
384.863 241.087 m
442.079 278.407 l
442.888 348.182 l
} bind def
/p4_4 {
newpath
translate
396.853 238.283 m
453.481 275.998 l
454.881 346.022 l
} bind def
/p4_5 {
newpath
translate
408.977 235.447 m
465 273.564 l
467.003 343.839 l
} bind def
/p4_6 {
newpath
translate
421.234 232.58 m
476.636 271.105 l
479.255 341.632 l
} bind def
/p4_7 {
newpath
translate
433.629 229.682 m
488.393 268.621 l
491.641 339.401 l
} bind def
/p4_8 {
newpath
translate
446.162 226.75 m
500.272 266.111 l
504.162 337.146 l
} bind def
1.750 setlinewidth
0 setlinecap
0.900 setgray
gsave
0 0 p4_0
stroke
grestore
gsave
0 0 p4_1
stroke
grestore
gsave
0 0 p4_2
stroke
grestore
gsave
0 0 p4_3
stroke
grestore
gsave
0 0 p4_4
stroke
grestore
gsave
0 0 p4_5
stroke
grestore
gsave
0 0 p4_6
stroke
grestore
gsave
0 0 p4_7
stroke
grestore
gsave
0 0 p4_8
stroke
grestore
1.000 setlinewidth
1 setlinecap
1.000 setgray
gsave
206.1 147.3 320.4 217.2 clipbox
426.245 292.854 m
stroke
grestore
1.750 setlinewidth
0.150 setgray
gsave
350.169 249.631 m
348.645 248.695 l
stroke
grestore
gsave
343.957927 236.017279 translate
0.000000 rotate
0.000000 0.000000 m /five glyphshow
grestore
1.000 setlinewidth
1.000 setgray
gsave
206.1 147.3 320.4 217.2 clipbox
426.245 292.854 m
stroke
grestore
1.750 setlinewidth
0.150 setgray
gsave
361.772 246.92 m
360.261 245.974 l
stroke
grestore
gsave
352.946540 233.266008 translate
0.000000 rotate
0.000000 0.000000 m /one glyphshow
5.561523 0.000000 m /zero glyphshow
grestore
1.000 setlinewidth
1.000 setgray
gsave
206.1 147.3 320.4 217.2 clipbox
426.245 292.854 m
stroke
grestore
1.750 setlinewidth
0.150 setgray
gsave
373.5 244.179 m
372.003 243.223 l
stroke
grestore
gsave
364.694062 230.484844 translate
0.000000 rotate
0.000000 0.000000 m /one glyphshow
5.561523 0.000000 m /five glyphshow
grestore
1.000 setlinewidth
1.000 setgray
gsave
206.1 147.3 320.4 217.2 clipbox
426.245 292.854 m
stroke
grestore
1.750 setlinewidth
0.150 setgray
gsave
385.356 241.409 m
383.874 240.442 l
stroke
grestore
gsave
376.405685 227.673298 translate
0.000000 rotate
0.000000 0.000000 m /two glyphshow
5.561523 0.000000 m /zero glyphshow
grestore
1.000 setlinewidth
1.000 setgray
gsave
206.1 147.3 320.4 217.2 clipbox
426.245 292.854 m
stroke
grestore
1.750 setlinewidth
0.150 setgray
gsave
397.342 238.608 m
395.874 237.631 l
stroke
grestore
gsave
388.411646 224.830869 translate
0.000000 rotate
0.000000 0.000000 m /two glyphshow
5.561523 0.000000 m /five glyphshow
grestore
1.000 setlinewidth
1.000 setgray
gsave
206.1 147.3 320.4 217.2 clipbox
426.245 292.854 m
stroke
grestore
1.750 setlinewidth
0.150 setgray
gsave
409.46 235.776 m
408.008 234.788 l
stroke
grestore
gsave
400.456291 221.957045 translate
0.000000 rotate
0.000000 0.000000 m /three glyphshow
5.561523 0.000000 m /zero glyphshow
grestore
1.000 setlinewidth
1.000 setgray
gsave
206.1 147.3 320.4 217.2 clipbox
426.245 292.854 m
stroke
grestore
1.750 setlinewidth
0.150 setgray
gsave
421.713 232.913 m
420.276 231.914 l
stroke
grestore
gsave
412.729325 219.051304 translate
0.000000 rotate
0.000000 0.000000 m /three glyphshow
5.561523 0.000000 m /five glyphshow
grestore
1.000 setlinewidth
1.000 setgray
gsave
206.1 147.3 320.4 217.2 clipbox
426.245 292.854 m
stroke
grestore
1.750 setlinewidth
0.150 setgray
gsave
434.102 230.018 m
432.681 229.008 l
stroke
grestore
gsave
425.037692 216.113110 translate
0.000000 rotate
0.000000 0.000000 m /four glyphshow
5.561523 0.000000 m /zero glyphshow
grestore
1.000 setlinewidth
1.000 setgray
gsave
206.1 147.3 320.4 217.2 clipbox
426.245 292.854 m
stroke
grestore
1.750 setlinewidth
0.150 setgray
gsave
446.629 227.091 m
445.225 226.069 l
stroke
grestore
gsave
437.586824 213.141917 translate
0.000000 rotate
0.000000 0.000000 m /four glyphshow
5.561523 0.000000 m /five glyphshow
grestore
0.750 setlinewidth
0.000 setgray
gsave
502.264 265.691 m
448.264 226.259 l
stroke
grestore
0.150 setgray
gsave
458.247699 209.380892 translate
36.137773 rotate
/LiberationSans findfont
11.0 scalefont
setfont
0.000000 0.312500 moveto
/C glyphshow

7.943848 0.312500 moveto
/o glyphshow

14.061523 0.312500 moveto
/m glyphshow

23.224609 0.312500 moveto
/m glyphshow

32.387695 0.312500 moveto
/period glyphshow

35.443848 0.312500 moveto
/uni00A0 glyphshow

38.500000 0.312500 moveto
/R glyphshow

46.443848 0.312500 moveto
/a glyphshow

52.561523 0.312500 moveto
/n glyphshow

58.679199 0.312500 moveto
/g glyphshow

64.796875 0.312500 moveto
/e glyphshow

70.914551 0.312500 moveto
/uni00A0 glyphshow

/Cmmi10 findfont
11.0 scalefont
setfont
73.970703 0.312500 moveto
/d glyphshow


grestore
/p5_0 {
newpath
translate
344.814 323.132 m
349.008 250.546 l
449.43 227.11 l
} bind def
/p5_1 {
newpath
translate
360.616 331.365 m
363.935 259.684 l
463.129 237.113 l
} bind def
/p5_2 {
newpath
translate
375.824 339.288 m
378.329 268.496 l
476.315 246.742 l
} bind def
/p5_3 {
newpath
translate
390.47 346.919 m
392.216 276.998 l
489.018 256.018 l
} bind def
/p5_4 {
newpath
translate
404.585 354.273 m
405.624 285.206 l
501.264 264.96 l
} bind def
1.750 setlinewidth
0 setlinecap
0.900 setgray
gsave
0 0 p5_0
stroke
grestore
gsave
0 0 p5_1
stroke
grestore
gsave
0 0 p5_2
stroke
grestore
gsave
0 0 p5_3
stroke
grestore
gsave
0 0 p5_4
stroke
grestore
1.000 setlinewidth
1 setlinecap
1.000 setgray
gsave
206.1 147.3 320.4 217.2 clipbox
426.245 292.854 m
stroke
grestore
1.750 setlinewidth
0.150 setgray
gsave
448.589 227.306 m
451.113 226.717 l
stroke
grestore
gsave
452.853224 214.523596 translate
0.000000 rotate
0.000000 0.000000 m /zero glyphshow
grestore
1.000 setlinewidth
1.000 setgray
gsave
206.1 147.3 320.4 217.2 clipbox
426.245 292.854 m
stroke
grestore
1.750 setlinewidth
0.150 setgray
gsave
462.299 237.302 m
464.79 236.735 l
stroke
grestore
gsave
463.662330 224.624247 translate
0.000000 rotate
0.000000 0.000000 m /five glyphshow
5.561523 0.000000 m /zero glyphshow
grestore
1.000 setlinewidth
1.000 setgray
gsave
206.1 147.3 320.4 217.2 clipbox
426.245 292.854 m
stroke
grestore
1.750 setlinewidth
0.150 setgray
gsave
475.497 246.924 m
477.955 246.378 l
stroke
grestore
gsave
474.135935 234.347588 translate
0.000000 rotate
0.000000 0.000000 m /one glyphshow
5.561523 0.000000 m /zero glyphshow
11.123047 0.000000 m /zero glyphshow
grestore
1.000 setlinewidth
1.000 setgray
gsave
206.1 147.3 320.4 217.2 clipbox
426.245 292.854 m
stroke
grestore
1.750 setlinewidth
0.150 setgray
gsave
488.21 256.193 m
490.637 255.667 l
stroke
grestore
gsave
486.731633 243.714373 translate
0.000000 rotate
0.000000 0.000000 m /one glyphshow
5.561523 0.000000 m /five glyphshow
11.123047 0.000000 m /zero glyphshow
grestore
1.000 setlinewidth
1.000 setgray
gsave
206.1 147.3 320.4 217.2 clipbox
426.245 292.854 m
stroke
grestore
1.750 setlinewidth
0.150 setgray
gsave
500.466 265.129 m
502.861 264.622 l
stroke
grestore
gsave
498.740948 252.743860 translate
0.000000 rotate
0.000000 0.000000 m /two glyphshow
5.561523 0.000000 m /zero glyphshow
11.123047 0.000000 m /zero glyphshow
grestore
0.750 setlinewidth
0.000 setgray
gsave
502.264 265.691 m
506.262 336.768 l
stroke
grestore
0.150 setgray
/LiberationSans findfont
11.000 scalefont
setfont
gsave
525.356538 279.831817 translate
86.781019 rotate
0.000000 0.000000 m /m glyphshow
9.163086 0.000000 m /e glyphshow
15.280762 0.000000 m /a glyphshow
21.398438 0.000000 m /n glyphshow
27.516113 0.000000 m /d glyphshow
33.633789 0.000000 m /e glyphshow
39.751465 0.000000 m /g glyphshow
grestore
/p6_0 {
newpath
translate
502.34 267.042 m
406.702 287.192 l
347.658 251.149 l
} bind def
/p6_1 {
newpath
translate
502.954 277.956 m
406.551 297.805 l
347.004 262.29 l
} bind def
/p6_2 {
newpath
translate
503.578 289.046 m
406.397 308.582 l
346.338 273.618 l
} bind def
/p6_3 {
newpath
translate
504.212 300.319 m
406.242 319.529 l
345.661 285.138 l
} bind def
/p6_4 {
newpath
translate
504.856 311.777 m
406.083 330.649 l
344.972 296.855 l
} bind def
/p6_5 {
newpath
translate
505.511 323.427 m
405.923 341.947 l
344.272 308.774 l
} bind def
/p6_6 {
newpath
translate
506.178 335.273 m
405.759 353.426 l
343.559 320.901 l
} bind def
1.750 setlinewidth
0 setlinecap
0.900 setgray
gsave
0 0 p6_0
stroke
grestore
gsave
0 0 p6_1
stroke
grestore
gsave
0 0 p6_2
stroke
grestore
gsave
0 0 p6_3
stroke
grestore
gsave
0 0 p6_4
stroke
grestore
gsave
0 0 p6_5
stroke
grestore
gsave
0 0 p6_6
stroke
grestore
1.000 setlinewidth
1 setlinecap
1.000 setgray
gsave
426.245 292.854 m
stroke
grestore
1.750 setlinewidth
0.150 setgray
gsave
501.542 267.211 m
503.938 266.706 l
stroke
grestore
/LiberationSans findfont
10.000 scalefont
setfont
gsave
504.150504 260.652786 translate
0.000000 rotate
0.000000 0.000000 m /zero glyphshow
5.561523 0.000000 m /period glyphshow
8.339844 0.000000 m /zero glyphshow
grestore
1.000 setlinewidth
1.000 setgray
gsave
426.245 292.854 m
stroke
grestore
1.750 setlinewidth
0.150 setgray
gsave
502.149 278.121 m
504.565 277.624 l
stroke
grestore
gsave
504.877458 271.553327 translate
0.000000 rotate
0.000000 0.000000 m /zero glyphshow
5.561523 0.000000 m /period glyphshow
8.339844 0.000000 m /one glyphshow
grestore
1.000 setlinewidth
1.000 setgray
gsave
426.245 292.854 m
stroke
grestore
1.750 setlinewidth
0.150 setgray
gsave
502.766 289.209 m
505.202 288.72 l
stroke
grestore
gsave
505.576390 282.630820 translate
0.000000 rotate
0.000000 0.000000 m /zero glyphshow
5.561523 0.000000 m /period glyphshow
8.339844 0.000000 m /two glyphshow
grestore
1.000 setlinewidth
1.000 setgray
gsave
426.245 292.854 m
stroke
grestore
1.750 setlinewidth
0.150 setgray
gsave
503.394 300.479 m
505.85 299.997 l
stroke
grestore
gsave
506.247570 293.889610 translate
0.000000 rotate
0.000000 0.000000 m /zero glyphshow
5.561523 0.000000 m /period glyphshow
8.339844 0.000000 m /three glyphshow
grestore
1.000 setlinewidth
1.000 setgray
gsave
426.245 292.854 m
stroke
grestore
1.750 setlinewidth
0.150 setgray
gsave
504.031 311.935 m
506.508 311.462 l
stroke
grestore
gsave
506.891279 305.334184 translate
0.000000 rotate
0.000000 0.000000 m /zero glyphshow
5.561523 0.000000 m /period glyphshow
8.339844 0.000000 m /four glyphshow
grestore
1.000 setlinewidth
1.000 setgray
gsave
426.245 292.854 m
stroke
grestore
1.750 setlinewidth
0.150 setgray
gsave
504.679 323.582 m
507.178 323.117 l
stroke
grestore
gsave
507.679680 316.969179 translate
0.000000 rotate
0.000000 0.000000 m /zero glyphshow
5.561523 0.000000 m /period glyphshow
8.339844 0.000000 m /five glyphshow
grestore
1.000 setlinewidth
1.000 setgray
gsave
426.245 292.854 m
stroke
grestore
1.750 setlinewidth
0.150 setgray
gsave
505.338 335.425 m
507.859 334.969 l
stroke
grestore
gsave
508.425573 328.799387 translate
0.000000 rotate
0.000000 0.000000 m /zero glyphshow
5.561523 0.000000 m /period glyphshow
8.339844 0.000000 m /six glyphshow
grestore
/p7_0 {
newpath
translate
381.57 270.291 m
404.344 265.373 l
427.601 260.303 l
451.354 254.968 l
475.628 249.869 l
478.196 251.506 l
480.749 253.245 l
483.288 255.087 l
485.808 256.915 l
488.309 258.73 l
490.792 260.531 l
493.258 262.32 l
495.705 264.095 l
498.135 265.858 l
474.42 270.876 l
451.189 275.791 l
428.428 280.607 l
406.122 285.327 l
403.47 283.703 l
400.799 282.067 l
398.11 280.42 l
395.402 278.761 l
392.674 277.091 l
389.928 275.409 l
387.162 273.715 l
384.375 272.025 l
381.57 270.291 l
cl
} bind def
/p7_1 {
newpath
translate
352.31 253.461 m
375.532 250.922 l
399.379 247.699 l
423.838 245.298 l
448.973 243.032 l
452.487 281.909 l
455.566 294.196 l
458.223 287.441 l
460.689 275.429 l
463.008 260.846 l
465.422 252.462 l
467.925 248.862 l
470.454 247.263 l
473.04 248.249 l
475.628 249.869 l
451.354 254.968 l
427.601 260.303 l
404.344 265.373 l
381.57 270.291 l
378.743 268.613 l
375.891 267.019 l
373.01 265.606 l
370.074 264.965 l
367.095 264.705 l
364.055 265.154 l
361.032 264.58 l
357.993 263.75 l
355.083 259.987 l
352.31 253.461 l
cl
} bind def
0.300 setlinewidth
0 setlinecap
0.000 setgray
gsave
206.1 147.3 320.4 217.2 clipbox
0 0 p7_0
gsave
0.000 0.000 0.500 setrgbcolor
fill
grestore
stroke
grestore
gsave
206.1 147.3 320.4 217.2 clipbox
0 0 p7_1
gsave
0.000 0.000 1.000 setrgbcolor
fill
grestore
stroke
grestore
0.150 setgray
gsave
363.460227 357.718182 translate
0.000000 rotate
/LiberationSans findfont
12.0 scalefont
setfont
0.000000 0.671875 moveto
/M glyphshow

9.996094 0.671875 moveto
/e glyphshow

16.669922 0.671875 moveto
/a glyphshow

23.343750 0.671875 moveto
/n glyphshow

30.017578 0.671875 moveto
/uni00A0 glyphshow

33.351562 0.671875 moveto
/D glyphshow

42.017578 0.671875 moveto
/e glyphshow

48.691406 0.671875 moveto
/g glyphshow

55.365234 0.671875 moveto
/r glyphshow

59.361328 0.671875 moveto
/e glyphshow

66.035156 0.671875 moveto
/e glyphshow

72.708984 0.671875 moveto
/uni00A0 glyphshow

/Cmmi10 findfont
12.0 scalefont
setfont
76.042969 0.671875 moveto
/d glyphshow

82.283203 0.671875 moveto
/e glyphshow

87.861328 0.671875 moveto
/g glyphshow

/LiberationSans findfont
12.0 scalefont
setfont
93.585938 0.671875 moveto
/colon glyphshow

/Cmmi10 findfont
12.0 scalefont
setfont
96.919922 0.671875 moveto
/R glyphshow

/LiberationSans findfont
12.0 scalefont
setfont
106.025391 0.671875 moveto
/equal glyphshow

113.033203 0.671875 moveto
/one glyphshow


grestore
gsave
73.125 40.5 m
279.205 40.5 l
279.205 187.773 l
73.125 187.773 l
cl
0.918 0.918 0.949 setrgbcolor
fill
grestore
0.950 setgray
gsave
100.444 73.0421 m
159.425 109.15 l
158.443 178.146 l
96.1735 145.704 l
gsave
fill
grestore
stroke
grestore
0.900 setgray
gsave
159.425 109.15 m
254.969 88.9634 l
258.966 160.04 l
158.443 178.146 l
gsave
fill
grestore
stroke
grestore
0.925 setgray
gsave
100.444 73.0421 m
200.969 49.5314 l
254.969 88.9634 l
159.425 109.15 l
gsave
fill
grestore
stroke
grestore
0.750 setlinewidth
1 setlinecap
0.000 setgray
gsave
100.444 73.0421 m
200.969 49.5314 l
stroke
grestore
0.150 setgray
gsave
103.772649 53.351584 translate
346.836336 rotate
/LiberationSans findfont
11.0 scalefont
setfont
0.000000 0.031250 moveto
/N glyphshow

7.943848 0.031250 moveto
/o glyphshow

14.061523 0.031250 moveto
/period glyphshow

17.117676 0.031250 moveto
/uni00A0 glyphshow

20.173828 0.031250 moveto
/o glyphshow

26.291504 0.031250 moveto
/f glyphshow

29.347656 0.031250 moveto
/uni00A0 glyphshow

32.403809 0.031250 moveto
/R glyphshow

40.347656 0.031250 moveto
/o glyphshow

46.465332 0.031250 moveto
/b glyphshow

52.583008 0.031250 moveto
/o glyphshow

58.700684 0.031250 moveto
/t glyphshow

61.756836 0.031250 moveto
/s glyphshow

67.256836 0.031250 moveto
/uni00A0 glyphshow

/Cmmi10 findfont
11.0 scalefont
setfont
70.312988 0.031250 moveto
/n glyphshow


grestore
/p8_0 {
newpath
translate
102.366 72.5925 m
161.258 108.763 l
160.368 177.8 l
} bind def
/p8_1 {
newpath
translate
113.973 69.8779 m
172.321 106.425 l
171.986 175.707 l
} bind def
/p8_2 {
newpath
translate
125.706 67.1338 m
183.496 104.064 l
183.727 173.592 l
} bind def
/p8_3 {
newpath
translate
137.567 64.3598 m
194.783 101.679 l
195.593 171.455 l
} bind def
/p8_4 {
newpath
translate
149.558 61.5554 m
206.185 99.2704 l
207.586 169.295 l
} bind def
/p8_5 {
newpath
translate
161.681 58.72 m
217.704 96.8367 l
219.707 167.112 l
} bind def
/p8_6 {
newpath
translate
173.939 55.8532 m
229.341 94.3781 l
231.96 164.905 l
} bind def
/p8_7 {
newpath
translate
186.333 52.9544 m
241.098 91.894 l
244.345 162.674 l
} bind def
/p8_8 {
newpath
translate
198.866 50.0232 m
252.977 89.3842 l
256.866 160.419 l
} bind def
1.750 setlinewidth
0 setlinecap
0.900 setgray
gsave
0 0 p8_0
stroke
grestore
gsave
0 0 p8_1
stroke
grestore
gsave
0 0 p8_2
stroke
grestore
gsave
0 0 p8_3
stroke
grestore
gsave
0 0 p8_4
stroke
grestore
gsave
0 0 p8_5
stroke
grestore
gsave
0 0 p8_6
stroke
grestore
gsave
0 0 p8_7
stroke
grestore
gsave
0 0 p8_8
stroke
grestore
1.000 setlinewidth
1 setlinecap
1.000 setgray
gsave
206.1 147.3 73.12 40.5 clipbox
178.95 116.127 m
stroke
grestore
1.750 setlinewidth
0.150 setgray
gsave
102.874 72.9041 m
101.35 71.9682 l
stroke
grestore
gsave
96.662473 59.290006 translate
0.000000 rotate
0.000000 0.000000 m /five glyphshow
grestore
1.000 setlinewidth
1.000 setgray
gsave
206.1 147.3 73.12 40.5 clipbox
178.95 116.127 m
stroke
grestore
1.750 setlinewidth
0.150 setgray
gsave
114.476 70.1928 m
112.966 69.2468 l
stroke
grestore
gsave
105.651085 56.538735 translate
0.000000 rotate
0.000000 0.000000 m /one glyphshow
5.561523 0.000000 m /zero glyphshow
grestore
1.000 setlinewidth
1.000 setgray
gsave
206.1 147.3 73.12 40.5 clipbox
178.95 116.127 m
stroke
grestore
1.750 setlinewidth
0.150 setgray
gsave
126.204 67.4522 m
124.708 66.4958 l
stroke
grestore
gsave
117.398607 53.757572 translate
0.000000 rotate
0.000000 0.000000 m /one glyphshow
5.561523 0.000000 m /five glyphshow
grestore
1.000 setlinewidth
1.000 setgray
gsave
206.1 147.3 73.12 40.5 clipbox
178.95 116.127 m
stroke
grestore
1.750 setlinewidth
0.150 setgray
gsave
138.061 64.6816 m
136.578 63.7149 l
stroke
grestore
gsave
129.110231 50.946026 translate
0.000000 rotate
0.000000 0.000000 m /two glyphshow
5.561523 0.000000 m /zero glyphshow
grestore
1.000 setlinewidth
1.000 setgray
gsave
206.1 147.3 73.12 40.5 clipbox
178.95 116.127 m
stroke
grestore
1.750 setlinewidth
0.150 setgray
gsave
150.047 61.8808 m
148.579 60.9033 l
stroke
grestore
gsave
141.116192 48.103596 translate
0.000000 rotate
0.000000 0.000000 m /two glyphshow
5.561523 0.000000 m /five glyphshow
grestore
1.000 setlinewidth
1.000 setgray
gsave
206.1 147.3 73.12 40.5 clipbox
178.95 116.127 m
stroke
grestore
1.750 setlinewidth
0.150 setgray
gsave
162.165 59.049 m
160.712 58.0608 l
stroke
grestore
gsave
153.160836 45.229773 translate
0.000000 rotate
0.000000 0.000000 m /three glyphshow
5.561523 0.000000 m /zero glyphshow
grestore
1.000 setlinewidth
1.000 setgray
gsave
206.1 147.3 73.12 40.5 clipbox
178.95 116.127 m
stroke
grestore
1.750 setlinewidth
0.150 setgray
gsave
174.417 56.1859 m
172.98 55.1866 l
stroke
grestore
gsave
165.433871 42.324031 translate
0.000000 rotate
0.000000 0.000000 m /three glyphshow
5.561523 0.000000 m /five glyphshow
grestore
1.000 setlinewidth
1.000 setgray
gsave
206.1 147.3 73.12 40.5 clipbox
178.95 116.127 m
stroke
grestore
1.750 setlinewidth
0.150 setgray
gsave
186.806 53.2908 m
185.385 52.2804 l
stroke
grestore
gsave
177.742238 39.385837 translate
0.000000 rotate
0.000000 0.000000 m /four glyphshow
5.561523 0.000000 m /zero glyphshow
grestore
1.000 setlinewidth
1.000 setgray
gsave
206.1 147.3 73.12 40.5 clipbox
178.95 116.127 m
stroke
grestore
1.750 setlinewidth
0.150 setgray
gsave
199.334 50.3633 m
197.929 49.3415 l
stroke
grestore
gsave
190.291369 36.414644 translate
0.000000 rotate
0.000000 0.000000 m /four glyphshow
5.561523 0.000000 m /five glyphshow
grestore
0.750 setlinewidth
0.000 setgray
gsave
254.969 88.9634 m
200.969 49.5314 l
stroke
grestore
0.150 setgray
gsave
210.952244 32.653619 translate
36.137773 rotate
/LiberationSans findfont
11.0 scalefont
setfont
0.000000 0.312500 moveto
/C glyphshow

7.943848 0.312500 moveto
/o glyphshow

14.061523 0.312500 moveto
/m glyphshow

23.224609 0.312500 moveto
/m glyphshow

32.387695 0.312500 moveto
/period glyphshow

35.443848 0.312500 moveto
/uni00A0 glyphshow

38.500000 0.312500 moveto
/R glyphshow

46.443848 0.312500 moveto
/a glyphshow

52.561523 0.312500 moveto
/n glyphshow

58.679199 0.312500 moveto
/g glyphshow

64.796875 0.312500 moveto
/e glyphshow

70.914551 0.312500 moveto
/uni00A0 glyphshow

/Cmmi10 findfont
11.0 scalefont
setfont
73.970703 0.312500 moveto
/d glyphshow


grestore
/p9_0 {
newpath
translate
97.5183 146.405 m
101.713 73.8189 l
202.135 50.3826 l
} bind def
/p9_1 {
newpath
translate
113.321 154.638 m
116.64 82.9572 l
215.833 60.3856 l
} bind def
/p9_2 {
newpath
translate
128.529 162.561 m
131.033 91.7686 l
229.02 70.0149 l
} bind def
/p9_3 {
newpath
translate
143.175 170.192 m
144.921 100.27 l
241.723 79.2909 l
} bind def
/p9_4 {
newpath
translate
157.29 177.546 m
158.329 108.479 l
253.968 88.2327 l
} bind def
1.750 setlinewidth
0 setlinecap
0.900 setgray
gsave
0 0 p9_0
stroke
grestore
gsave
0 0 p9_1
stroke
grestore
gsave
0 0 p9_2
stroke
grestore
gsave
0 0 p9_3
stroke
grestore
gsave
0 0 p9_4
stroke
grestore
1.000 setlinewidth
1 setlinecap
1.000 setgray
gsave
206.1 147.3 73.12 40.5 clipbox
178.95 116.127 m
stroke
grestore
1.750 setlinewidth
0.150 setgray
gsave
201.294 50.5787 m
203.818 49.9898 l
stroke
grestore
gsave
205.557770 37.796323 translate
0.000000 rotate
0.000000 0.000000 m /zero glyphshow
grestore
1.000 setlinewidth
1.000 setgray
gsave
206.1 147.3 73.12 40.5 clipbox
178.95 116.127 m
stroke
grestore
1.750 setlinewidth
0.150 setgray
gsave
215.004 60.5744 m
217.494 60.0077 l
stroke
grestore
gsave
216.366876 47.896975 translate
0.000000 rotate
0.000000 0.000000 m /five glyphshow
5.561523 0.000000 m /zero glyphshow
grestore
1.000 setlinewidth
1.000 setgray
gsave
206.1 147.3 73.12 40.5 clipbox
178.95 116.127 m
stroke
grestore
1.750 setlinewidth
0.150 setgray
gsave
228.201 70.1967 m
230.659 69.6509 l
stroke
grestore
gsave
226.840480 57.620316 translate
0.000000 rotate
0.000000 0.000000 m /one glyphshow
5.561523 0.000000 m /zero glyphshow
11.123047 0.000000 m /zero glyphshow
grestore
1.000 setlinewidth
1.000 setgray
gsave
206.1 147.3 73.12 40.5 clipbox
178.95 116.127 m
stroke
grestore
1.750 setlinewidth
0.150 setgray
gsave
240.915 79.466 m
243.341 78.9401 l
stroke
grestore
gsave
239.436178 66.987100 translate
0.000000 rotate
0.000000 0.000000 m /one glyphshow
5.561523 0.000000 m /five glyphshow
11.123047 0.000000 m /zero glyphshow
grestore
1.000 setlinewidth
1.000 setgray
gsave
206.1 147.3 73.12 40.5 clipbox
178.95 116.127 m
stroke
grestore
1.750 setlinewidth
0.150 setgray
gsave
253.17 88.4016 m
255.566 87.8945 l
stroke
grestore
gsave
251.445494 76.016587 translate
0.000000 rotate
0.000000 0.000000 m /two glyphshow
5.561523 0.000000 m /zero glyphshow
11.123047 0.000000 m /zero glyphshow
grestore
0.750 setlinewidth
0.000 setgray
gsave
254.969 88.9634 m
258.966 160.04 l
stroke
grestore
0.150 setgray
/LiberationSans findfont
11.000 scalefont
setfont
gsave
278.061083 103.104545 translate
86.781019 rotate
0.000000 0.000000 m /m glyphshow
9.163086 0.000000 m /e glyphshow
15.280762 0.000000 m /a glyphshow
21.398438 0.000000 m /n glyphshow
27.516113 0.000000 m /d glyphshow
33.633789 0.000000 m /e glyphshow
39.751465 0.000000 m /g glyphshow
grestore
/pa_0 {
newpath
translate
255.045 90.3152 m
159.406 110.465 l
100.363 74.4218 l
} bind def
/pa_1 {
newpath
translate
255.504 98.4836 m
159.293 118.409 l
99.8729 82.7601 l
} bind def
/pa_2 {
newpath
translate
255.969 106.751 m
159.179 126.445 l
99.3767 91.2031 l
} bind def
/pa_3 {
newpath
translate
256.44 115.12 m
159.063 134.576 l
98.8742 99.7528 l
} bind def
/pa_4 {
newpath
translate
256.916 123.591 m
158.946 142.802 l
98.3653 108.411 l
} bind def
/pa_5 {
newpath
translate
257.399 132.168 m
158.828 151.126 l
97.8499 117.18 l
} bind def
/pa_6 {
newpath
translate
257.887 140.851 m
158.708 159.548 l
97.3279 126.062 l
} bind def
/pa_7 {
newpath
translate
258.381 149.643 m
158.586 168.072 l
96.7991 135.059 l
} bind def
/pa_8 {
newpath
translate
258.882 158.546 m
158.464 176.698 l
96.2634 144.173 l
} bind def
1.750 setlinewidth
0 setlinecap
0.900 setgray
gsave
0 0 pa_0
stroke
grestore
gsave
0 0 pa_1
stroke
grestore
gsave
0 0 pa_2
stroke
grestore
gsave
0 0 pa_3
stroke
grestore
gsave
0 0 pa_4
stroke
grestore
gsave
0 0 pa_5
stroke
grestore
gsave
0 0 pa_6
stroke
grestore
gsave
0 0 pa_7
stroke
grestore
gsave
0 0 pa_8
stroke
grestore
1.000 setlinewidth
1 setlinecap
1.000 setgray
gsave
178.95 116.127 m
stroke
grestore
1.750 setlinewidth
0.150 setgray
gsave
254.247 90.4833 m
256.642 89.9786 l
stroke
grestore
/LiberationSans findfont
10.000 scalefont
setfont
gsave
254.073800 83.925513 translate
0.000000 rotate
0.000000 0.000000 m /zero glyphshow
5.561523 0.000000 m /period glyphshow
8.339844 0.000000 m /zero glyphshow
13.901367 0.000000 m /zero glyphshow
grestore
1.000 setlinewidth
1.000 setgray
gsave
178.95 116.127 m
stroke
grestore
1.750 setlinewidth
0.150 setgray
gsave
254.701 98.6499 m
257.112 98.1507 l
stroke
grestore
gsave
254.598459 92.084496 translate
0.000000 rotate
0.000000 0.000000 m /zero glyphshow
5.561523 0.000000 m /period glyphshow
8.339844 0.000000 m /zero glyphshow
13.901367 0.000000 m /five glyphshow
grestore
1.000 setlinewidth
1.000 setgray
gsave
178.95 116.127 m
stroke
grestore
1.750 setlinewidth
0.150 setgray
gsave
255.161 106.916 m
257.587 106.422 l
stroke
grestore
gsave
255.098042 100.342414 translate
0.000000 rotate
0.000000 0.000000 m /zero glyphshow
5.561523 0.000000 m /period glyphshow
8.339844 0.000000 m /one glyphshow
13.901367 0.000000 m /zero glyphshow
grestore
1.000 setlinewidth
1.000 setgray
gsave
178.95 116.127 m
stroke
grestore
1.750 setlinewidth
0.150 setgray
gsave
255.627 115.282 m
258.068 114.795 l
stroke
grestore
gsave
255.635159 108.701076 translate
0.000000 rotate
0.000000 0.000000 m /zero glyphshow
5.561523 0.000000 m /period glyphshow
8.339844 0.000000 m /one glyphshow
13.901367 0.000000 m /five glyphshow
grestore
1.000 setlinewidth
1.000 setgray
gsave
178.95 116.127 m
stroke
grestore
1.750 setlinewidth
0.150 setgray
gsave
256.098 123.752 m
258.555 123.27 l
stroke
grestore
gsave
256.147428 117.162338 translate
0.000000 rotate
0.000000 0.000000 m /zero glyphshow
5.561523 0.000000 m /period glyphshow
8.339844 0.000000 m /two glyphshow
13.901367 0.000000 m /zero glyphshow
grestore
1.000 setlinewidth
1.000 setgray
gsave
178.95 116.127 m
stroke
grestore
1.750 setlinewidth
0.150 setgray
gsave
256.575 132.326 m
259.047 131.851 l
stroke
grestore
gsave
256.697467 125.728100 translate
0.000000 rotate
0.000000 0.000000 m /zero glyphshow
5.561523 0.000000 m /period glyphshow
8.339844 0.000000 m /two glyphshow
13.901367 0.000000 m /five glyphshow
grestore
1.000 setlinewidth
1.000 setgray
gsave
178.95 116.127 m
stroke
grestore
1.750 setlinewidth
0.150 setgray
gsave
257.058 141.007 m
259.546 140.538 l
stroke
grestore
gsave
257.222896 134.400311 translate
0.000000 rotate
0.000000 0.000000 m /zero glyphshow
5.561523 0.000000 m /period glyphshow
8.339844 0.000000 m /three glyphshow
13.901367 0.000000 m /zero glyphshow
grestore
1.000 setlinewidth
1.000 setgray
gsave
178.95 116.127 m
stroke
grestore
1.750 setlinewidth
0.150 setgray
gsave
257.547 149.797 m
260.052 149.334 l
stroke
grestore
gsave
257.786342 143.180966 translate
0.000000 rotate
0.000000 0.000000 m /zero glyphshow
5.561523 0.000000 m /period glyphshow
8.339844 0.000000 m /three glyphshow
13.901367 0.000000 m /five glyphshow
grestore
1.000 setlinewidth
1.000 setgray
gsave
178.95 116.127 m
stroke
grestore
1.750 setlinewidth
0.150 setgray
gsave
258.043 158.697 m
260.563 158.242 l
stroke
grestore
gsave
258.325431 152.072114 translate
0.000000 rotate
0.000000 0.000000 m /zero glyphshow
5.561523 0.000000 m /period glyphshow
8.339844 0.000000 m /four glyphshow
13.901367 0.000000 m /zero glyphshow
grestore
/pb_0 {
newpath
translate
134.275 93.5633 m
157.05 88.5332 l
180.306 83.3971 l
204.057 78.1516 l
228.319 72.793 l
230.896 74.6623 l
233.453 76.5177 l
235.992 78.3595 l
238.512 80.1877 l
241.014 82.0025 l
243.497 83.804 l
245.962 85.5925 l
248.409 87.368 l
250.839 89.1307 l
227.124 94.1484 l
203.894 99.0638 l
181.132 103.88 l
158.826 108.6 l
156.174 106.975 l
153.504 105.34 l
150.814 103.693 l
148.106 102.034 l
145.379 100.364 l
142.632 98.6818 l
139.866 96.9877 l
137.08 95.2816 l
134.275 93.5633 l
cl
} bind def
/pb_1 {
newpath
translate
105.009 76.8419 m
128.163 76.1341 l
152.012 74.5579 l
176.535 72.6421 l
201.781 72.3456 l
205.448 118.549 l
208.196 113.959 l
210.467 90.9292 l
212.771 74.0769 l
215.252 67.2508 l
217.846 66.1268 l
220.473 67.1006 l
223.108 69.0124 l
225.723 70.9098 l
228.319 72.793 l
204.057 78.1516 l
180.306 83.3971 l
157.05 88.5332 l
134.275 93.5633 l
131.449 91.8326 l
128.603 90.0895 l
125.735 88.3533 l
122.844 86.6752 l
119.923 85.1589 l
116.945 84.4073 l
113.905 84.354 l
110.793 85.1314 l
107.781 83.3675 l
105.009 76.8419 l
cl
} bind def
0.300 setlinewidth
0 setlinecap
0.000 setgray
gsave
206.1 147.3 73.12 40.5 clipbox
0 0 pb_0
gsave
0.000 0.000 0.500 setrgbcolor
fill
grestore
stroke
grestore
gsave
206.1 147.3 73.12 40.5 clipbox
0 0 pb_1
gsave
0.000 0.000 1.000 setrgbcolor
fill
grestore
stroke
grestore
0.150 setgray
gsave
116.164773 180.990909 translate
0.000000 rotate
/LiberationSans findfont
12.0 scalefont
setfont
0.000000 0.625000 moveto
/M glyphshow

9.996094 0.625000 moveto
/e glyphshow

16.669922 0.625000 moveto
/a glyphshow

23.343750 0.625000 moveto
/n glyphshow

30.017578 0.625000 moveto
/uni00A0 glyphshow

33.351562 0.625000 moveto
/D glyphshow

42.017578 0.625000 moveto
/e glyphshow

48.691406 0.625000 moveto
/g glyphshow

55.365234 0.625000 moveto
/r glyphshow

59.361328 0.625000 moveto
/e glyphshow

66.035156 0.625000 moveto
/e glyphshow

72.708984 0.625000 moveto
/uni00A0 glyphshow

/Cmmi10 findfont
12.0 scalefont
setfont
76.042969 0.625000 moveto
/d glyphshow

82.283203 0.625000 moveto
/e glyphshow

87.861328 0.625000 moveto
/g glyphshow

/LiberationSans findfont
12.0 scalefont
setfont
93.585938 0.625000 moveto
/colon glyphshow

/Cmmi10 findfont
12.0 scalefont
setfont
96.919922 0.625000 moveto
/R glyphshow

/LiberationSans findfont
12.0 scalefont
setfont
106.025391 0.625000 moveto
/equal glyphshow

113.033203 0.625000 moveto
/two glyphshow


grestore
gsave
320.42 40.5 m
526.5 40.5 l
526.5 187.773 l
320.42 187.773 l
cl
0.918 0.918 0.949 setrgbcolor
fill
grestore
0.950 setgray
gsave
347.739 73.0421 m
406.721 109.15 l
405.739 178.146 l
343.469 145.704 l
gsave
fill
grestore
stroke
grestore
0.900 setgray
gsave
406.721 109.15 m
502.264 88.9634 l
506.262 160.04 l
405.739 178.146 l
gsave
fill
grestore
stroke
grestore
0.925 setgray
gsave
347.739 73.0421 m
448.264 49.5314 l
502.264 88.9634 l
406.721 109.15 l
gsave
fill
grestore
stroke
grestore
0.750 setlinewidth
1 setlinecap
0.000 setgray
gsave
347.739 73.0421 m
448.264 49.5314 l
stroke
grestore
0.150 setgray
gsave
351.068104 53.351584 translate
346.836336 rotate
/LiberationSans findfont
11.0 scalefont
setfont
0.000000 0.031250 moveto
/N glyphshow

7.943848 0.031250 moveto
/o glyphshow

14.061523 0.031250 moveto
/period glyphshow

17.117676 0.031250 moveto
/uni00A0 glyphshow

20.173828 0.031250 moveto
/o glyphshow

26.291504 0.031250 moveto
/f glyphshow

29.347656 0.031250 moveto
/uni00A0 glyphshow

32.403809 0.031250 moveto
/R glyphshow

40.347656 0.031250 moveto
/o glyphshow

46.465332 0.031250 moveto
/b glyphshow

52.583008 0.031250 moveto
/o glyphshow

58.700684 0.031250 moveto
/t glyphshow

61.756836 0.031250 moveto
/s glyphshow

67.256836 0.031250 moveto
/uni00A0 glyphshow

/Cmmi10 findfont
11.0 scalefont
setfont
70.312988 0.031250 moveto
/n glyphshow


grestore
/pc_0 {
newpath
translate
349.662 72.5925 m
408.554 108.763 l
407.663 177.8 l
} bind def
/pc_1 {
newpath
translate
361.269 69.8779 m
419.617 106.425 l
419.281 175.707 l
} bind def
/pc_2 {
newpath
translate
373.002 67.1338 m
430.791 104.064 l
431.023 173.592 l
} bind def
/pc_3 {
newpath
translate
384.863 64.3598 m
442.079 101.679 l
442.888 171.455 l
} bind def
/pc_4 {
newpath
translate
396.853 61.5554 m
453.481 99.2704 l
454.881 169.295 l
} bind def
/pc_5 {
newpath
translate
408.977 58.72 m
465 96.8367 l
467.003 167.112 l
} bind def
/pc_6 {
newpath
translate
421.234 55.8532 m
476.636 94.3781 l
479.255 164.905 l
} bind def
/pc_7 {
newpath
translate
433.629 52.9544 m
488.393 91.894 l
491.641 162.674 l
} bind def
/pc_8 {
newpath
translate
446.162 50.0232 m
500.272 89.3842 l
504.162 160.419 l
} bind def
1.750 setlinewidth
0 setlinecap
0.900 setgray
gsave
0 0 pc_0
stroke
grestore
gsave
0 0 pc_1
stroke
grestore
gsave
0 0 pc_2
stroke
grestore
gsave
0 0 pc_3
stroke
grestore
gsave
0 0 pc_4
stroke
grestore
gsave
0 0 pc_5
stroke
grestore
gsave
0 0 pc_6
stroke
grestore
gsave
0 0 pc_7
stroke
grestore
gsave
0 0 pc_8
stroke
grestore
1.000 setlinewidth
1 setlinecap
1.000 setgray
gsave
206.1 147.3 320.4 40.5 clipbox
426.245 116.127 m
stroke
grestore
1.750 setlinewidth
0.150 setgray
gsave
350.169 72.9041 m
348.645 71.9682 l
stroke
grestore
gsave
343.957927 59.290006 translate
0.000000 rotate
0.000000 0.000000 m /five glyphshow
grestore
1.000 setlinewidth
1.000 setgray
gsave
206.1 147.3 320.4 40.5 clipbox
426.245 116.127 m
stroke
grestore
1.750 setlinewidth
0.150 setgray
gsave
361.772 70.1928 m
360.261 69.2468 l
stroke
grestore
gsave
352.946540 56.538735 translate
0.000000 rotate
0.000000 0.000000 m /one glyphshow
5.561523 0.000000 m /zero glyphshow
grestore
1.000 setlinewidth
1.000 setgray
gsave
206.1 147.3 320.4 40.5 clipbox
426.245 116.127 m
stroke
grestore
1.750 setlinewidth
0.150 setgray
gsave
373.5 67.4522 m
372.003 66.4958 l
stroke
grestore
gsave
364.694062 53.757572 translate
0.000000 rotate
0.000000 0.000000 m /one glyphshow
5.561523 0.000000 m /five glyphshow
grestore
1.000 setlinewidth
1.000 setgray
gsave
206.1 147.3 320.4 40.5 clipbox
426.245 116.127 m
stroke
grestore
1.750 setlinewidth
0.150 setgray
gsave
385.356 64.6816 m
383.874 63.7149 l
stroke
grestore
gsave
376.405685 50.946026 translate
0.000000 rotate
0.000000 0.000000 m /two glyphshow
5.561523 0.000000 m /zero glyphshow
grestore
1.000 setlinewidth
1.000 setgray
gsave
206.1 147.3 320.4 40.5 clipbox
426.245 116.127 m
stroke
grestore
1.750 setlinewidth
0.150 setgray
gsave
397.342 61.8808 m
395.874 60.9033 l
stroke
grestore
gsave
388.411646 48.103596 translate
0.000000 rotate
0.000000 0.000000 m /two glyphshow
5.561523 0.000000 m /five glyphshow
grestore
1.000 setlinewidth
1.000 setgray
gsave
206.1 147.3 320.4 40.5 clipbox
426.245 116.127 m
stroke
grestore
1.750 setlinewidth
0.150 setgray
gsave
409.46 59.049 m
408.008 58.0608 l
stroke
grestore
gsave
400.456291 45.229773 translate
0.000000 rotate
0.000000 0.000000 m /three glyphshow
5.561523 0.000000 m /zero glyphshow
grestore
1.000 setlinewidth
1.000 setgray
gsave
206.1 147.3 320.4 40.5 clipbox
426.245 116.127 m
stroke
grestore
1.750 setlinewidth
0.150 setgray
gsave
421.713 56.1859 m
420.276 55.1866 l
stroke
grestore
gsave
412.729325 42.324031 translate
0.000000 rotate
0.000000 0.000000 m /three glyphshow
5.561523 0.000000 m /five glyphshow
grestore
1.000 setlinewidth
1.000 setgray
gsave
206.1 147.3 320.4 40.5 clipbox
426.245 116.127 m
stroke
grestore
1.750 setlinewidth
0.150 setgray
gsave
434.102 53.2908 m
432.681 52.2804 l
stroke
grestore
gsave
425.037692 39.385837 translate
0.000000 rotate
0.000000 0.000000 m /four glyphshow
5.561523 0.000000 m /zero glyphshow
grestore
1.000 setlinewidth
1.000 setgray
gsave
206.1 147.3 320.4 40.5 clipbox
426.245 116.127 m
stroke
grestore
1.750 setlinewidth
0.150 setgray
gsave
446.629 50.3633 m
445.225 49.3415 l
stroke
grestore
gsave
437.586824 36.414644 translate
0.000000 rotate
0.000000 0.000000 m /four glyphshow
5.561523 0.000000 m /five glyphshow
grestore
0.750 setlinewidth
0.000 setgray
gsave
502.264 88.9634 m
448.264 49.5314 l
stroke
grestore
0.150 setgray
gsave
458.247699 32.653619 translate
36.137773 rotate
/LiberationSans findfont
11.0 scalefont
setfont
0.000000 0.312500 moveto
/C glyphshow

7.943848 0.312500 moveto
/o glyphshow

14.061523 0.312500 moveto
/m glyphshow

23.224609 0.312500 moveto
/m glyphshow

32.387695 0.312500 moveto
/period glyphshow

35.443848 0.312500 moveto
/uni00A0 glyphshow

38.500000 0.312500 moveto
/R glyphshow

46.443848 0.312500 moveto
/a glyphshow

52.561523 0.312500 moveto
/n glyphshow

58.679199 0.312500 moveto
/g glyphshow

64.796875 0.312500 moveto
/e glyphshow

70.914551 0.312500 moveto
/uni00A0 glyphshow

/Cmmi10 findfont
11.0 scalefont
setfont
73.970703 0.312500 moveto
/d glyphshow


grestore
/pd_0 {
newpath
translate
344.814 146.405 m
349.008 73.8189 l
449.43 50.3826 l
} bind def
/pd_1 {
newpath
translate
360.616 154.638 m
363.935 82.9572 l
463.129 60.3856 l
} bind def
/pd_2 {
newpath
translate
375.824 162.561 m
378.329 91.7686 l
476.315 70.0149 l
} bind def
/pd_3 {
newpath
translate
390.47 170.192 m
392.216 100.27 l
489.018 79.2909 l
} bind def
/pd_4 {
newpath
translate
404.585 177.546 m
405.624 108.479 l
501.264 88.2327 l
} bind def
1.750 setlinewidth
0 setlinecap
0.900 setgray
gsave
0 0 pd_0
stroke
grestore
gsave
0 0 pd_1
stroke
grestore
gsave
0 0 pd_2
stroke
grestore
gsave
0 0 pd_3
stroke
grestore
gsave
0 0 pd_4
stroke
grestore
1.000 setlinewidth
1 setlinecap
1.000 setgray
gsave
206.1 147.3 320.4 40.5 clipbox
426.245 116.127 m
stroke
grestore
1.750 setlinewidth
0.150 setgray
gsave
448.589 50.5787 m
451.113 49.9898 l
stroke
grestore
gsave
452.853224 37.796323 translate
0.000000 rotate
0.000000 0.000000 m /zero glyphshow
grestore
1.000 setlinewidth
1.000 setgray
gsave
206.1 147.3 320.4 40.5 clipbox
426.245 116.127 m
stroke
grestore
1.750 setlinewidth
0.150 setgray
gsave
462.299 60.5744 m
464.79 60.0077 l
stroke
grestore
gsave
463.662330 47.896975 translate
0.000000 rotate
0.000000 0.000000 m /five glyphshow
5.561523 0.000000 m /zero glyphshow
grestore
1.000 setlinewidth
1.000 setgray
gsave
206.1 147.3 320.4 40.5 clipbox
426.245 116.127 m
stroke
grestore
1.750 setlinewidth
0.150 setgray
gsave
475.497 70.1967 m
477.955 69.6509 l
stroke
grestore
gsave
474.135935 57.620316 translate
0.000000 rotate
0.000000 0.000000 m /one glyphshow
5.561523 0.000000 m /zero glyphshow
11.123047 0.000000 m /zero glyphshow
grestore
1.000 setlinewidth
1.000 setgray
gsave
206.1 147.3 320.4 40.5 clipbox
426.245 116.127 m
stroke
grestore
1.750 setlinewidth
0.150 setgray
gsave
488.21 79.466 m
490.637 78.9401 l
stroke
grestore
gsave
486.731633 66.987100 translate
0.000000 rotate
0.000000 0.000000 m /one glyphshow
5.561523 0.000000 m /five glyphshow
11.123047 0.000000 m /zero glyphshow
grestore
1.000 setlinewidth
1.000 setgray
gsave
206.1 147.3 320.4 40.5 clipbox
426.245 116.127 m
stroke
grestore
1.750 setlinewidth
0.150 setgray
gsave
500.466 88.4016 m
502.861 87.8945 l
stroke
grestore
gsave
498.740948 76.016587 translate
0.000000 rotate
0.000000 0.000000 m /two glyphshow
5.561523 0.000000 m /zero glyphshow
11.123047 0.000000 m /zero glyphshow
grestore
0.750 setlinewidth
0.000 setgray
gsave
502.264 88.9634 m
506.262 160.04 l
stroke
grestore
0.150 setgray
/LiberationSans findfont
11.000 scalefont
setfont
gsave
525.356538 103.104545 translate
86.781019 rotate
0.000000 0.000000 m /m glyphshow
9.163086 0.000000 m /e glyphshow
15.280762 0.000000 m /a glyphshow
21.398438 0.000000 m /n glyphshow
27.516113 0.000000 m /d glyphshow
33.633789 0.000000 m /e glyphshow
39.751465 0.000000 m /g glyphshow
grestore
/pe_0 {
newpath
translate
502.34 90.3152 m
406.702 110.465 l
347.658 74.4218 l
} bind def
/pe_1 {
newpath
translate
502.954 101.228 m
406.551 121.077 l
347.004 85.5627 l
} bind def
/pe_2 {
newpath
translate
503.578 112.319 m
406.397 131.855 l
346.338 96.8909 l
} bind def
/pe_3 {
newpath
translate
504.212 123.591 m
406.242 142.802 l
345.661 108.411 l
} bind def
/pe_4 {
newpath
translate
504.856 135.05 m
406.083 153.922 l
344.972 120.128 l
} bind def
/pe_5 {
newpath
translate
505.511 146.7 m
405.923 165.219 l
344.272 132.047 l
} bind def
/pe_6 {
newpath
translate
506.178 158.546 m
405.759 176.698 l
343.559 144.173 l
} bind def
1.750 setlinewidth
0 setlinecap
0.900 setgray
gsave
0 0 pe_0
stroke
grestore
gsave
0 0 pe_1
stroke
grestore
gsave
0 0 pe_2
stroke
grestore
gsave
0 0 pe_3
stroke
grestore
gsave
0 0 pe_4
stroke
grestore
gsave
0 0 pe_5
stroke
grestore
gsave
0 0 pe_6
stroke
grestore
1.000 setlinewidth
1 setlinecap
1.000 setgray
gsave
426.245 116.127 m
stroke
grestore
1.750 setlinewidth
0.150 setgray
gsave
501.542 90.4833 m
503.938 89.9786 l
stroke
grestore
/LiberationSans findfont
10.000 scalefont
setfont
gsave
501.369254 83.925513 translate
0.000000 rotate
0.000000 0.000000 m /zero glyphshow
5.561523 0.000000 m /period glyphshow
8.339844 0.000000 m /zero glyphshow
13.901367 0.000000 m /zero glyphshow
grestore
1.000 setlinewidth
1.000 setgray
gsave
426.245 116.127 m
stroke
grestore
1.750 setlinewidth
0.150 setgray
gsave
502.149 101.394 m
504.565 100.897 l
stroke
grestore
gsave
502.064958 94.826054 translate
0.000000 rotate
0.000000 0.000000 m /zero glyphshow
5.561523 0.000000 m /period glyphshow
8.339844 0.000000 m /zero glyphshow
13.901367 0.000000 m /five glyphshow
grestore
1.000 setlinewidth
1.000 setgray
gsave
426.245 116.127 m
stroke
grestore
1.750 setlinewidth
0.150 setgray
gsave
502.766 112.482 m
505.202 111.992 l
stroke
grestore
gsave
502.740453 105.903548 translate
0.000000 rotate
0.000000 0.000000 m /zero glyphshow
5.561523 0.000000 m /period glyphshow
8.339844 0.000000 m /one glyphshow
13.901367 0.000000 m /zero glyphshow
grestore
1.000 setlinewidth
1.000 setgray
gsave
426.245 116.127 m
stroke
grestore
1.750 setlinewidth
0.150 setgray
gsave
503.394 123.752 m
505.85 123.27 l
stroke
grestore
gsave
503.458508 117.162338 translate
0.000000 rotate
0.000000 0.000000 m /zero glyphshow
5.561523 0.000000 m /period glyphshow
8.339844 0.000000 m /one glyphshow
13.901367 0.000000 m /five glyphshow
grestore
1.000 setlinewidth
1.000 setgray
gsave
426.245 116.127 m
stroke
grestore
1.750 setlinewidth
0.150 setgray
gsave
504.031 135.208 m
506.508 134.734 l
stroke
grestore
gsave
504.156904 128.606912 translate
0.000000 rotate
0.000000 0.000000 m /zero glyphshow
5.561523 0.000000 m /period glyphshow
8.339844 0.000000 m /two glyphshow
13.901367 0.000000 m /zero glyphshow
grestore
1.000 setlinewidth
1.000 setgray
gsave
426.245 116.127 m
stroke
grestore
1.750 setlinewidth
0.150 setgray
gsave
504.679 146.855 m
507.178 146.39 l
stroke
grestore
gsave
504.898430 140.241906 translate
0.000000 rotate
0.000000 0.000000 m /zero glyphshow
5.561523 0.000000 m /period glyphshow
8.339844 0.000000 m /two glyphshow
13.901367 0.000000 m /five glyphshow
grestore
1.000 setlinewidth
1.000 setgray
gsave
426.245 116.127 m
stroke
grestore
1.750 setlinewidth
0.150 setgray
gsave
505.338 158.697 m
507.859 158.242 l
stroke
grestore
gsave
505.620886 152.072114 translate
0.000000 rotate
0.000000 0.000000 m /zero glyphshow
5.561523 0.000000 m /period glyphshow
8.339844 0.000000 m /three glyphshow
13.901367 0.000000 m /zero glyphshow
grestore
/pf_0 {
newpath
translate
381.57 93.5633 m
404.346 88.5332 l
427.601 83.3971 l
451.352 78.1516 l
475.615 72.793 l
478.191 74.6623 l
480.749 76.5177 l
483.288 78.3595 l
485.808 80.1877 l
488.309 82.0025 l
490.792 83.804 l
493.258 85.5925 l
495.705 87.368 l
498.135 89.1307 l
474.42 94.1484 l
451.189 99.0638 l
428.428 103.88 l
406.122 108.6 l
403.47 106.975 l
400.799 105.34 l
398.11 103.693 l
395.402 102.034 l
392.674 100.364 l
389.928 98.6818 l
387.162 96.9877 l
384.376 95.2816 l
381.57 93.5633 l
cl
} bind def
/pf_1 {
newpath
translate
352.316 76.621 m
375.454 76.2661 l
399.248 77.4741 l
423.823 76.7458 l
449.156 77.0127 l
452.871 125.206 l
455.225 101.403 l
457.398 75.2772 l
459.827 64.6213 l
462.454 63.8321 l
465.117 65.3116 l
467.768 67.1006 l
470.403 69.0124 l
473.019 70.9098 l
475.615 72.793 l
451.352 78.1516 l
427.601 83.3971 l
404.346 88.5332 l
381.57 93.5633 l
378.744 91.8326 l
375.898 90.0895 l
373.031 88.3338 l
370.144 86.5653 l
367.235 84.7936 l
364.291 83.2925 l
361.297 82.3664 l
358.212 82.7053 l
355.178 81.4537 l
352.316 76.621 l
cl
} bind def
0.300 setlinewidth
0 setlinecap
0.000 setgray
gsave
206.1 147.3 320.4 40.5 clipbox
0 0 pf_0
gsave
0.000 0.000 1.000 setrgbcolor
fill
grestore
stroke
grestore
gsave
206.1 147.3 320.4 40.5 clipbox
0 0 pf_1
gsave
0.000 0.000 0.500 setrgbcolor
fill
grestore
stroke
grestore
0.150 setgray
gsave
363.460227 180.990909 translate
0.000000 rotate
/LiberationSans findfont
12.0 scalefont
setfont
0.000000 0.625000 moveto
/M glyphshow

9.996094 0.625000 moveto
/e glyphshow

16.669922 0.625000 moveto
/a glyphshow

23.343750 0.625000 moveto
/n glyphshow

30.017578 0.625000 moveto
/uni00A0 glyphshow

33.351562 0.625000 moveto
/D glyphshow

42.017578 0.625000 moveto
/e glyphshow

48.691406 0.625000 moveto
/g glyphshow

55.365234 0.625000 moveto
/r glyphshow

59.361328 0.625000 moveto
/e glyphshow

66.035156 0.625000 moveto
/e glyphshow

72.708984 0.625000 moveto
/uni00A0 glyphshow

/Cmmi10 findfont
12.0 scalefont
setfont
76.042969 0.625000 moveto
/d glyphshow

82.283203 0.625000 moveto
/e glyphshow

87.861328 0.625000 moveto
/g glyphshow

/LiberationSans findfont
12.0 scalefont
setfont
93.585938 0.625000 moveto
/colon glyphshow

/Cmmi10 findfont
12.0 scalefont
setfont
96.919922 0.625000 moveto
/R glyphshow

/LiberationSans findfont
12.0 scalefont
setfont
106.025391 0.625000 moveto
/equal glyphshow

113.033203 0.625000 moveto
/three glyphshow


grestore

end
showpage
