%!PS-Adobe-3.0 EPSF-3.0
%%Title: /home/ganesh/Checkouts/polytope-comps/samplers/figs/Uniform-comps.eps
%%Creator: matplotlib version 1.3.1, http://matplotlib.org/
%%CreationDate: Sun Jun  5 16:34:14 2016
%%Orientation: portrait
%%BoundingBox: -528 -63 1140 855
%%EndComments
%%BeginProlog
/mpldict 9 dict def
mpldict begin
/m { moveto } bind def
/l { lineto } bind def
/r { rlineto } bind def
/c { curveto } bind def
/cl { closepath } bind def
/box {
m
1 index 0 r
0 exch r
neg 0 r
cl
} bind def
/clipbox {
box
clip
newpath
} bind def
%!PS-Adobe-3.0 Resource-Font
%%Title: Liberation Sans
%%Copyright: Copyright (c) 2007 Red Hat, Inc. All rights reserved. LIBERATION is a trademark of Red Hat, Inc.
%%Creator: Converted from TrueType to type 3 by PPR
25 dict begin
/_d{bind def}bind def
/_m{moveto}_d
/_l{lineto}_d
/_cl{closepath eofill}_d
/_c{curveto}_d
/_sc{7 -1 roll{setcachedevice}{pop pop pop pop pop pop}ifelse}_d
/_e{exec}_d
/FontName /LiberationSans def
/PaintType 0 def
/FontMatrix[.001 0 0 .001 0 0]def
/FontBBox[-203 -303 1050 910]def
/FontType 3 def
/Encoding [ /uni00A0 /period /zero /one /two /three /four /five /six /seven /eight /nine /colon /equal /C /N /R /a /b /c /e /f /g /m /n /o /p /s /t ] def
/FontInfo 10 dict dup begin
/FamilyName (Liberation Sans) def
/FullName (Liberation Sans) def
/Notice (Copyright (c) 2007 Red Hat, Inc. All rights reserved. LIBERATION is a trademark of Red Hat, Inc. Liberation is a trademark of Red Hat, Inc. registered in U.S. Patent and Trademark Office and certain other jurisdictions.) def
/Weight (Regular) def
/Version (Version 1.07.3) def
/ItalicAngle 0.0 def
/isFixedPitch false def
/UnderlinePosition -217 def
/UnderlineThickness 150 def
end readonly def
/CharStrings 29 dict dup begin
/uni00A0{278 0 0 0 0 0 _sc
}_d
/period{278 0 91 0 187 107 _sc
91 0 _m
91 107 _l
187 107 _l
187 0 _l
91 0 _l
_cl}_d
/zero{{556 0 39 -9 517 698 _sc
517 344 _m
517 278 510 222 498 177 _c
485 132 468 96 447 68 _c
425 40 400 20 371 8 _c
341 -3 310 -9 277 -9 _c
243 -9 212 -3 183 8 _c
154 20 129 39 108 67 _c
86 95 69 131 57 177 _c
45 222 39 278 39 344 _c
39 413 45 470 57 516 _c
69 561 86 597 108 625 _c
129 652 154 671 184 682 _c
213 692 245 698 280 698 _c
}_e{312 698 343 692 372 682 _c
401 671 426 652 448 625 _c
469 597 486 561 498 516 _c
510 470 517 413 517 344 _c
428 344 _m
428 398 424 444 418 480 _c
411 516 401 545 389 567 _c
376 589 360 604 342 613 _c
324 622 303 627 280 627 _c
255 627 233 622 214 613 _c
195 604 179 589 166 567 _c
153 545 143 516 137 480 _c
131 444 128 398 128 344 _c
128 291 131 247 138 211 _c
}_e{144 175 154 146 167 124 _c
180 102 196 86 214 76 _c
232 66 254 62 278 62 _c
301 62 322 66 340 76 _c
358 86 374 102 387 124 _c
400 146 410 175 417 211 _c
424 247 428 291 428 344 _c
_cl}_e}_d
/one{556 0 76 0 507 688 _sc
76 0 _m
76 75 _l
251 75 _l
251 604 _l
96 493 _l
96 576 _l
259 688 _l
340 688 _l
340 75 _l
507 75 _l
507 0 _l
76 0 _l
_cl}_d
/two{{556 0 50 0 506 698 _sc
50 0 _m
50 62 _l
66 100 87 133 111 163 _c
135 192 160 218 186 242 _c
212 265 239 287 265 307 _c
291 327 314 348 335 368 _c
355 388 372 409 385 431 _c
398 453 405 479 405 507 _c
405 526 402 543 396 558 _c
390 573 381 586 370 596 _c
359 606 346 613 331 618 _c
315 623 298 626 279 626 _c
261 626 245 623 230 618 _c
214 613 200 606 188 596 _c
}_e{176 586 166 574 158 560 _c
150 546 146 529 144 510 _c
54 518 _l
57 542 64 566 75 588 _c
85 610 100 629 119 645 _c
137 661 160 674 187 684 _c
213 693 244 698 279 698 _c
313 698 344 694 371 686 _c
397 678 420 666 438 650 _c
456 634 470 614 480 591 _c
490 567 495 540 495 510 _c
495 486 490 464 482 444 _c
474 423 463 403 449 384 _c
435 365 419 347 401 329 _c
}_e{383 311 364 294 344 278 _c
324 261 304 244 284 228 _c
264 212 245 195 227 179 _c
209 162 194 145 180 128 _c
166 111 155 93 147 75 _c
506 75 _l
506 0 _l
50 0 _l
_cl}_e}_d
/three{{556 0 38 -9 512 698 _sc
512 190 _m
512 158 506 130 496 105 _c
486 80 471 59 451 42 _c
431 25 407 12 378 4 _c
349 -4 316 -9 279 -9 _c
236 -9 200 -4 171 6 _c
141 16 117 30 99 48 _c
80 65 66 85 56 107 _c
46 129 40 153 38 177 _c
129 185 _l
131 167 136 150 143 135 _c
150 120 160 107 172 97 _c
184 86 198 78 216 72 _c
234 66 255 63 279 63 _c
}_e{323 63 357 73 383 95 _c
408 117 421 149 421 193 _c
421 218 415 238 404 254 _c
392 269 378 281 362 290 _c
345 298 327 304 307 307 _c
287 310 269 312 253 312 _c
203 312 _l
203 388 _l
251 388 _l
267 388 285 389 303 393 _c
321 396 337 402 352 411 _c
366 420 378 432 388 448 _c
398 463 403 483 403 507 _c
403 543 392 572 370 594 _c
348 615 316 626 274 626 _c
}_e{235 626 204 616 180 596 _c
156 576 142 548 138 512 _c
50 519 _l
53 549 61 575 74 598 _c
87 620 104 639 124 654 _c
144 668 166 679 192 687 _c
218 694 245 698 275 698 _c
313 698 346 693 374 683 _c
402 673 424 660 442 644 _c
459 628 472 609 480 587 _c
488 565 493 541 493 516 _c
493 496 490 477 485 459 _c
479 441 471 426 459 412 _c
447 398 432 386 414 376 _c
}_e{396 366 374 358 349 353 _c
349 351 _l
377 348 401 342 421 332 _c
441 322 458 310 472 296 _c
485 282 495 265 502 247 _c
508 229 512 210 512 190 _c
_cl}_e}_d
/four{556 0 23 0 527 688 _sc
430 156 _m
430 0 _l
347 0 _l
347 156 _l
23 156 _l
23 224 _l
338 688 _l
430 688 _l
430 225 _l
527 225 _l
527 156 _l
430 156 _l
347 589 _m
346 587 344 583 342 579 _c
339 574 336 569 333 563 _c
330 557 327 552 323 546 _c
319 540 316 535 314 531 _c
138 271 _l
136 268 134 264 131 260 _c
127 256 124 251 121 247 _c
118 243 115 239 112 235 _c
108 231 106 227 104 225 _c
347 225 _l
347 589 _l
_cl}_d
/five{{556 0 40 -9 514 688 _sc
514 224 _m
514 189 508 157 498 129 _c
488 100 472 75 452 55 _c
431 34 405 18 375 7 _c
345 -3 310 -9 270 -9 _c
234 -9 202 -5 175 3 _c
148 11 125 23 107 38 _c
89 52 74 70 63 90 _c
52 110 44 131 40 154 _c
129 164 _l
132 151 137 138 144 126 _c
150 114 159 103 171 93 _c
182 83 196 76 212 70 _c
228 64 248 62 272 62 _c
}_e{294 62 315 65 334 72 _c
352 79 368 89 381 103 _c
394 117 404 134 412 154 _c
419 174 423 196 423 222 _c
423 243 419 262 412 280 _c
405 298 395 313 383 326 _c
370 339 354 349 336 356 _c
318 363 297 367 274 367 _c
259 367 245 365 233 363 _c
221 360 209 356 199 352 _c
188 348 178 343 170 337 _c
161 331 153 324 146 318 _c
60 318 _l
83 688 _l
474 688 _l
474 613 _l
}_e{163 613 _l
150 395 _l
165 407 184 417 208 426 _c
232 434 260 439 292 439 _c
326 439 356 433 384 423 _c
411 413 434 398 454 379 _c
473 360 488 337 498 311 _c
508 284 514 255 514 224 _c
_cl}_e}_d
/six{{556 0 51 -9 512 698 _sc
512 225 _m
512 190 507 158 497 130 _c
487 101 473 76 455 56 _c
436 35 413 19 385 8 _c
357 -3 326 -9 290 -9 _c
250 -9 215 -1 185 13 _c
155 28 130 50 110 79 _c
90 108 76 143 66 185 _c
56 227 51 274 51 328 _c
51 389 56 443 67 489 _c
78 535 94 574 116 605 _c
137 635 163 658 193 674 _c
223 690 258 698 297 698 _c
}_e{320 698 342 695 363 691 _c
383 686 402 678 419 667 _c
435 656 450 642 463 624 _c
475 606 485 584 493 558 _c
409 543 _l
400 572 385 593 365 607 _c
345 620 322 627 296 627 _c
272 627 250 621 230 610 _c
210 598 194 581 180 559 _c
166 536 156 507 149 473 _c
141 439 138 399 138 354 _c
154 383 176 405 205 421 _c
234 437 267 445 305 445 _c
336 445 364 440 390 430 _c
}_e{415 420 437 405 455 386 _c
473 366 487 343 497 316 _c
507 289 512 259 512 225 _c
423 221 _m
423 245 420 266 414 285 _c
408 304 399 320 387 334 _c
375 348 361 358 344 366 _c
326 373 306 377 284 377 _c
268 377 251 374 235 370 _c
219 365 204 357 191 347 _c
178 336 167 322 159 305 _c
151 287 147 266 147 242 _c
147 216 150 193 157 171 _c
163 149 173 129 185 113 _c
}_e{197 97 211 84 229 75 _c
246 65 265 61 287 61 _c
308 61 327 64 344 72 _c
360 79 374 90 386 104 _c
398 118 407 134 413 154 _c
419 174 423 196 423 221 _c
_cl}_e}_d
/seven{556 0 51 0 506 688 _sc
506 617 _m
471 564 439 513 410 465 _c
381 416 356 367 336 318 _c
315 268 299 218 287 166 _c
275 114 270 58 270 0 _c
178 0 _l
178 55 184 109 197 162 _c
210 214 228 266 250 317 _c
272 368 298 418 328 468 _c
357 517 388 565 421 613 _c
51 613 _l
51 688 _l
506 688 _l
506 617 _l
_cl}_d
/eight{{556 0 43 -9 513 698 _sc
513 192 _m
513 162 508 135 499 111 _c
489 86 475 65 456 47 _c
437 29 413 16 383 6 _c
353 -4 318 -9 278 -9 _c
238 -9 203 -4 173 6 _c
143 16 119 29 100 47 _c
80 65 66 86 57 110 _c
47 134 43 161 43 191 _c
43 216 46 238 54 258 _c
62 277 72 294 85 308 _c
98 322 113 334 129 342 _c
145 350 163 356 181 360 _c
181 362 _l
}_e{161 366 144 374 129 384 _c
113 394 101 406 91 420 _c
81 434 73 449 68 467 _c
62 484 60 502 60 522 _c
60 546 64 568 73 590 _c
82 611 96 630 114 646 _c
132 662 155 674 182 684 _c
209 693 240 698 276 698 _c
314 698 346 693 374 684 _c
401 674 424 662 442 646 _c
460 630 473 611 482 589 _c
491 567 496 545 496 521 _c
496 502 493 484 487 467 _c
}_e{481 449 474 433 464 419 _c
454 405 441 393 426 383 _c
410 373 393 367 374 363 _c
374 361 _l
393 357 411 351 428 343 _c
445 334 460 323 472 309 _c
484 295 494 278 502 258 _c
509 238 513 216 513 192 _c
404 516 _m
404 533 401 549 397 563 _c
393 577 386 590 376 600 _c
366 610 352 618 336 624 _c
320 630 300 633 276 633 _c
253 633 234 630 218 624 _c
202 618 188 610 178 600 _c
}_e{168 590 160 577 156 563 _c
151 549 149 533 149 516 _c
149 502 150 488 154 474 _c
158 460 164 447 174 435 _c
183 423 196 413 213 406 _c
229 398 251 395 277 395 _c
305 395 327 398 344 406 _c
360 413 373 423 382 435 _c
391 447 397 460 400 474 _c
402 488 404 502 404 516 _c
421 200 _m
421 216 418 232 414 248 _c
410 263 402 277 391 289 _c
380 301 365 310 346 318 _c
}_e{327 325 304 329 276 329 _c
250 329 229 325 211 318 _c
193 310 178 301 167 289 _c
155 277 147 263 142 247 _c
136 231 134 215 134 198 _c
134 177 136 158 142 140 _c
147 122 155 107 167 95 _c
178 83 193 73 212 66 _c
230 59 253 56 279 56 _c
305 56 328 59 346 66 _c
364 73 379 83 390 95 _c
401 107 409 122 414 140 _c
418 158 421 178 421 200 _c
_cl}_e}_d
/nine{{556 0 47 -9 509 698 _sc
509 358 _m
509 296 503 243 491 197 _c
479 151 463 112 442 82 _c
420 51 394 28 363 13 _c
332 -1 298 -9 260 -9 _c
233 -9 209 -6 188 -1 _c
167 3 148 11 132 23 _c
115 35 101 50 89 68 _c
77 86 68 108 61 134 _c
145 147 _l
154 117 168 96 188 82 _c
207 68 231 61 261 61 _c
285 61 306 66 326 78 _c
346 89 362 106 376 128 _c
}_e{390 150 401 179 409 213 _c
417 247 421 286 422 332 _c
415 316 406 303 394 291 _c
382 279 368 268 353 260 _c
338 252 322 245 304 241 _c
286 237 269 235 251 235 _c
219 235 191 240 166 252 _c
140 263 119 279 102 299 _c
84 319 71 343 61 372 _c
51 400 47 432 47 467 _c
47 502 52 534 62 563 _c
72 591 87 616 107 636 _c
126 656 150 671 179 682 _c
}_e{207 692 240 698 276 698 _c
352 698 410 669 450 613 _c
489 556 509 471 509 358 _c
413 443 _m
413 468 410 492 404 514 _c
398 536 389 556 377 573 _c
365 589 350 602 333 612 _c
315 622 295 627 273 627 _c
251 627 232 623 215 615 _c
198 607 184 597 172 583 _c
160 569 151 553 145 533 _c
139 513 136 491 136 467 _c
136 443 138 422 144 402 _c
150 382 158 365 170 351 _c
}_e{182 336 196 324 213 316 _c
229 308 249 304 272 304 _c
288 304 304 306 321 312 _c
338 318 353 326 367 338 _c
380 349 391 363 400 381 _c
408 398 413 419 413 443 _c
_cl}_e}_d
/colon{278 0 91 0 187 528 _sc
91 427 _m
91 528 _l
187 528 _l
187 427 _l
91 427 _l
91 0 _m
91 101 _l
187 101 _l
187 0 _l
91 0 _l
_cl}_d
/equal{584 0 49 168 535 490 _sc
49 418 _m
49 490 _l
535 490 _l
535 418 _l
49 418 _l
49 168 _m
49 240 _l
535 240 _l
535 168 _l
49 168 _l
_cl}_d
/C{{722 0 51 -9 684 698 _sc
387 622 _m
347 622 313 615 283 602 _c
253 589 227 571 207 547 _c
187 523 171 494 161 460 _c
151 426 146 388 146 347 _c
146 305 151 267 162 233 _c
173 199 189 169 210 145 _c
231 120 257 101 287 87 _c
317 73 352 67 391 67 _c
417 67 442 70 464 77 _c
486 84 505 94 523 107 _c
541 119 557 134 571 152 _c
585 169 597 188 608 210 _c
684 172 _l
}_e{672 146 656 122 638 100 _c
620 78 598 58 574 42 _c
549 26 521 13 490 4 _c
459 -4 424 -9 386 -9 _c
330 -9 282 0 240 17 _c
198 34 163 59 135 91 _c
107 123 86 160 72 204 _c
58 248 51 295 51 347 _c
51 401 58 449 73 493 _c
87 536 109 573 138 603 _c
166 633 201 657 243 673 _c
285 689 332 698 386 698 _c
459 698 520 683 569 655 _c
}_e{618 626 654 584 678 528 _c
589 499 _l
583 515 574 530 563 545 _c
551 559 537 572 521 584 _c
505 596 485 605 463 612 _c
441 618 415 622 387 622 _c
_cl}_e}_d
/N{722 0 82 0 641 688 _sc
528 0 _m
160 586 _l
160 570 161 554 163 539 _c
163 525 164 511 164 496 _c
164 481 165 468 165 457 _c
165 0 _l
82 0 _l
82 688 _l
190 688 _l
563 98 _l
561 114 560 130 560 146 _c
559 160 558 175 558 191 _c
557 207 557 222 557 237 _c
557 688 _l
641 688 _l
641 0 _l
528 0 _l
_cl}_d
/R{{722 0 82 0 676 688 _sc
568 0 _m
390 286 _l
175 286 _l
175 0 _l
82 0 _l
82 688 _l
406 688 _l
444 688 479 683 509 674 _c
539 665 565 652 585 635 _c
605 618 621 597 632 573 _c
642 549 648 521 648 491 _c
648 469 644 447 638 426 _c
632 405 622 386 608 368 _c
594 350 577 335 556 323 _c
535 310 510 301 480 296 _c
676 0 _l
568 0 _l
555 490 _m
}_e{555 510 551 528 544 544 _c
536 559 526 572 512 582 _c
498 592 482 600 463 605 _c
443 610 421 613 396 613 _c
175 613 _l
175 359 _l
400 359 _l
426 359 449 362 469 369 _c
489 375 505 385 518 397 _c
530 409 540 422 546 438 _c
552 454 555 471 555 490 _c
_cl}_e}_d
/a{{556 0 42 -9 556 538 _sc
202 -9 _m
149 -9 109 4 82 32 _c
55 60 42 98 42 147 _c
42 182 48 211 62 233 _c
75 255 92 273 114 286 _c
135 298 159 307 187 312 _c
214 316 242 319 271 320 _c
389 322 _l
389 351 _l
389 373 386 391 382 407 _c
377 422 370 434 361 444 _c
351 453 340 460 326 464 _c
312 468 295 471 276 471 _c
258 471 243 469 229 467 _c
}_e{215 465 204 460 194 454 _c
184 448 176 439 170 428 _c
164 417 160 403 158 387 _c
66 396 _l
69 416 75 435 84 453 _c
93 470 106 485 123 498 _c
139 510 160 520 186 527 _c
211 534 242 538 278 538 _c
344 538 393 522 427 492 _c
461 462 478 418 478 360 _c
478 133 _l
478 107 481 87 488 74 _c
495 60 508 54 527 54 _c
532 54 537 54 542 55 _c
546 55 551 56 556 58 _c
}_e{556 3 _l
545 1 534 0 523 -2 _c
512 -3 500 -4 488 -4 _c
471 -4 457 -2 445 2 _c
433 6 424 12 416 21 _c
408 30 403 41 399 55 _c
395 68 393 83 392 101 _c
389 101 _l
379 84 369 69 358 55 _c
346 41 333 30 318 20 _c
303 10 286 3 267 -1 _c
248 -6 226 -9 202 -9 _c
222 56 _m
250 56 274 61 295 71 _c
316 81 334 95 348 111 _c
}_e{362 127 372 144 379 163 _c
385 181 389 199 389 217 _c
389 261 _l
293 259 _l
271 258 251 256 232 254 _c
212 251 195 246 181 238 _c
166 230 154 218 146 204 _c
137 189 133 170 133 146 _c
133 117 140 95 156 79 _c
171 63 193 56 222 56 _c
_cl}_e}_d
/b{{556 0 64 -9 514 725 _sc
514 267 _m
514 83 449 -9 320 -9 _c
280 -9 246 -2 220 12 _c
193 26 171 50 155 82 _c
154 82 _l
154 73 153 64 153 55 _c
153 46 152 38 152 30 _c
151 22 150 16 150 10 _c
150 4 149 1 149 0 _c
64 0 _l
64 2 65 7 65 14 _c
65 21 66 30 66 40 _c
66 50 67 60 67 72 _c
67 84 67 96 67 109 _c
67 725 _l
155 725 _l
}_e{155 518 _l
155 508 155 498 155 490 _c
155 481 154 473 154 466 _c
154 458 153 450 153 443 _c
155 443 _l
171 477 193 501 220 516 _c
246 530 280 538 320 538 _c
386 538 435 515 467 470 _c
498 425 514 357 514 267 _c
422 264 _m
422 300 419 331 415 357 _c
410 383 403 404 393 421 _c
383 438 370 450 354 458 _c
338 466 319 470 297 470 _c
274 470 254 466 236 459 _c
}_e{218 451 203 439 191 423 _c
179 406 170 384 164 357 _c
158 330 155 297 155 258 _c
155 220 158 189 164 163 _c
170 137 179 116 191 100 _c
203 84 217 72 235 65 _c
253 58 273 55 296 55 _c
318 55 336 58 352 66 _c
367 74 380 86 391 102 _c
401 118 409 140 414 167 _c
419 193 422 226 422 264 _c
_cl}_e}_d
/c{{500 0 42 -9 474 538 _sc
134 267 _m
134 236 136 208 140 183 _c
144 157 152 135 163 117 _c
173 99 187 85 204 75 _c
221 65 242 60 268 60 _c
298 60 324 68 345 85 _c
366 101 379 127 385 163 _c
474 157 _l
470 135 464 114 454 94 _c
444 74 431 56 415 41 _c
398 25 377 13 353 4 _c
329 -4 301 -9 270 -9 _c
228 -9 193 -2 164 11 _c
135 25 112 44 94 69 _c
}_e{76 93 62 122 54 156 _c
46 189 42 225 42 265 _c
42 300 45 331 51 358 _c
57 385 65 409 76 429 _c
86 449 99 467 113 481 _c
127 495 143 506 160 514 _c
176 522 194 528 213 532 _c
231 536 250 538 269 538 _c
298 538 324 534 348 526 _c
371 518 391 506 408 492 _c
424 478 438 461 448 442 _c
458 423 466 402 471 380 _c
380 374 _l
376 402 364 425 346 443 _c
}_e{327 460 301 469 267 469 _c
241 469 220 464 204 456 _c
187 448 173 435 163 419 _c
152 402 144 381 140 356 _c
136 330 134 301 134 267 _c
_cl}_e}_d
/e{{556 0 42 -9 512 538 _sc
135 246 _m
135 218 137 192 143 169 _c
149 145 158 125 170 109 _c
182 92 197 79 215 70 _c
233 60 256 56 282 56 _c
320 56 350 63 373 79 _c
396 94 412 113 420 137 _c
498 115 _l
492 100 484 85 474 71 _c
464 56 450 43 434 31 _c
418 19 397 9 372 2 _c
347 -5 317 -9 282 -9 _c
204 -9 144 14 103 60 _c
62 106 42 176 42 268 _c
}_e{42 317 48 359 61 393 _c
73 427 90 455 112 477 _c
133 498 158 513 187 523 _c
215 533 246 538 279 538 _c
323 538 360 530 390 516 _c
420 502 444 482 462 457 _c
480 431 492 402 500 368 _c
508 334 512 297 512 257 _c
512 246 _l
135 246 _l
421 313 _m
416 368 402 408 378 434 _c
354 460 321 473 277 473 _c
262 473 247 470 231 466 _c
215 461 200 453 186 441 _c
}_e{172 429 161 412 152 392 _c
142 371 137 345 136 313 _c
421 313 _l
_cl}_e}_d
/f{{278 0 14 0 279 724 _sc
176 464 _m
176 0 _l
88 0 _l
88 464 _l
14 464 _l
14 528 _l
88 528 _l
88 588 _l
88 607 89 625 93 641 _c
97 657 103 672 113 684 _c
123 696 136 706 153 713 _c
169 720 191 724 217 724 _c
227 724 238 723 250 722 _c
261 721 271 720 279 718 _c
279 651 _l
273 651 267 652 260 653 _c
252 654 246 655 240 655 _c
227 655 216 653 208 649 _c
}_e{200 645 193 640 189 634 _c
184 627 181 619 179 609 _c
177 599 176 588 176 576 _c
176 528 _l
279 528 _l
279 464 _l
176 464 _l
_cl}_e}_d
/g{{556 0 42 -207 492 537 _sc
268 -207 _m
237 -207 210 -203 187 -197 _c
163 -191 143 -182 127 -170 _c
110 -158 96 -145 86 -129 _c
76 -113 68 -95 64 -76 _c
152 -63 _l
158 -87 171 -106 191 -120 _c
211 -133 237 -140 270 -140 _c
290 -140 308 -137 324 -131 _c
340 -125 354 -116 366 -104 _c
377 -92 386 -76 392 -57 _c
398 -37 401 -14 401 13 _c
401 98 _l
400 98 _l
394 84 386 72 376 60 _c
}_e{366 48 355 37 341 27 _c
327 17 311 10 293 5 _c
275 0 254 -3 230 -3 _c
196 -3 168 2 144 13 _c
120 24 100 41 85 63 _c
70 85 59 113 52 147 _c
45 180 42 219 42 263 _c
42 305 45 343 52 377 _c
59 411 70 439 86 463 _c
102 487 122 505 148 518 _c
173 530 204 537 240 537 _c
277 537 309 528 337 511 _c
365 493 386 469 401 438 _c
402 438 _l
}_e{402 446 402 455 403 465 _c
403 475 404 484 404 493 _c
404 502 405 510 406 517 _c
406 523 407 527 408 528 _c
492 528 _l
491 525 490 520 490 513 _c
490 506 489 498 489 488 _c
489 478 489 468 489 456 _c
489 444 489 431 489 419 _c
489 15 _l
489 -58 470 -113 434 -151 _c
398 -188 342 -207 268 -207 _c
401 264 _m
401 300 397 332 389 358 _c
381 384 370 406 357 423 _c
}_e{344 439 329 451 313 459 _c
296 467 279 471 262 471 _c
239 471 220 467 204 459 _c
188 451 174 439 164 422 _c
153 405 145 384 140 358 _c
135 332 133 300 133 264 _c
133 226 135 194 140 168 _c
145 142 153 121 163 105 _c
173 89 187 78 203 71 _c
219 64 238 61 260 61 _c
278 61 295 64 312 72 _c
328 79 343 91 357 107 _c
370 123 381 144 389 170 _c
}_e{397 196 401 227 401 264 _c
_cl}_e}_d
/m{{833 0 66 0 767 538 _sc
375 0 _m
375 335 _l
375 361 373 382 370 399 _c
366 416 361 430 353 441 _c
345 451 335 459 323 463 _c
311 467 296 470 278 470 _c
259 470 242 466 228 459 _c
213 451 200 441 190 427 _c
179 413 171 396 165 376 _c
159 356 157 332 157 306 _c
157 0 _l
69 0 _l
69 416 _l
69 426 69 438 69 450 _c
69 462 68 474 68 485 _c
68 495 67 505 67 513 _c
}_e{67 521 66 526 66 528 _c
149 528 _l
149 526 150 522 150 515 _c
150 507 151 499 151 490 _c
151 481 152 472 152 462 _c
152 452 153 444 153 438 _c
155 438 _l
163 453 171 467 180 479 _c
189 491 200 502 212 511 _c
224 519 238 526 254 531 _c
270 535 288 538 309 538 _c
349 538 380 530 404 514 _c
427 498 443 472 453 438 _c
454 438 _l
462 453 470 467 480 479 _c
}_e{490 491 501 502 514 511 _c
527 519 542 526 558 531 _c
574 535 593 538 614 538 _c
640 538 663 534 683 527 _c
702 520 718 509 731 494 _c
743 479 752 460 758 436 _c
764 412 767 384 767 352 _c
767 0 _l
680 0 _l
680 335 _l
680 361 678 382 675 399 _c
671 416 666 430 658 441 _c
650 451 640 459 628 463 _c
616 467 601 470 583 470 _c
565 470 548 466 533 459 _c
}_e{518 452 505 442 495 428 _c
484 414 476 397 470 377 _c
464 357 462 333 462 306 _c
462 0 _l
375 0 _l
_cl}_e}_d
/n{{556 0 66 0 491 538 _sc
403 0 _m
403 335 _l
403 361 401 382 397 399 _c
393 416 387 430 379 441 _c
370 451 359 459 345 463 _c
331 467 314 470 294 470 _c
273 470 254 466 237 459 _c
220 451 206 441 194 427 _c
182 413 173 396 167 376 _c
160 356 157 332 157 306 _c
157 0 _l
69 0 _l
69 416 _l
69 426 69 438 69 450 _c
69 462 68 474 68 485 _c
68 495 67 505 67 513 _c
}_e{67 521 66 526 66 528 _c
149 528 _l
149 526 150 522 150 515 _c
150 507 151 499 151 490 _c
151 481 152 472 152 462 _c
152 452 153 444 153 438 _c
155 438 _l
163 453 172 467 182 479 _c
192 491 204 502 218 511 _c
231 519 246 526 264 531 _c
281 535 301 538 324 538 _c
353 538 378 534 399 527 _c
420 520 437 509 451 494 _c
465 479 475 460 481 436 _c
487 412 491 384 491 352 _c
}_e{491 0 _l
403 0 _l
_cl}_e}_d
/o{{556 0 42 -9 514 538 _sc
514 265 _m
514 172 493 103 453 58 _c
412 13 353 -9 276 -9 _c
239 -9 206 -3 177 7 _c
148 17 124 34 104 57 _c
84 80 68 109 58 143 _c
47 177 42 218 42 265 _c
42 447 121 538 279 538 _c
319 538 355 532 385 521 _c
415 509 439 492 458 470 _c
477 447 491 418 500 384 _c
509 350 514 310 514 265 _c
422 265 _m
422 305 418 339 412 366 _c
}_e{406 392 396 414 384 430 _c
372 446 357 457 339 463 _c
321 469 302 473 280 473 _c
258 473 237 469 219 463 _c
201 456 185 445 173 429 _c
160 413 150 391 144 365 _c
137 338 134 305 134 265 _c
134 223 137 189 145 163 _c
152 136 162 115 174 99 _c
186 83 201 71 219 65 _c
236 58 255 55 275 55 _c
297 55 318 58 336 64 _c
354 70 369 82 382 98 _c
}_e{394 114 404 135 411 162 _c
418 189 422 223 422 265 _c
_cl}_e}_d
/p{{556 0 64 -207 514 538 _sc
514 267 _m
514 227 510 190 504 156 _c
498 122 487 92 472 68 _c
456 44 436 25 412 11 _c
387 -2 356 -9 320 -9 _c
282 -9 248 -2 220 12 _c
192 26 170 49 156 82 _c
153 82 _l
153 81 154 78 154 73 _c
154 67 154 61 154 53 _c
154 45 155 37 155 27 _c
155 17 155 8 155 0 _c
155 -207 _l
67 -207 _l
67 420 _l
67 432 67 445 67 457 _c
}_e{67 469 66 479 66 489 _c
66 498 65 506 65 513 _c
65 520 64 525 64 528 _c
149 528 _l
149 527 150 524 150 518 _c
150 512 151 504 152 496 _c
152 488 153 479 153 470 _c
153 460 154 451 154 443 _c
156 443 _l
164 460 173 474 184 486 _c
194 498 206 507 220 515 _c
233 523 248 528 264 532 _c
280 536 299 538 320 538 _c
356 538 387 531 412 518 _c
436 505 456 487 472 463 _c
}_e{487 439 498 411 504 378 _c
510 344 514 307 514 267 _c
422 265 _m
422 297 420 325 416 351 _c
412 377 405 398 395 416 _c
385 433 373 446 357 456 _c
341 465 321 470 297 470 _c
277 470 259 467 242 461 _c
224 455 209 445 197 429 _c
184 413 174 392 166 365 _c
158 337 155 302 155 258 _c
155 220 158 189 164 163 _c
170 137 179 116 191 100 _c
203 84 217 72 235 65 _c
}_e{253 58 273 55 296 55 _c
320 55 341 59 357 69 _c
373 78 385 92 395 110 _c
405 128 412 150 416 176 _c
420 202 422 231 422 265 _c
_cl}_e}_d
/s{{500 0 28 -9 464 537 _sc
464 146 _m
464 121 459 99 449 80 _c
439 60 425 44 407 31 _c
389 17 366 7 340 1 _c
314 -5 284 -9 250 -9 _c
219 -9 191 -6 167 -2 _c
142 2 120 9 102 20 _c
83 30 67 44 55 61 _c
43 78 34 99 28 124 _c
105 139 _l
113 111 128 90 152 77 _c
175 63 208 57 250 57 _c
268 57 285 58 301 61 _c
317 63 330 68 342 74 _c
}_e{353 80 362 89 368 100 _c
374 110 378 123 378 139 _c
378 155 374 168 367 178 _c
359 188 349 197 336 204 _c
322 210 306 216 287 221 _c
268 226 247 232 225 239 _c
203 244 182 250 161 257 _c
140 264 121 273 105 284 _c
88 295 74 309 64 326 _c
54 342 49 363 49 389 _c
49 437 66 473 100 499 _c
134 524 184 537 250 537 _c
308 537 355 526 389 506 _c
}_e{423 485 445 452 455 407 _c
375 397 _l
372 411 367 422 359 432 _c
351 441 342 448 331 454 _c
319 460 307 464 293 466 _c
279 468 265 470 250 470 _c
210 470 181 464 162 452 _c
143 440 134 421 134 397 _c
134 383 137 371 144 362 _c
151 352 161 344 174 338 _c
186 332 201 326 219 322 _c
237 317 256 312 277 307 _c
291 303 305 300 320 296 _c
334 292 349 287 363 281 _c
}_e{377 275 390 268 402 261 _c
414 253 424 244 434 233 _c
443 222 450 209 456 195 _c
461 181 464 164 464 146 _c
_cl}_e}_d
/t{278 0 15 -7 271 646 _sc
271 4 _m
257 1 243 -1 229 -3 _c
215 -5 200 -7 182 -7 _c
111 -7 76 32 76 112 _c
76 464 _l
15 464 _l
15 528 _l
80 528 _l
105 646 _l
164 646 _l
164 528 _l
262 528 _l
262 464 _l
164 464 _l
164 131 _l
164 105 168 87 176 77 _c
184 67 199 62 220 62 _c
228 62 236 62 244 64 _c
252 65 261 67 271 69 _c
271 4 _l
_cl}_d
end readonly def

/BuildGlyph
 {exch begin
 CharStrings exch
 2 copy known not{pop /.notdef}if
 true 3 1 roll get exec
 end}_d

/BuildChar {
 1 index /Encoding get exch get
 1 index /BuildGlyph get exec
}_d

FontName currentdict end definefont pop
%!PS-Adobe-3.0 Resource-Font
%%Title: cmmi10
%%Copyright: Copyright (C) 1994, Basil K. Malyshev. All Rights Reserved.012BaKoMa Fonts Collection, Level-B.
%%Creator: Converted from TrueType to type 3 by PPR
25 dict begin
/_d{bind def}bind def
/_m{moveto}_d
/_l{lineto}_d
/_cl{closepath eofill}_d
/_c{curveto}_d
/_sc{7 -1 roll{setcachedevice}{pop pop pop pop pop pop}ifelse}_d
/_e{exec}_d
/FontName /Cmmi10 def
/PaintType 0 def
/FontMatrix[.001 0 0 .001 0 0]def
/FontBBox[-34 -250 1048 750]def
/FontType 3 def
/Encoding [ /m /d /R /n /c /p ] def
/FontInfo 10 dict dup begin
/FamilyName (cmmi10) def
/FullName (cmmi10) def
/Notice (Copyright (C) 1994, Basil K. Malyshev. All Rights Reserved.012BaKoMa Fonts Collection, Level-B. ) def
/Weight (Regular) def
/Version (1.1/12-Nov-94) def
/ItalicAngle 0.0 def
/isFixedPitch false def
/UnderlinePosition -133 def
/UnderlineThickness 20 def
end readonly def
/CharStrings 6 dict dup begin
/m{{878 0 27 -10 851 442 _sc
77 17 _m
77 21 77 24 78 26 _c
153 324 _l
157 342 160 359 160 373 _c
160 401 150 416 131 416 _c
110 416 94 403 84 378 _c
74 353 64 322 55 284 _c
55 282 54 280 52 279 _c
50 278 48 278 47 278 _c
35 278 _l
33 278 31 279 29 281 _c
27 283 27 286 27 288 _c
34 317 41 342 48 362 _c
54 382 65 400 79 417 _c
}_e{93 433 110 442 132 442 _c
156 442 178 434 198 418 _c
217 402 227 382 227 358 _c
247 384 270 404 297 419 _c
323 434 352 442 382 442 _c
413 442 440 434 463 418 _c
486 402 498 379 498 349 _c
518 378 542 401 570 417 _c
597 433 627 442 660 442 _c
694 442 722 432 743 414 _c
764 395 775 368 775 334 _c
775 306 768 273 756 235 _c
744 196 729 153 711 105 _c
}_e{701 81 697 61 697 45 _c
697 25 704 15 720 15 _c
746 15 767 29 785 57 _c
802 85 814 115 822 147 _c
824 151 826 153 830 153 _c
842 153 _l
844 153 846 152 848 150 _c
850 148 851 146 851 144 _c
851 143 850 142 850 141 _c
840 103 824 68 802 37 _c
780 5 752 -10 718 -10 _c
694 -10 674 -2 658 13 _c
641 29 633 48 633 72 _c
633 83 635 96 641 111 _c
}_e{659 161 675 205 688 245 _c
700 284 707 319 707 349 _c
707 367 703 383 696 396 _c
688 409 676 416 658 416 _c
622 416 590 404 563 382 _c
536 360 513 330 494 294 _c
492 287 491 282 491 279 _c
427 22 _l
424 12 419 5 411 -1 _c
403 -7 394 -10 385 -10 _c
377 -10 370 -7 364 -3 _c
358 1 355 8 355 17 _c
355 21 355 24 356 26 _c
420 281 _l
426 308 430 331 430 349 _c
}_e{430 367 426 383 418 396 _c
410 409 398 416 380 416 _c
355 416 332 410 312 400 _c
292 389 274 375 259 357 _c
243 339 229 318 217 294 _c
149 22 _l
147 12 142 5 134 -1 _c
126 -7 117 -10 107 -10 _c
99 -10 92 -7 86 -3 _c
80 1 77 8 77 17 _c
_cl}_e}_d
/d{{520 0 38 -10 519 694 _sc
174 -10 _m
132 -10 98 5 74 37 _c
50 68 38 105 38 149 _c
38 191 49 236 71 282 _c
93 328 122 366 160 396 _c
198 426 238 442 282 442 _c
302 442 319 436 335 425 _c
351 414 363 400 372 382 _c
428 605 _l
430 616 432 625 433 632 _c
433 642 411 648 368 648 _c
361 648 358 652 358 661 _c
358 663 358 666 360 670 _c
361 674 362 677 364 679 _c
}_e{366 681 368 683 372 683 _c
507 694 _l
515 694 519 689 519 681 _c
375 106 _l
370 94 368 78 368 58 _c
368 29 377 15 397 15 _c
417 15 433 28 444 55 _c
455 81 464 112 472 147 _c
473 151 476 153 480 153 _c
492 153 _l
494 153 496 151 498 149 _c
500 147 501 145 501 143 _c
489 96 476 59 462 31 _c
448 3 426 -10 395 -10 _c
372 -10 352 -3 335 9 _c
}_e{318 21 307 39 303 61 _c
260 13 217 -10 174 -10 _c
175 15 _m
199 15 222 24 245 42 _c
267 60 287 81 303 106 _c
303 106 304 108 304 110 _c
359 330 _l
355 353 346 373 333 390 _c
319 407 302 416 280 416 _c
257 416 236 406 217 388 _c
197 370 181 348 168 323 _c
154 296 142 259 130 213 _c
118 167 113 131 113 105 _c
113 81 118 60 128 42 _c
138 24 153 15 175 15 _c
}_e{_cl}_e}_d
/R{{759 0 39 -21 755 683 _sc
49 0 _m
42 0 39 4 39 13 _c
39 15 40 18 41 22 _c
41 26 43 29 45 31 _c
47 33 49 35 52 35 _c
92 35 121 37 137 42 _c
145 44 152 53 156 69 _c
293 618 _l
294 624 295 629 295 632 _c
295 639 291 643 283 644 _c
270 646 246 648 211 648 _c
204 648 201 652 201 661 _c
201 663 202 666 203 670 _c
204 674 205 677 207 679 _c
}_e{209 681 211 683 214 683 _c
517 683 _l
541 683 566 680 592 675 _c
618 669 642 661 664 649 _c
686 637 704 621 718 601 _c
732 581 739 558 739 532 _c
739 498 727 468 705 442 _c
683 416 655 394 621 376 _c
587 358 555 346 523 339 _c
549 329 570 314 587 294 _c
603 273 612 249 612 222 _c
612 218 611 216 611 214 _c
611 212 611 210 611 208 _c
603 119 _l
602 106 601 95 601 86 _c
}_e{600 76 600 69 600 64 _c
600 46 602 31 608 20 _c
613 9 624 4 640 4 _c
660 4 679 13 695 33 _c
711 52 721 73 726 96 _c
728 102 732 105 736 105 _c
745 105 _l
751 105 755 100 755 92 _c
750 72 742 54 732 37 _c
721 19 707 5 691 -5 _c
675 -15 657 -21 639 -21 _c
600 -21 567 -12 539 4 _c
511 21 498 48 498 86 _c
498 100 499 112 502 123 _c
524 212 _l
}_e{526 220 528 229 528 240 _c
528 268 518 289 500 305 _c
481 321 457 329 429 329 _c
306 329 _l
240 65 _l
238 59 238 55 238 51 _c
238 44 242 40 250 39 _c
262 36 286 35 322 35 _c
328 35 332 30 332 22 _c
330 12 328 6 327 4 _c
325 1 321 0 315 0 _c
49 0 _l
312 355 _m
423 355 _l
495 355 550 373 587 410 _c
603 427 617 449 627 475 _c
}_e{637 501 642 527 642 553 _c
642 577 634 597 620 611 _c
606 625 588 634 567 640 _c
545 645 522 648 496 648 _c
429 648 _l
411 648 399 646 393 643 _c
387 640 381 630 377 614 _c
312 355 _l
_cl}_e}_d
/n{{600 0 27 -10 574 442 _sc
77 17 _m
77 21 77 24 78 26 _c
153 324 _l
157 342 160 359 160 373 _c
160 401 150 416 131 416 _c
110 416 94 403 84 378 _c
74 353 64 322 55 284 _c
55 282 54 280 52 279 _c
50 278 48 278 47 278 _c
35 278 _l
33 278 31 279 29 281 _c
27 283 27 286 27 288 _c
34 317 41 342 48 362 _c
54 382 65 400 79 417 _c
}_e{93 433 110 442 132 442 _c
156 442 178 434 198 418 _c
217 402 227 382 227 358 _c
247 384 270 404 297 419 _c
323 434 352 442 382 442 _c
405 442 425 437 443 429 _c
460 421 473 408 483 392 _c
493 376 498 356 498 334 _c
498 306 491 273 479 235 _c
467 196 452 153 434 105 _c
424 83 420 63 420 45 _c
420 25 427 15 443 15 _c
469 15 490 29 508 57 _c
}_e{525 85 537 115 545 147 _c
546 151 549 153 553 153 _c
565 153 _l
567 153 569 152 571 150 _c
573 148 574 146 574 144 _c
574 143 573 142 573 141 _c
564 103 548 68 526 37 _c
503 5 475 -10 441 -10 _c
417 -10 397 -2 381 13 _c
364 29 356 48 356 72 _c
356 84 358 97 364 111 _c
372 133 381 159 392 189 _c
403 219 412 247 419 275 _c
426 303 430 327 430 349 _c
}_e{430 367 426 383 418 396 _c
410 409 398 416 380 416 _c
355 416 332 410 312 400 _c
292 389 274 375 259 357 _c
243 339 229 318 217 294 _c
149 22 _l
147 12 142 5 134 -1 _c
126 -7 117 -10 107 -10 _c
99 -10 92 -7 86 -3 _c
80 1 77 8 77 17 _c
_cl}_e}_d
/c{{432 0 40 -10 430 442 _sc
117 119 _m
117 90 124 65 139 45 _c
154 25 175 15 203 15 _c
243 15 281 24 318 42 _c
354 60 384 86 407 118 _c
409 120 411 121 415 121 _c
418 121 421 119 425 115 _c
428 111 430 108 430 105 _c
430 102 429 100 428 99 _c
404 65 371 38 330 19 _c
288 0 245 -10 201 -10 _c
169 -10 140 -2 116 12 _c
92 26 73 46 60 72 _c
}_e{46 97 40 126 40 158 _c
40 203 52 248 77 292 _c
102 336 135 372 177 400 _c
219 428 263 442 309 442 _c
339 442 366 434 390 420 _c
414 405 426 384 426 356 _c
426 338 420 322 410 309 _c
399 296 385 290 367 290 _c
356 290 347 293 340 300 _c
332 306 329 315 329 326 _c
329 342 334 355 346 366 _c
357 377 370 383 386 383 _c
388 383 _l
380 394 368 402 354 408 _c
}_e{339 413 324 416 308 416 _c
269 416 235 399 206 366 _c
176 332 154 292 139 246 _c
124 200 117 157 117 119 _c
_cl}_e}_d
/p{{503 0 -33 -193 491 442 _sc
-24 -193 _m
-30 -193 -33 -188 -33 -180 _c
-31 -165 -26 -158 -20 -158 _c
0 -158 14 -156 22 -152 _c
30 -148 37 -139 42 -124 _c
155 325 _l
159 337 162 353 162 373 _c
162 401 152 416 133 416 _c
112 416 96 403 86 378 _c
76 353 66 322 57 284 _c
57 280 54 278 49 278 _c
37 278 _l
35 278 34 279 32 281 _c
30 283 29 286 29 288 _c
}_e{36 317 43 342 50 362 _c
56 382 67 400 81 417 _c
95 433 112 442 134 442 _c
156 442 176 435 194 422 _c
211 409 222 392 227 370 _c
245 391 265 408 287 422 _c
309 435 332 442 356 442 _c
384 442 408 434 429 419 _c
449 404 465 384 475 360 _c
485 336 491 310 491 282 _c
491 239 480 195 458 149 _c
436 103 406 65 369 35 _c
331 5 291 -10 248 -10 _c
}_e{228 -10 211 -4 195 6 _c
179 16 166 31 158 49 _c
113 -128 _l
111 -138 110 -143 110 -145 _c
110 -153 132 -158 176 -158 _c
182 -158 186 -162 186 -171 _c
184 -179 182 -185 180 -188 _c
178 -191 175 -193 169 -193 _c
-24 -193 _l
249 15 _m
272 15 293 24 313 43 _c
333 62 349 84 362 108 _c
370 126 379 147 387 173 _c
395 199 402 226 408 256 _c
414 285 417 308 417 326 _c
}_e{417 341 415 355 411 369 _c
407 382 400 393 391 402 _c
381 411 369 416 354 416 _c
329 416 306 407 284 390 _c
262 372 243 351 226 325 _c
226 322 _l
171 101 _l
175 77 184 56 197 40 _c
210 23 227 15 249 15 _c
_cl}_e}_d
end readonly def

/BuildGlyph
 {exch begin
 CharStrings exch
 2 copy known not{pop /.notdef}if
 true 3 1 roll get exec
 end}_d

/BuildChar {
 1 index /Encoding get exch get
 1 index /BuildGlyph get exec
}_d

FontName currentdict end definefont pop
end
%%EndProlog
mpldict begin
-528.75 -63.9 translate
1669.5 919.8 0 0 clipbox
gsave
0 0 m
1669.5 0 l
1669.5 919.8 l
0 919.8 l
cl
1.000 setgray
fill
grestore
gsave
208.688 493.347 m
796.807 493.347 l
796.807 827.82 l
208.688 827.82 l
cl
0.918 0.918 0.949 setrgbcolor
fill
grestore
0.300 setlinewidth
1 setlinejoin
0 setlinecap
[] 0 setdash
0.950 setgray
gsave
286.652 567.254 m
454.975 649.259 l
452.172 805.957 l
274.464 732.278 l
gsave
fill
grestore
stroke
grestore
0.900 setgray
gsave
454.975 649.259 m
727.642 603.413 l
739.05 764.836 l
452.172 805.957 l
gsave
fill
grestore
stroke
grestore
0.925 setgray
gsave
286.652 567.254 m
573.534 513.859 l
727.642 603.413 l
454.975 649.259 l
gsave
fill
grestore
stroke
grestore
0.750 setlinewidth
1 setlinecap
0.000 setgray
gsave
286.652 567.254 m
573.534 513.859 l
stroke
grestore
0.150 setgray
gsave
366.615035 513.159909 translate
349.456608 rotate
/LiberationSans findfont
11.0 scalefont
setfont
0.000000 0.031250 moveto
/N glyphshow

7.943848 0.031250 moveto
/o glyphshow

14.061523 0.031250 moveto
/period glyphshow

17.117676 0.031250 moveto
/uni00A0 glyphshow

20.173828 0.031250 moveto
/o glyphshow

26.291504 0.031250 moveto
/f glyphshow

29.347656 0.031250 moveto
/uni00A0 glyphshow

32.403809 0.031250 moveto
/R glyphshow

40.347656 0.031250 moveto
/o glyphshow

46.465332 0.031250 moveto
/b glyphshow

52.583008 0.031250 moveto
/o glyphshow

58.700684 0.031250 moveto
/t glyphshow

61.756836 0.031250 moveto
/s glyphshow

67.256836 0.031250 moveto
/uni00A0 glyphshow

/Cmmi10 findfont
11.0 scalefont
setfont
70.312988 0.031250 moveto
/n glyphshow


grestore
/p0_0 {
newpath
translate
292.138 566.233 m
460.206 648.379 l
457.665 805.17 l
} bind def
/p0_1 {
newpath
translate
325.262 560.068 m
491.779 643.071 l
490.821 800.417 l
} bind def
/p0_2 {
newpath
translate
358.746 553.836 m
523.669 637.709 l
524.329 795.615 l
} bind def
/p0_3 {
newpath
translate
392.595 547.536 m
555.881 632.293 l
558.192 790.761 l
} bind def
/p0_4 {
newpath
translate
426.815 541.166 m
588.421 626.821 l
592.418 785.855 l
} bind def
/p0_5 {
newpath
translate
461.413 534.727 m
621.294 621.294 l
627.011 780.896 l
} bind def
/p0_6 {
newpath
translate
496.395 528.216 m
654.504 615.71 l
661.978 775.884 l
} bind def
/p0_7 {
newpath
translate
531.766 521.633 m
688.057 610.069 l
697.324 770.817 l
} bind def
/p0_8 {
newpath
translate
567.534 514.975 m
721.957 604.369 l
733.056 765.696 l
} bind def
1.750 setlinewidth
0 setlinecap
0.900 setgray
gsave
0 0 p0_0
stroke
grestore
gsave
0 0 p0_1
stroke
grestore
gsave
0 0 p0_2
stroke
grestore
gsave
0 0 p0_3
stroke
grestore
gsave
0 0 p0_4
stroke
grestore
gsave
0 0 p0_5
stroke
grestore
gsave
0 0 p0_6
stroke
grestore
gsave
0 0 p0_7
stroke
grestore
gsave
0 0 p0_8
stroke
grestore
1.000 setlinewidth
1 setlinecap
1.000 setgray
gsave
588.1 334.5 208.7 493.3 clipbox
510.695 665.104 m
stroke
grestore
1.750 setlinewidth
0.150 setgray
gsave
293.586 566.94 m
289.237 564.815 l
stroke
grestore
/LiberationSans findfont
10.000 scalefont
setfont
gsave
280.248227 545.237020 translate
0.000000 rotate
0.000000 0.000000 m /five glyphshow
grestore
1.000 setlinewidth
1.000 setgray
gsave
588.1 334.5 208.7 493.3 clipbox
510.695 665.104 m
stroke
grestore
1.750 setlinewidth
0.150 setgray
gsave
326.697 560.783 m
322.387 558.634 l
stroke
grestore
gsave
310.752208 538.988578 translate
0.000000 rotate
0.000000 0.000000 m /one glyphshow
5.561523 0.000000 m /zero glyphshow
grestore
1.000 setlinewidth
1.000 setgray
gsave
588.1 334.5 208.7 493.3 clipbox
510.695 665.104 m
stroke
grestore
1.750 setlinewidth
0.150 setgray
gsave
360.168 554.559 m
355.897 552.387 l
stroke
grestore
gsave
344.248863 532.672246 translate
0.000000 rotate
0.000000 0.000000 m /one glyphshow
5.561523 0.000000 m /five glyphshow
grestore
1.000 setlinewidth
1.000 setgray
gsave
588.1 334.5 208.7 493.3 clipbox
510.695 665.104 m
stroke
grestore
1.750 setlinewidth
0.150 setgray
gsave
394.003 548.266 m
389.773 546.071 l
stroke
grestore
gsave
377.947214 526.286913 translate
0.000000 rotate
0.000000 0.000000 m /two glyphshow
5.561523 0.000000 m /zero glyphshow
grestore
1.000 setlinewidth
1.000 setgray
gsave
588.1 334.5 208.7 493.3 clipbox
510.695 665.104 m
stroke
grestore
1.750 setlinewidth
0.150 setgray
gsave
428.21 541.905 m
424.022 539.686 l
stroke
grestore
gsave
412.181413 519.831441 translate
0.000000 rotate
0.000000 0.000000 m /two glyphshow
5.561523 0.000000 m /five glyphshow
grestore
1.000 setlinewidth
1.000 setgray
gsave
588.1 334.5 208.7 493.3 clipbox
510.695 665.104 m
stroke
grestore
1.750 setlinewidth
0.150 setgray
gsave
462.793 535.474 m
458.648 533.23 l
stroke
grestore
gsave
446.699807 513.304668 translate
0.000000 rotate
0.000000 0.000000 m /three glyphshow
5.561523 0.000000 m /zero glyphshow
grestore
1.000 setlinewidth
1.000 setgray
gsave
588.1 334.5 208.7 493.3 clipbox
510.695 665.104 m
stroke
grestore
1.750 setlinewidth
0.150 setgray
gsave
497.76 528.972 m
493.659 526.702 l
stroke
grestore
gsave
481.696193 506.705406 translate
0.000000 rotate
0.000000 0.000000 m /three glyphshow
5.561523 0.000000 m /five glyphshow
grestore
1.000 setlinewidth
1.000 setgray
gsave
588.1 334.5 208.7 493.3 clipbox
510.695 665.104 m
stroke
grestore
1.750 setlinewidth
0.150 setgray
gsave
533.116 522.397 m
529.061 520.102 l
stroke
grestore
gsave
516.981694 500.032441 translate
0.000000 rotate
0.000000 0.000000 m /four glyphshow
5.561523 0.000000 m /zero glyphshow
grestore
1.000 setlinewidth
1.000 setgray
gsave
588.1 334.5 208.7 493.3 clipbox
510.695 665.104 m
stroke
grestore
1.750 setlinewidth
0.150 setgray
gsave
568.869 515.748 m
564.86 513.427 l
stroke
grestore
gsave
552.766018 493.284531 translate
0.000000 rotate
0.000000 0.000000 m /four glyphshow
5.561523 0.000000 m /five glyphshow
grestore
0.750 setlinewidth
0.000 setgray
gsave
727.642 603.413 m
573.534 513.859 l
stroke
grestore
0.150 setgray
gsave
656.680178 511.427104 translate
30.161580 rotate
/LiberationSans findfont
11.0 scalefont
setfont
0.000000 0.312500 moveto
/C glyphshow

7.943848 0.312500 moveto
/o glyphshow

14.061523 0.312500 moveto
/m glyphshow

23.224609 0.312500 moveto
/m glyphshow

32.387695 0.312500 moveto
/period glyphshow

35.443848 0.312500 moveto
/uni00A0 glyphshow

38.500000 0.312500 moveto
/R glyphshow

46.443848 0.312500 moveto
/a glyphshow

52.561523 0.312500 moveto
/n glyphshow

58.679199 0.312500 moveto
/g glyphshow

64.796875 0.312500 moveto
/e glyphshow

70.914551 0.312500 moveto
/uni00A0 glyphshow

/Cmmi10 findfont
11.0 scalefont
setfont
73.970703 0.312500 moveto
/d glyphshow


grestore
/p1_0 {
newpath
translate
278.302 733.869 m
290.273 569.018 l
576.861 515.792 l
} bind def
/p1_1 {
newpath
translate
323.4 752.567 m
332.873 589.772 l
615.955 538.51 l
} bind def
/p1_2 {
newpath
translate
366.801 770.562 m
373.948 609.784 l
653.588 560.379 l
} bind def
/p1_3 {
newpath
translate
408.599 787.892 m
413.581 629.093 l
689.84 581.446 l
} bind def
/p1_4 {
newpath
translate
448.881 804.593 m
451.845 647.735 l
724.786 601.754 l
} bind def
1.750 setlinewidth
0 setlinecap
0.900 setgray
gsave
0 0 p1_0
stroke
grestore
gsave
0 0 p1_1
stroke
grestore
gsave
0 0 p1_2
stroke
grestore
gsave
0 0 p1_3
stroke
grestore
gsave
0 0 p1_4
stroke
grestore
1.000 setlinewidth
1 setlinecap
1.000 setgray
gsave
588.1 334.5 208.7 493.3 clipbox
510.695 665.104 m
stroke
grestore
1.750 setlinewidth
0.150 setgray
gsave
574.462 516.237 m
581.664 514.9 l
stroke
grestore
gsave
591.062102 496.422478 translate
0.000000 rotate
0.000000 0.000000 m /zero glyphshow
grestore
1.000 setlinewidth
1.000 setgray
gsave
588.1 334.5 208.7 493.3 clipbox
510.695 665.104 m
stroke
grestore
1.750 setlinewidth
0.150 setgray
gsave
613.587 538.938 m
620.695 537.651 l
stroke
grestore
gsave
627.051154 519.362180 translate
0.000000 rotate
0.000000 0.000000 m /five glyphshow
5.561523 0.000000 m /zero glyphshow
grestore
1.000 setlinewidth
1.000 setgray
gsave
588.1 334.5 208.7 493.3 clipbox
510.695 665.104 m
stroke
grestore
1.750 setlinewidth
0.150 setgray
gsave
651.251 560.792 m
658.266 559.552 l
stroke
grestore
gsave
661.764105 541.444967 translate
0.000000 rotate
0.000000 0.000000 m /one glyphshow
5.561523 0.000000 m /zero glyphshow
11.123047 0.000000 m /zero glyphshow
grestore
1.000 setlinewidth
1.000 setgray
gsave
588.1 334.5 208.7 493.3 clipbox
510.695 665.104 m
stroke
grestore
1.750 setlinewidth
0.150 setgray
gsave
687.533 581.843 m
694.458 580.649 l
stroke
grestore
gsave
697.710290 562.717975 translate
0.000000 rotate
0.000000 0.000000 m /one glyphshow
5.561523 0.000000 m /five glyphshow
11.123047 0.000000 m /zero glyphshow
grestore
1.000 setlinewidth
1.000 setgray
gsave
588.1 334.5 208.7 493.3 clipbox
510.695 665.104 m
stroke
grestore
1.750 setlinewidth
0.150 setgray
gsave
722.509 602.137 m
729.346 600.985 l
stroke
grestore
gsave
732.229243 583.224944 translate
0.000000 rotate
0.000000 0.000000 m /two glyphshow
5.561523 0.000000 m /zero glyphshow
11.123047 0.000000 m /zero glyphshow
grestore
0.750 setlinewidth
0.000 setgray
gsave
727.642 603.413 m
739.05 764.836 l
stroke
grestore
0.150 setgray
/LiberationSans findfont
11.000 scalefont
setfont
gsave
790.727953 670.366411 translate
85.957534 rotate
0.000000 0.000000 m /c glyphshow
5.500000 0.000000 m /o glyphshow
11.617676 0.000000 m /m glyphshow
20.780762 0.000000 m /p glyphshow
26.898438 0.000000 m /s glyphshow
grestore
/p2_0 {
newpath
translate
727.859 606.483 m
454.921 652.246 l
286.42 570.387 l
} bind def
/p2_1 {
newpath
translate
729.61 631.268 m
454.49 676.348 l
284.552 595.69 l
} bind def
/p2_2 {
newpath
translate
731.39 656.456 m
454.052 700.825 l
282.652 621.417 l
} bind def
/p2_3 {
newpath
translate
733.2 682.057 m
453.608 725.686 l
280.719 647.581 l
} bind def
/p2_4 {
newpath
translate
735.039 708.081 m
453.156 750.941 l
278.754 674.192 l
} bind def
/p2_5 {
newpath
translate
736.909 734.539 m
452.697 776.599 l
276.755 701.261 l
} bind def
/p2_6 {
newpath
translate
738.81 761.442 m
452.231 802.669 l
274.721 728.801 l
} bind def
1.750 setlinewidth
0 setlinecap
0.900 setgray
gsave
0 0 p2_0
stroke
grestore
gsave
0 0 p2_1
stroke
grestore
gsave
0 0 p2_2
stroke
grestore
gsave
0 0 p2_3
stroke
grestore
gsave
0 0 p2_4
stroke
grestore
gsave
0 0 p2_5
stroke
grestore
gsave
0 0 p2_6
stroke
grestore
1.000 setlinewidth
1 setlinecap
1.000 setgray
gsave
510.695 665.104 m
stroke
grestore
1.750 setlinewidth
0.150 setgray
gsave
725.581 606.865 m
732.418 605.719 l
stroke
grestore
/LiberationSans findfont
10.000 scalefont
setfont
gsave
749.362536 601.186993 translate
0.000000 rotate
0.000000 0.000000 m /zero glyphshow
grestore
1.000 setlinewidth
1.000 setgray
gsave
510.695 665.104 m
stroke
grestore
1.750 setlinewidth
0.150 setgray
gsave
727.314 631.644 m
734.208 630.515 l
stroke
grestore
gsave
748.576815 625.943333 translate
0.000000 rotate
0.000000 0.000000 m /two glyphshow
5.561523 0.000000 m /zero glyphshow
grestore
1.000 setlinewidth
1.000 setgray
gsave
510.695 665.104 m
stroke
grestore
1.750 setlinewidth
0.150 setgray
gsave
729.075 656.826 m
736.026 655.714 l
stroke
grestore
gsave
750.416350 651.101552 translate
0.000000 rotate
0.000000 0.000000 m /four glyphshow
5.561523 0.000000 m /zero glyphshow
grestore
1.000 setlinewidth
1.000 setgray
gsave
510.695 665.104 m
stroke
grestore
1.750 setlinewidth
0.150 setgray
gsave
730.865 682.421 m
737.875 681.327 l
stroke
grestore
gsave
752.561603 676.671515 translate
0.000000 rotate
0.000000 0.000000 m /six glyphshow
5.561523 0.000000 m /zero glyphshow
grestore
1.000 setlinewidth
1.000 setgray
gsave
510.695 665.104 m
stroke
grestore
1.750 setlinewidth
0.150 setgray
gsave
732.684 708.439 m
739.754 707.364 l
stroke
grestore
gsave
754.560247 702.663414 translate
0.000000 rotate
0.000000 0.000000 m /eight glyphshow
5.561523 0.000000 m /zero glyphshow
grestore
1.000 setlinewidth
1.000 setgray
gsave
510.695 665.104 m
stroke
grestore
1.750 setlinewidth
0.150 setgray
gsave
734.533 734.891 m
741.665 733.835 l
stroke
grestore
gsave
754.014670 729.087780 translate
0.000000 rotate
0.000000 0.000000 m /one glyphshow
5.561523 0.000000 m /zero glyphshow
11.123047 0.000000 m /zero glyphshow
grestore
1.000 setlinewidth
1.000 setgray
gsave
510.695 665.104 m
stroke
grestore
1.750 setlinewidth
0.150 setgray
gsave
736.414 761.786 m
743.607 760.752 l
stroke
grestore
gsave
756.121039 755.955496 translate
0.000000 rotate
0.000000 0.000000 m /one glyphshow
5.561523 0.000000 m /two glyphshow
11.123047 0.000000 m /zero glyphshow
grestore
/p3_0 {
newpath
translate
379.323 707.52 m
447.249 648.998 l
514.594 614.288 l
582.635 591.133 l
651.893 573.261 l
659.214 576.527 l
666.483 579.887 l
673.697 583.296 l
680.866 586.882 l
687.987 590.556 l
695.058 594.278 l
702.08 598.026 l
709.055 601.844 l
715.98 605.652 l
648.339 618.799 l
582.115 636.516 l
516.993 671.785 l
450.913 775.612 l
443.077 769.718 l
435.207 763.345 l
427.299 756.769 l
419.364 749.602 l
411.393 742.272 l
403.407 734.194 l
395.397 725.741 l
387.368 716.85 l
379.323 707.52 l
cl
} bind def
/p3_1 {
newpath
translate
299.432 579.441 m
366.104 567.026 l
434.233 554.299 l
503.861 541.391 l
575.045 528.153 l
583.16 539.679 l
591.147 547.301 l
599.016 552.374 l
606.784 556.057 l
614.471 559.196 l
622.075 561.81 l
629.621 564.593 l
637.104 567.409 l
644.522 570.172 l
651.893 573.261 l
582.635 591.133 l
514.594 614.288 l
447.249 648.998 l
379.323 707.52 l
371.27 697.649 l
363.216 687.157 l
355.168 675.99 l
347.124 664.305 l
339.099 651.891 l
331.09 638.916 l
323.114 625.14 l
315.177 610.611 l
307.277 595.439 l
299.432 579.441 l
cl
} bind def
0.300 setlinewidth
0 setlinecap
0.000 setgray
gsave
588.1 334.5 208.7 493.3 clipbox
0 0 p3_0
gsave
0.000 0.000 0.500 setrgbcolor
fill
grestore
stroke
grestore
gsave
588.1 334.5 208.7 493.3 clipbox
0 0 p3_1
gsave
0.000 0.000 1.000 setrgbcolor
fill
grestore
stroke
grestore
0.150 setgray
gsave
438.747159 806.062182 translate
0.000000 rotate
/LiberationSans findfont
12.0 scalefont
setfont
0.000000 0.312500 moveto
/N glyphshow

8.666016 0.312500 moveto
/o glyphshow

15.339844 0.312500 moveto
/period glyphshow

18.673828 0.312500 moveto
/uni00A0 glyphshow

22.007812 0.312500 moveto
/o glyphshow

28.681641 0.312500 moveto
/f glyphshow

32.015625 0.312500 moveto
/uni00A0 glyphshow

35.349609 0.312500 moveto
/C glyphshow

44.015625 0.312500 moveto
/o glyphshow

50.689453 0.312500 moveto
/m glyphshow

60.685547 0.312500 moveto
/p glyphshow

67.359375 0.312500 moveto
/s glyphshow

73.359375 0.312500 moveto
/period glyphshow

76.693359 0.312500 moveto
/uni00A0 glyphshow

/Cmmi10 findfont
12.0 scalefont
setfont
80.027344 0.312500 moveto
/c glyphshow

85.212891 0.312500 moveto
/m glyphshow

95.748047 0.312500 moveto
/p glyphshow

/LiberationSans findfont
12.0 scalefont
setfont
101.783203 0.312500 moveto
/colon glyphshow

/Cmmi10 findfont
12.0 scalefont
setfont
105.117188 0.312500 moveto
/R glyphshow

/LiberationSans findfont
12.0 scalefont
setfont
114.222656 0.312500 moveto
/equal glyphshow

121.230469 0.312500 moveto
/zero glyphshow


grestore
gsave
914.431 493.347 m
1502.55 493.347 l
1502.55 827.82 l
914.431 827.82 l
cl
0.918 0.918 0.949 setrgbcolor
fill
grestore
0.950 setgray
gsave
992.395 567.254 m
1160.72 649.259 l
1157.92 805.957 l
980.207 732.278 l
gsave
fill
grestore
stroke
grestore
0.900 setgray
gsave
1160.72 649.259 m
1433.38 603.413 l
1444.79 764.836 l
1157.92 805.957 l
gsave
fill
grestore
stroke
grestore
0.925 setgray
gsave
992.395 567.254 m
1279.28 513.859 l
1433.38 603.413 l
1160.72 649.259 l
gsave
fill
grestore
stroke
grestore
0.750 setlinewidth
1 setlinecap
0.000 setgray
gsave
992.395 567.254 m
1279.28 513.859 l
stroke
grestore
0.150 setgray
gsave
1072.358217 513.159909 translate
349.456608 rotate
/LiberationSans findfont
11.0 scalefont
setfont
0.000000 0.031250 moveto
/N glyphshow

7.943848 0.031250 moveto
/o glyphshow

14.061523 0.031250 moveto
/period glyphshow

17.117676 0.031250 moveto
/uni00A0 glyphshow

20.173828 0.031250 moveto
/o glyphshow

26.291504 0.031250 moveto
/f glyphshow

29.347656 0.031250 moveto
/uni00A0 glyphshow

32.403809 0.031250 moveto
/R glyphshow

40.347656 0.031250 moveto
/o glyphshow

46.465332 0.031250 moveto
/b glyphshow

52.583008 0.031250 moveto
/o glyphshow

58.700684 0.031250 moveto
/t glyphshow

61.756836 0.031250 moveto
/s glyphshow

67.256836 0.031250 moveto
/uni00A0 glyphshow

/Cmmi10 findfont
11.0 scalefont
setfont
70.312988 0.031250 moveto
/n glyphshow


grestore
/p4_0 {
newpath
translate
997.881 566.233 m
1165.95 648.379 l
1163.41 805.17 l
} bind def
/p4_1 {
newpath
translate
1031.01 560.068 m
1197.52 643.071 l
1196.56 800.417 l
} bind def
/p4_2 {
newpath
translate
1064.49 553.836 m
1229.41 637.709 l
1230.07 795.615 l
} bind def
/p4_3 {
newpath
translate
1098.34 547.536 m
1261.62 632.293 l
1263.94 790.761 l
} bind def
/p4_4 {
newpath
translate
1132.56 541.166 m
1294.16 626.821 l
1298.16 785.855 l
} bind def
/p4_5 {
newpath
translate
1167.16 534.727 m
1327.04 621.294 l
1332.75 780.896 l
} bind def
/p4_6 {
newpath
translate
1202.14 528.216 m
1360.25 615.71 l
1367.72 775.884 l
} bind def
/p4_7 {
newpath
translate
1237.51 521.633 m
1393.8 610.069 l
1403.07 770.817 l
} bind def
/p4_8 {
newpath
translate
1273.28 514.975 m
1427.7 604.369 l
1438.8 765.696 l
} bind def
1.750 setlinewidth
0 setlinecap
0.900 setgray
gsave
0 0 p4_0
stroke
grestore
gsave
0 0 p4_1
stroke
grestore
gsave
0 0 p4_2
stroke
grestore
gsave
0 0 p4_3
stroke
grestore
gsave
0 0 p4_4
stroke
grestore
gsave
0 0 p4_5
stroke
grestore
gsave
0 0 p4_6
stroke
grestore
gsave
0 0 p4_7
stroke
grestore
gsave
0 0 p4_8
stroke
grestore
1.000 setlinewidth
1 setlinecap
1.000 setgray
gsave
588.1 334.5 914.4 493.3 clipbox
1216.44 665.104 m
stroke
grestore
1.750 setlinewidth
0.150 setgray
gsave
999.329 566.94 m
994.98 564.815 l
stroke
grestore
gsave
985.991409 545.237020 translate
0.000000 rotate
0.000000 0.000000 m /five glyphshow
grestore
1.000 setlinewidth
1.000 setgray
gsave
588.1 334.5 914.4 493.3 clipbox
1216.44 665.104 m
stroke
grestore
1.750 setlinewidth
0.150 setgray
gsave
1032.44 560.783 m
1028.13 558.634 l
stroke
grestore
gsave
1016.495389 538.988578 translate
0.000000 rotate
0.000000 0.000000 m /one glyphshow
5.561523 0.000000 m /zero glyphshow
grestore
1.000 setlinewidth
1.000 setgray
gsave
588.1 334.5 914.4 493.3 clipbox
1216.44 665.104 m
stroke
grestore
1.750 setlinewidth
0.150 setgray
gsave
1065.91 554.559 m
1061.64 552.387 l
stroke
grestore
gsave
1049.992044 532.672246 translate
0.000000 rotate
0.000000 0.000000 m /one glyphshow
5.561523 0.000000 m /five glyphshow
grestore
1.000 setlinewidth
1.000 setgray
gsave
588.1 334.5 914.4 493.3 clipbox
1216.44 665.104 m
stroke
grestore
1.750 setlinewidth
0.150 setgray
gsave
1099.75 548.266 m
1095.52 546.071 l
stroke
grestore
gsave
1083.690396 526.286913 translate
0.000000 rotate
0.000000 0.000000 m /two glyphshow
5.561523 0.000000 m /zero glyphshow
grestore
1.000 setlinewidth
1.000 setgray
gsave
588.1 334.5 914.4 493.3 clipbox
1216.44 665.104 m
stroke
grestore
1.750 setlinewidth
0.150 setgray
gsave
1133.95 541.905 m
1129.76 539.686 l
stroke
grestore
gsave
1117.924595 519.831441 translate
0.000000 rotate
0.000000 0.000000 m /two glyphshow
5.561523 0.000000 m /five glyphshow
grestore
1.000 setlinewidth
1.000 setgray
gsave
588.1 334.5 914.4 493.3 clipbox
1216.44 665.104 m
stroke
grestore
1.750 setlinewidth
0.150 setgray
gsave
1168.54 535.474 m
1164.39 533.23 l
stroke
grestore
gsave
1152.442989 513.304668 translate
0.000000 rotate
0.000000 0.000000 m /three glyphshow
5.561523 0.000000 m /zero glyphshow
grestore
1.000 setlinewidth
1.000 setgray
gsave
588.1 334.5 914.4 493.3 clipbox
1216.44 665.104 m
stroke
grestore
1.750 setlinewidth
0.150 setgray
gsave
1203.5 528.972 m
1199.4 526.702 l
stroke
grestore
gsave
1187.439375 506.705406 translate
0.000000 rotate
0.000000 0.000000 m /three glyphshow
5.561523 0.000000 m /five glyphshow
grestore
1.000 setlinewidth
1.000 setgray
gsave
588.1 334.5 914.4 493.3 clipbox
1216.44 665.104 m
stroke
grestore
1.750 setlinewidth
0.150 setgray
gsave
1238.86 522.397 m
1234.8 520.102 l
stroke
grestore
gsave
1222.724876 500.032441 translate
0.000000 rotate
0.000000 0.000000 m /four glyphshow
5.561523 0.000000 m /zero glyphshow
grestore
1.000 setlinewidth
1.000 setgray
gsave
588.1 334.5 914.4 493.3 clipbox
1216.44 665.104 m
stroke
grestore
1.750 setlinewidth
0.150 setgray
gsave
1274.61 515.748 m
1270.6 513.427 l
stroke
grestore
gsave
1258.509200 493.284531 translate
0.000000 rotate
0.000000 0.000000 m /four glyphshow
5.561523 0.000000 m /five glyphshow
grestore
0.750 setlinewidth
0.000 setgray
gsave
1433.38 603.413 m
1279.28 513.859 l
stroke
grestore
0.150 setgray
gsave
1362.423360 511.427104 translate
30.161580 rotate
/LiberationSans findfont
11.0 scalefont
setfont
0.000000 0.312500 moveto
/C glyphshow

7.943848 0.312500 moveto
/o glyphshow

14.061523 0.312500 moveto
/m glyphshow

23.224609 0.312500 moveto
/m glyphshow

32.387695 0.312500 moveto
/period glyphshow

35.443848 0.312500 moveto
/uni00A0 glyphshow

38.500000 0.312500 moveto
/R glyphshow

46.443848 0.312500 moveto
/a glyphshow

52.561523 0.312500 moveto
/n glyphshow

58.679199 0.312500 moveto
/g glyphshow

64.796875 0.312500 moveto
/e glyphshow

70.914551 0.312500 moveto
/uni00A0 glyphshow

/Cmmi10 findfont
11.0 scalefont
setfont
73.970703 0.312500 moveto
/d glyphshow


grestore
/p5_0 {
newpath
translate
984.045 733.869 m
996.016 569.018 l
1282.6 515.792 l
} bind def
/p5_1 {
newpath
translate
1029.14 752.567 m
1038.62 589.772 l
1321.7 538.51 l
} bind def
/p5_2 {
newpath
translate
1072.54 770.562 m
1079.69 609.784 l
1359.33 560.379 l
} bind def
/p5_3 {
newpath
translate
1114.34 787.892 m
1119.32 629.093 l
1395.58 581.446 l
} bind def
/p5_4 {
newpath
translate
1154.62 804.593 m
1157.59 647.735 l
1430.53 601.754 l
} bind def
1.750 setlinewidth
0 setlinecap
0.900 setgray
gsave
0 0 p5_0
stroke
grestore
gsave
0 0 p5_1
stroke
grestore
gsave
0 0 p5_2
stroke
grestore
gsave
0 0 p5_3
stroke
grestore
gsave
0 0 p5_4
stroke
grestore
1.000 setlinewidth
1 setlinecap
1.000 setgray
gsave
588.1 334.5 914.4 493.3 clipbox
1216.44 665.104 m
stroke
grestore
1.750 setlinewidth
0.150 setgray
gsave
1280.21 516.237 m
1287.41 514.9 l
stroke
grestore
gsave
1296.805284 496.422478 translate
0.000000 rotate
0.000000 0.000000 m /zero glyphshow
grestore
1.000 setlinewidth
1.000 setgray
gsave
588.1 334.5 914.4 493.3 clipbox
1216.44 665.104 m
stroke
grestore
1.750 setlinewidth
0.150 setgray
gsave
1319.33 538.938 m
1326.44 537.651 l
stroke
grestore
gsave
1332.794336 519.362180 translate
0.000000 rotate
0.000000 0.000000 m /five glyphshow
5.561523 0.000000 m /zero glyphshow
grestore
1.000 setlinewidth
1.000 setgray
gsave
588.1 334.5 914.4 493.3 clipbox
1216.44 665.104 m
stroke
grestore
1.750 setlinewidth
0.150 setgray
gsave
1356.99 560.792 m
1364.01 559.552 l
stroke
grestore
gsave
1367.507287 541.444967 translate
0.000000 rotate
0.000000 0.000000 m /one glyphshow
5.561523 0.000000 m /zero glyphshow
11.123047 0.000000 m /zero glyphshow
grestore
1.000 setlinewidth
1.000 setgray
gsave
588.1 334.5 914.4 493.3 clipbox
1216.44 665.104 m
stroke
grestore
1.750 setlinewidth
0.150 setgray
gsave
1393.28 581.843 m
1400.2 580.649 l
stroke
grestore
gsave
1403.453472 562.717975 translate
0.000000 rotate
0.000000 0.000000 m /one glyphshow
5.561523 0.000000 m /five glyphshow
11.123047 0.000000 m /zero glyphshow
grestore
1.000 setlinewidth
1.000 setgray
gsave
588.1 334.5 914.4 493.3 clipbox
1216.44 665.104 m
stroke
grestore
1.750 setlinewidth
0.150 setgray
gsave
1428.25 602.137 m
1435.09 600.985 l
stroke
grestore
gsave
1437.972425 583.224944 translate
0.000000 rotate
0.000000 0.000000 m /two glyphshow
5.561523 0.000000 m /zero glyphshow
11.123047 0.000000 m /zero glyphshow
grestore
0.750 setlinewidth
0.000 setgray
gsave
1433.38 603.413 m
1444.79 764.836 l
stroke
grestore
0.150 setgray
/LiberationSans findfont
11.000 scalefont
setfont
gsave
1496.471134 670.366411 translate
85.957534 rotate
0.000000 0.000000 m /c glyphshow
5.500000 0.000000 m /o glyphshow
11.617676 0.000000 m /m glyphshow
20.780762 0.000000 m /p glyphshow
26.898438 0.000000 m /s glyphshow
grestore
/p6_0 {
newpath
translate
1433.6 606.483 m
1160.66 652.246 l
992.164 570.387 l
} bind def
/p6_1 {
newpath
translate
1434.91 625.034 m
1160.34 670.287 l
990.765 589.325 l
} bind def
/p6_2 {
newpath
translate
1436.24 643.811 m
1160.02 688.539 l
989.349 608.5 l
} bind def
/p6_3 {
newpath
translate
1437.58 662.817 m
1159.69 707.004 l
987.915 627.917 l
} bind def
/p6_4 {
newpath
translate
1438.94 682.057 m
1159.35 725.686 l
986.463 647.581 l
} bind def
/p6_5 {
newpath
translate
1440.32 701.535 m
1159.01 744.59 l
984.992 667.496 l
} bind def
/p6_6 {
newpath
translate
1441.71 721.255 m
1158.67 763.719 l
983.502 687.668 l
} bind def
/p6_7 {
newpath
translate
1443.12 741.223 m
1158.32 783.077 l
981.993 708.102 l
} bind def
/p6_8 {
newpath
translate
1444.55 761.442 m
1157.97 802.669 l
980.464 728.801 l
} bind def
1.750 setlinewidth
0 setlinecap
0.900 setgray
gsave
0 0 p6_0
stroke
grestore
gsave
0 0 p6_1
stroke
grestore
gsave
0 0 p6_2
stroke
grestore
gsave
0 0 p6_3
stroke
grestore
gsave
0 0 p6_4
stroke
grestore
gsave
0 0 p6_5
stroke
grestore
gsave
0 0 p6_6
stroke
grestore
gsave
0 0 p6_7
stroke
grestore
gsave
0 0 p6_8
stroke
grestore
1.000 setlinewidth
1 setlinecap
1.000 setgray
gsave
1216.44 665.104 m
stroke
grestore
1.750 setlinewidth
0.150 setgray
gsave
1431.32 606.865 m
1438.16 605.719 l
stroke
grestore
/LiberationSans findfont
10.000 scalefont
setfont
gsave
1455.105718 601.186993 translate
0.000000 rotate
0.000000 0.000000 m /zero glyphshow
grestore
1.000 setlinewidth
1.000 setgray
gsave
1216.44 665.104 m
stroke
grestore
1.750 setlinewidth
0.150 setgray
gsave
1432.62 625.412 m
1439.5 624.278 l
stroke
grestore
gsave
1456.667800 619.716951 translate
0.000000 rotate
0.000000 0.000000 m /two glyphshow
grestore
1.000 setlinewidth
1.000 setgray
gsave
1216.44 665.104 m
stroke
grestore
1.750 setlinewidth
0.150 setgray
gsave
1433.93 644.184 m
1440.86 643.064 l
stroke
grestore
gsave
1457.903747 638.471599 translate
0.000000 rotate
0.000000 0.000000 m /four glyphshow
grestore
1.000 setlinewidth
1.000 setgray
gsave
1216.44 665.104 m
stroke
grestore
1.750 setlinewidth
0.150 setgray
gsave
1435.26 663.186 m
1442.23 662.078 l
stroke
grestore
gsave
1459.602944 657.455049 translate
0.000000 rotate
0.000000 0.000000 m /six glyphshow
grestore
1.000 setlinewidth
1.000 setgray
gsave
1216.44 665.104 m
stroke
grestore
1.750 setlinewidth
0.150 setgray
gsave
1436.61 682.421 m
1443.62 681.327 l
stroke
grestore
gsave
1461.070410 676.671515 translate
0.000000 rotate
0.000000 0.000000 m /eight glyphshow
grestore
1.000 setlinewidth
1.000 setgray
gsave
1216.44 665.104 m
stroke
grestore
1.750 setlinewidth
0.150 setgray
gsave
1437.97 701.895 m
1445.02 700.815 l
stroke
grestore
gsave
1459.954919 696.125313 translate
0.000000 rotate
0.000000 0.000000 m /one glyphshow
5.561523 0.000000 m /zero glyphshow
grestore
1.000 setlinewidth
1.000 setgray
gsave
1216.44 665.104 m
stroke
grestore
1.750 setlinewidth
0.150 setgray
gsave
1439.35 721.61 m
1446.45 720.545 l
stroke
grestore
gsave
1461.553693 715.820867 translate
0.000000 rotate
0.000000 0.000000 m /one glyphshow
5.561523 0.000000 m /two glyphshow
grestore
1.000 setlinewidth
1.000 setgray
gsave
1216.44 665.104 m
stroke
grestore
1.750 setlinewidth
0.150 setgray
gsave
1440.74 741.572 m
1447.89 740.522 l
stroke
grestore
gsave
1463.015526 735.762711 translate
0.000000 rotate
0.000000 0.000000 m /one glyphshow
5.561523 0.000000 m /four glyphshow
grestore
1.000 setlinewidth
1.000 setgray
gsave
1216.44 665.104 m
stroke
grestore
1.750 setlinewidth
0.150 setgray
gsave
1442.16 761.786 m
1449.35 760.752 l
stroke
grestore
gsave
1464.668908 755.955496 translate
0.000000 rotate
0.000000 0.000000 m /one glyphshow
5.561523 0.000000 m /six glyphshow
grestore
/p7_0 {
newpath
translate
1088.94 613.86 m
1153.93 602.815 l
1220.31 590.93 l
1288.09 578.88 l
1357.33 566.729 l
1364.69 570.946 l
1371.98 575.148 l
1379.23 579.33 l
1386.42 583.482 l
1393.56 587.604 l
1400.65 591.695 l
1407.68 595.757 l
1414.67 599.79 l
1421.6 603.793 l
1353.92 615.189 l
1287.62 626.352 l
1222.67 637.29 l
1159.01 648.009 l
1151.44 644.32 l
1143.82 640.606 l
1136.14 636.865 l
1128.42 633.098 l
1120.63 629.305 l
1112.79 625.485 l
1104.9 621.637 l
1096.94 618.007 l
1088.94 613.86 l
cl
} bind def
/p7_1 {
newpath
translate
1002.39 619.642 m
1069.97 606.432 l
1139 592.917 l
1209.52 579.169 l
1281.58 564.879 l
1290.59 609.837 l
1298.56 609.781 l
1305.79 587.767 l
1312.95 569.439 l
1320.14 556.959 l
1327.52 553.706 l
1335 555.315 l
1342.47 558.462 l
1349.93 562.515 l
1357.33 566.729 l
1288.09 578.88 l
1220.31 590.93 l
1153.93 602.815 l
1088.94 613.86 l
1080.84 610.807 l
1072.6 609.214 l
1064.07 612.241 l
1054.75 628.221 l
1044.87 651.341 l
1033.91 689.427 l
1023.64 711.208 l
1013.16 732.681 l
1006.2 698.105 l
1002.39 619.642 l
cl
} bind def
0.300 setlinewidth
0 setlinecap
0.000 setgray
gsave
588.1 334.5 914.4 493.3 clipbox
0 0 p7_0
gsave
0.000 0.000 1.000 setrgbcolor
fill
grestore
stroke
grestore
gsave
588.1 334.5 914.4 493.3 clipbox
0 0 p7_1
gsave
0.000 0.000 0.500 setrgbcolor
fill
grestore
stroke
grestore
0.150 setgray
gsave
1144.490341 806.062182 translate
0.000000 rotate
/LiberationSans findfont
12.0 scalefont
setfont
0.000000 0.312500 moveto
/N glyphshow

8.666016 0.312500 moveto
/o glyphshow

15.339844 0.312500 moveto
/period glyphshow

18.673828 0.312500 moveto
/uni00A0 glyphshow

22.007812 0.312500 moveto
/o glyphshow

28.681641 0.312500 moveto
/f glyphshow

32.015625 0.312500 moveto
/uni00A0 glyphshow

35.349609 0.312500 moveto
/C glyphshow

44.015625 0.312500 moveto
/o glyphshow

50.689453 0.312500 moveto
/m glyphshow

60.685547 0.312500 moveto
/p glyphshow

67.359375 0.312500 moveto
/s glyphshow

73.359375 0.312500 moveto
/period glyphshow

76.693359 0.312500 moveto
/uni00A0 glyphshow

/Cmmi10 findfont
12.0 scalefont
setfont
80.027344 0.312500 moveto
/c glyphshow

85.212891 0.312500 moveto
/m glyphshow

95.748047 0.312500 moveto
/p glyphshow

/LiberationSans findfont
12.0 scalefont
setfont
101.783203 0.312500 moveto
/colon glyphshow

/Cmmi10 findfont
12.0 scalefont
setfont
105.117188 0.312500 moveto
/R glyphshow

/LiberationSans findfont
12.0 scalefont
setfont
114.222656 0.312500 moveto
/equal glyphshow

121.230469 0.312500 moveto
/one glyphshow


grestore
gsave
208.688 91.98 m
796.807 91.98 l
796.807 426.453 l
208.688 426.453 l
cl
0.918 0.918 0.949 setrgbcolor
fill
grestore
0.950 setgray
gsave
286.652 165.887 m
454.975 247.892 l
452.172 404.59 l
274.464 330.91 l
gsave
fill
grestore
stroke
grestore
0.900 setgray
gsave
454.975 247.892 m
727.642 202.046 l
739.05 363.469 l
452.172 404.59 l
gsave
fill
grestore
stroke
grestore
0.925 setgray
gsave
286.652 165.887 m
573.534 112.491 l
727.642 202.046 l
454.975 247.892 l
gsave
fill
grestore
stroke
grestore
0.750 setlinewidth
1 setlinecap
0.000 setgray
gsave
286.652 165.887 m
573.534 112.491 l
stroke
grestore
0.150 setgray
gsave
366.615035 111.792636 translate
349.456608 rotate
/LiberationSans findfont
11.0 scalefont
setfont
0.000000 0.031250 moveto
/N glyphshow

7.943848 0.031250 moveto
/o glyphshow

14.061523 0.031250 moveto
/period glyphshow

17.117676 0.031250 moveto
/uni00A0 glyphshow

20.173828 0.031250 moveto
/o glyphshow

26.291504 0.031250 moveto
/f glyphshow

29.347656 0.031250 moveto
/uni00A0 glyphshow

32.403809 0.031250 moveto
/R glyphshow

40.347656 0.031250 moveto
/o glyphshow

46.465332 0.031250 moveto
/b glyphshow

52.583008 0.031250 moveto
/o glyphshow

58.700684 0.031250 moveto
/t glyphshow

61.756836 0.031250 moveto
/s glyphshow

67.256836 0.031250 moveto
/uni00A0 glyphshow

/Cmmi10 findfont
11.0 scalefont
setfont
70.312988 0.031250 moveto
/n glyphshow


grestore
/p8_0 {
newpath
translate
292.138 164.866 m
460.206 247.012 l
457.665 403.803 l
} bind def
/p8_1 {
newpath
translate
325.262 158.7 m
491.779 241.704 l
490.821 399.05 l
} bind def
/p8_2 {
newpath
translate
358.746 152.468 m
523.669 236.342 l
524.329 394.247 l
} bind def
/p8_3 {
newpath
translate
392.595 146.168 m
555.881 230.925 l
558.192 389.393 l
} bind def
/p8_4 {
newpath
translate
426.815 139.799 m
588.421 225.454 l
592.418 384.487 l
} bind def
/p8_5 {
newpath
translate
461.413 133.36 m
621.294 219.927 l
627.011 379.529 l
} bind def
/p8_6 {
newpath
translate
496.395 126.849 m
654.504 214.343 l
661.978 374.517 l
} bind def
/p8_7 {
newpath
translate
531.766 120.265 m
688.057 208.701 l
697.324 369.45 l
} bind def
/p8_8 {
newpath
translate
567.534 113.608 m
721.957 203.001 l
733.056 364.328 l
} bind def
1.750 setlinewidth
0 setlinecap
0.900 setgray
gsave
0 0 p8_0
stroke
grestore
gsave
0 0 p8_1
stroke
grestore
gsave
0 0 p8_2
stroke
grestore
gsave
0 0 p8_3
stroke
grestore
gsave
0 0 p8_4
stroke
grestore
gsave
0 0 p8_5
stroke
grestore
gsave
0 0 p8_6
stroke
grestore
gsave
0 0 p8_7
stroke
grestore
gsave
0 0 p8_8
stroke
grestore
1.000 setlinewidth
1 setlinecap
1.000 setgray
gsave
588.1 334.5 208.7 91.98 clipbox
510.695 263.736 m
stroke
grestore
1.750 setlinewidth
0.150 setgray
gsave
293.586 165.573 m
289.237 163.448 l
stroke
grestore
gsave
280.248227 143.869747 translate
0.000000 rotate
0.000000 0.000000 m /five glyphshow
grestore
1.000 setlinewidth
1.000 setgray
gsave
588.1 334.5 208.7 91.98 clipbox
510.695 263.736 m
stroke
grestore
1.750 setlinewidth
0.150 setgray
gsave
326.697 159.416 m
322.387 157.267 l
stroke
grestore
gsave
310.752208 137.621305 translate
0.000000 rotate
0.000000 0.000000 m /one glyphshow
5.561523 0.000000 m /zero glyphshow
grestore
1.000 setlinewidth
1.000 setgray
gsave
588.1 334.5 208.7 91.98 clipbox
510.695 263.736 m
stroke
grestore
1.750 setlinewidth
0.150 setgray
gsave
360.168 153.191 m
355.897 151.019 l
stroke
grestore
gsave
344.248863 131.304974 translate
0.000000 rotate
0.000000 0.000000 m /one glyphshow
5.561523 0.000000 m /five glyphshow
grestore
1.000 setlinewidth
1.000 setgray
gsave
588.1 334.5 208.7 91.98 clipbox
510.695 263.736 m
stroke
grestore
1.750 setlinewidth
0.150 setgray
gsave
394.003 146.899 m
389.773 144.704 l
stroke
grestore
gsave
377.947214 124.919640 translate
0.000000 rotate
0.000000 0.000000 m /two glyphshow
5.561523 0.000000 m /zero glyphshow
grestore
1.000 setlinewidth
1.000 setgray
gsave
588.1 334.5 208.7 91.98 clipbox
510.695 263.736 m
stroke
grestore
1.750 setlinewidth
0.150 setgray
gsave
428.21 140.538 m
424.022 138.318 l
stroke
grestore
gsave
412.181413 118.464168 translate
0.000000 rotate
0.000000 0.000000 m /two glyphshow
5.561523 0.000000 m /five glyphshow
grestore
1.000 setlinewidth
1.000 setgray
gsave
588.1 334.5 208.7 91.98 clipbox
510.695 263.736 m
stroke
grestore
1.750 setlinewidth
0.150 setgray
gsave
462.793 134.107 m
458.648 131.862 l
stroke
grestore
gsave
446.699807 111.937395 translate
0.000000 rotate
0.000000 0.000000 m /three glyphshow
5.561523 0.000000 m /zero glyphshow
grestore
1.000 setlinewidth
1.000 setgray
gsave
588.1 334.5 208.7 91.98 clipbox
510.695 263.736 m
stroke
grestore
1.750 setlinewidth
0.150 setgray
gsave
497.76 127.604 m
493.659 125.335 l
stroke
grestore
gsave
481.696193 105.338133 translate
0.000000 rotate
0.000000 0.000000 m /three glyphshow
5.561523 0.000000 m /five glyphshow
grestore
1.000 setlinewidth
1.000 setgray
gsave
588.1 334.5 208.7 91.98 clipbox
510.695 263.736 m
stroke
grestore
1.750 setlinewidth
0.150 setgray
gsave
533.116 121.029 m
529.061 118.735 l
stroke
grestore
gsave
516.981694 98.665168 translate
0.000000 rotate
0.000000 0.000000 m /four glyphshow
5.561523 0.000000 m /zero glyphshow
grestore
1.000 setlinewidth
1.000 setgray
gsave
588.1 334.5 208.7 91.98 clipbox
510.695 263.736 m
stroke
grestore
1.750 setlinewidth
0.150 setgray
gsave
568.869 114.381 m
564.86 112.06 l
stroke
grestore
gsave
552.766018 91.917259 translate
0.000000 rotate
0.000000 0.000000 m /four glyphshow
5.561523 0.000000 m /five glyphshow
grestore
0.750 setlinewidth
0.000 setgray
gsave
727.642 202.046 m
573.534 112.491 l
stroke
grestore
0.150 setgray
gsave
656.680178 110.059831 translate
30.161580 rotate
/LiberationSans findfont
11.0 scalefont
setfont
0.000000 0.312500 moveto
/C glyphshow

7.943848 0.312500 moveto
/o glyphshow

14.061523 0.312500 moveto
/m glyphshow

23.224609 0.312500 moveto
/m glyphshow

32.387695 0.312500 moveto
/period glyphshow

35.443848 0.312500 moveto
/uni00A0 glyphshow

38.500000 0.312500 moveto
/R glyphshow

46.443848 0.312500 moveto
/a glyphshow

52.561523 0.312500 moveto
/n glyphshow

58.679199 0.312500 moveto
/g glyphshow

64.796875 0.312500 moveto
/e glyphshow

70.914551 0.312500 moveto
/uni00A0 glyphshow

/Cmmi10 findfont
11.0 scalefont
setfont
73.970703 0.312500 moveto
/d glyphshow


grestore
/p9_0 {
newpath
translate
278.302 332.501 m
290.273 167.651 l
576.861 114.424 l
} bind def
/p9_1 {
newpath
translate
323.4 351.2 m
332.873 188.405 l
615.955 137.142 l
} bind def
/p9_2 {
newpath
translate
366.801 369.194 m
373.948 208.417 l
653.588 159.012 l
} bind def
/p9_3 {
newpath
translate
408.599 386.524 m
413.581 227.725 l
689.84 180.078 l
} bind def
/p9_4 {
newpath
translate
448.881 403.226 m
451.845 246.367 l
724.786 200.386 l
} bind def
1.750 setlinewidth
0 setlinecap
0.900 setgray
gsave
0 0 p9_0
stroke
grestore
gsave
0 0 p9_1
stroke
grestore
gsave
0 0 p9_2
stroke
grestore
gsave
0 0 p9_3
stroke
grestore
gsave
0 0 p9_4
stroke
grestore
1.000 setlinewidth
1 setlinecap
1.000 setgray
gsave
588.1 334.5 208.7 91.98 clipbox
510.695 263.736 m
stroke
grestore
1.750 setlinewidth
0.150 setgray
gsave
574.462 114.87 m
581.664 113.532 l
stroke
grestore
gsave
591.062102 95.055205 translate
0.000000 rotate
0.000000 0.000000 m /zero glyphshow
grestore
1.000 setlinewidth
1.000 setgray
gsave
588.1 334.5 208.7 91.98 clipbox
510.695 263.736 m
stroke
grestore
1.750 setlinewidth
0.150 setgray
gsave
613.587 137.571 m
620.695 136.284 l
stroke
grestore
gsave
627.051154 117.994907 translate
0.000000 rotate
0.000000 0.000000 m /five glyphshow
5.561523 0.000000 m /zero glyphshow
grestore
1.000 setlinewidth
1.000 setgray
gsave
588.1 334.5 208.7 91.98 clipbox
510.695 263.736 m
stroke
grestore
1.750 setlinewidth
0.150 setgray
gsave
651.251 159.424 m
658.266 158.185 l
stroke
grestore
gsave
661.764105 140.077694 translate
0.000000 rotate
0.000000 0.000000 m /one glyphshow
5.561523 0.000000 m /zero glyphshow
11.123047 0.000000 m /zero glyphshow
grestore
1.000 setlinewidth
1.000 setgray
gsave
588.1 334.5 208.7 91.98 clipbox
510.695 263.736 m
stroke
grestore
1.750 setlinewidth
0.150 setgray
gsave
687.533 180.476 m
694.458 179.282 l
stroke
grestore
gsave
697.710290 161.350702 translate
0.000000 rotate
0.000000 0.000000 m /one glyphshow
5.561523 0.000000 m /five glyphshow
11.123047 0.000000 m /zero glyphshow
grestore
1.000 setlinewidth
1.000 setgray
gsave
588.1 334.5 208.7 91.98 clipbox
510.695 263.736 m
stroke
grestore
1.750 setlinewidth
0.150 setgray
gsave
722.509 200.77 m
729.346 199.618 l
stroke
grestore
gsave
732.229243 181.857671 translate
0.000000 rotate
0.000000 0.000000 m /two glyphshow
5.561523 0.000000 m /zero glyphshow
11.123047 0.000000 m /zero glyphshow
grestore
0.750 setlinewidth
0.000 setgray
gsave
727.642 202.046 m
739.05 363.469 l
stroke
grestore
0.150 setgray
/LiberationSans findfont
11.000 scalefont
setfont
gsave
790.727953 268.999138 translate
85.957534 rotate
0.000000 0.000000 m /c glyphshow
5.500000 0.000000 m /o glyphshow
11.617676 0.000000 m /m glyphshow
20.780762 0.000000 m /p glyphshow
26.898438 0.000000 m /s glyphshow
grestore
/pa_0 {
newpath
translate
727.859 205.116 m
454.921 250.879 l
286.42 169.02 l
} bind def
/pa_1 {
newpath
translate
729.61 229.901 m
454.49 274.98 l
284.552 194.323 l
} bind def
/pa_2 {
newpath
translate
731.39 255.089 m
454.052 299.458 l
282.652 220.05 l
} bind def
/pa_3 {
newpath
translate
733.2 280.69 m
453.608 324.319 l
280.719 246.214 l
} bind def
/pa_4 {
newpath
translate
735.039 306.714 m
453.156 349.574 l
278.754 272.824 l
} bind def
/pa_5 {
newpath
translate
736.909 333.172 m
452.697 375.232 l
276.755 299.894 l
} bind def
/pa_6 {
newpath
translate
738.81 360.075 m
452.231 401.302 l
274.721 327.434 l
} bind def
1.750 setlinewidth
0 setlinecap
0.900 setgray
gsave
0 0 pa_0
stroke
grestore
gsave
0 0 pa_1
stroke
grestore
gsave
0 0 pa_2
stroke
grestore
gsave
0 0 pa_3
stroke
grestore
gsave
0 0 pa_4
stroke
grestore
gsave
0 0 pa_5
stroke
grestore
gsave
0 0 pa_6
stroke
grestore
1.000 setlinewidth
1 setlinecap
1.000 setgray
gsave
510.695 263.736 m
stroke
grestore
1.750 setlinewidth
0.150 setgray
gsave
725.581 205.498 m
732.418 204.351 l
stroke
grestore
/LiberationSans findfont
10.000 scalefont
setfont
gsave
749.362536 199.819721 translate
0.000000 rotate
0.000000 0.000000 m /zero glyphshow
grestore
1.000 setlinewidth
1.000 setgray
gsave
510.695 263.736 m
stroke
grestore
1.750 setlinewidth
0.150 setgray
gsave
727.314 230.277 m
734.208 229.148 l
stroke
grestore
gsave
751.412752 224.576061 translate
0.000000 rotate
0.000000 0.000000 m /two glyphshow
grestore
1.000 setlinewidth
1.000 setgray
gsave
510.695 263.736 m
stroke
grestore
1.750 setlinewidth
0.150 setgray
gsave
729.075 255.459 m
736.026 254.347 l
stroke
grestore
gsave
753.150725 249.734279 translate
0.000000 rotate
0.000000 0.000000 m /four glyphshow
grestore
1.000 setlinewidth
1.000 setgray
gsave
510.695 263.736 m
stroke
grestore
1.750 setlinewidth
0.150 setgray
gsave
730.865 281.054 m
737.875 279.96 l
stroke
grestore
gsave
755.366290 275.304242 translate
0.000000 rotate
0.000000 0.000000 m /six glyphshow
grestore
1.000 setlinewidth
1.000 setgray
gsave
510.695 263.736 m
stroke
grestore
1.750 setlinewidth
0.150 setgray
gsave
732.684 307.072 m
739.754 305.997 l
stroke
grestore
gsave
757.364934 301.296141 translate
0.000000 rotate
0.000000 0.000000 m /eight glyphshow
grestore
1.000 setlinewidth
1.000 setgray
gsave
510.695 263.736 m
stroke
grestore
1.750 setlinewidth
0.150 setgray
gsave
734.533 333.523 m
741.665 332.468 l
stroke
grestore
gsave
756.795920 327.720507 translate
0.000000 rotate
0.000000 0.000000 m /one glyphshow
5.561523 0.000000 m /zero glyphshow
grestore
1.000 setlinewidth
1.000 setgray
gsave
510.695 263.736 m
stroke
grestore
1.750 setlinewidth
0.150 setgray
gsave
736.414 360.419 m
743.607 359.384 l
stroke
grestore
gsave
758.956976 354.588223 translate
0.000000 rotate
0.000000 0.000000 m /one glyphshow
5.561523 0.000000 m /two glyphshow
grestore
/pb_0 {
newpath
translate
383.2 212.493 m
448.197 201.069 l
514.564 189.404 l
582.346 177.491 l
651.588 165.321 l
658.941 169.566 l
666.24 173.78 l
673.485 177.963 l
680.677 182.115 l
687.816 186.237 l
694.903 190.328 l
701.938 194.39 l
708.922 198.422 l
715.856 202.426 l
648.178 213.822 l
581.881 224.985 l
516.924 235.923 l
453.266 246.642 l
445.697 242.953 l
438.076 239.238 l
430.401 235.498 l
422.672 231.731 l
414.889 227.937 l
407.051 224.117 l
399.157 220.27 l
391.207 216.395 l
383.2 212.493 l
cl
} bind def
/pb_1 {
newpath
translate
295.632 232.853 m
363.56 219.044 l
432.91 205.173 l
503.745 191.172 l
576.125 177.046 l
585.18 222.107 l
592.536 197.949 l
599.387 163.689 l
606.571 147.996 l
614.054 145.66 l
621.632 148.382 l
629.196 152.393 l
636.716 156.735 l
644.18 161.044 l
651.588 165.321 l
582.346 177.491 l
514.564 189.404 l
448.197 201.069 l
383.2 212.493 l
375.135 208.562 l
367.012 204.603 l
358.804 201.166 l
350.468 198.94 l
341.816 201.159 l
332.206 218.251 l
321.237 254.714 l
309.022 306.117 l
299.199 315.653 l
295.632 232.853 l
cl
} bind def
0.300 setlinewidth
0 setlinecap
0.000 setgray
gsave
588.1 334.5 208.7 91.98 clipbox
0 0 pb_0
gsave
0.000 0.000 1.000 setrgbcolor
fill
grestore
stroke
grestore
gsave
588.1 334.5 208.7 91.98 clipbox
0 0 pb_1
gsave
0.000 0.000 0.500 setrgbcolor
fill
grestore
stroke
grestore
0.150 setgray
gsave
438.747159 404.694909 translate
0.000000 rotate
/LiberationSans findfont
12.0 scalefont
setfont
0.000000 0.312500 moveto
/N glyphshow

8.666016 0.312500 moveto
/o glyphshow

15.339844 0.312500 moveto
/period glyphshow

18.673828 0.312500 moveto
/uni00A0 glyphshow

22.007812 0.312500 moveto
/o glyphshow

28.681641 0.312500 moveto
/f glyphshow

32.015625 0.312500 moveto
/uni00A0 glyphshow

35.349609 0.312500 moveto
/C glyphshow

44.015625 0.312500 moveto
/o glyphshow

50.689453 0.312500 moveto
/m glyphshow

60.685547 0.312500 moveto
/p glyphshow

67.359375 0.312500 moveto
/s glyphshow

73.359375 0.312500 moveto
/period glyphshow

76.693359 0.312500 moveto
/uni00A0 glyphshow

/Cmmi10 findfont
12.0 scalefont
setfont
80.027344 0.312500 moveto
/c glyphshow

85.212891 0.312500 moveto
/m glyphshow

95.748047 0.312500 moveto
/p glyphshow

/LiberationSans findfont
12.0 scalefont
setfont
101.783203 0.312500 moveto
/colon glyphshow

/Cmmi10 findfont
12.0 scalefont
setfont
105.117188 0.312500 moveto
/R glyphshow

/LiberationSans findfont
12.0 scalefont
setfont
114.222656 0.312500 moveto
/equal glyphshow

121.230469 0.312500 moveto
/two glyphshow


grestore
gsave
914.431 91.98 m
1502.55 91.98 l
1502.55 426.453 l
914.431 426.453 l
cl
0.918 0.918 0.949 setrgbcolor
fill
grestore
0.950 setgray
gsave
992.395 165.887 m
1160.72 247.892 l
1157.92 404.59 l
980.207 330.91 l
gsave
fill
grestore
stroke
grestore
0.900 setgray
gsave
1160.72 247.892 m
1433.38 202.046 l
1444.79 363.469 l
1157.92 404.59 l
gsave
fill
grestore
stroke
grestore
0.925 setgray
gsave
992.395 165.887 m
1279.28 112.491 l
1433.38 202.046 l
1160.72 247.892 l
gsave
fill
grestore
stroke
grestore
0.750 setlinewidth
1 setlinecap
0.000 setgray
gsave
992.395 165.887 m
1279.28 112.491 l
stroke
grestore
0.150 setgray
gsave
1072.358217 111.792636 translate
349.456608 rotate
/LiberationSans findfont
11.0 scalefont
setfont
0.000000 0.031250 moveto
/N glyphshow

7.943848 0.031250 moveto
/o glyphshow

14.061523 0.031250 moveto
/period glyphshow

17.117676 0.031250 moveto
/uni00A0 glyphshow

20.173828 0.031250 moveto
/o glyphshow

26.291504 0.031250 moveto
/f glyphshow

29.347656 0.031250 moveto
/uni00A0 glyphshow

32.403809 0.031250 moveto
/R glyphshow

40.347656 0.031250 moveto
/o glyphshow

46.465332 0.031250 moveto
/b glyphshow

52.583008 0.031250 moveto
/o glyphshow

58.700684 0.031250 moveto
/t glyphshow

61.756836 0.031250 moveto
/s glyphshow

67.256836 0.031250 moveto
/uni00A0 glyphshow

/Cmmi10 findfont
11.0 scalefont
setfont
70.312988 0.031250 moveto
/n glyphshow


grestore
/pc_0 {
newpath
translate
997.881 164.866 m
1165.95 247.012 l
1163.41 403.803 l
} bind def
/pc_1 {
newpath
translate
1031.01 158.7 m
1197.52 241.704 l
1196.56 399.05 l
} bind def
/pc_2 {
newpath
translate
1064.49 152.468 m
1229.41 236.342 l
1230.07 394.247 l
} bind def
/pc_3 {
newpath
translate
1098.34 146.168 m
1261.62 230.925 l
1263.94 389.393 l
} bind def
/pc_4 {
newpath
translate
1132.56 139.799 m
1294.16 225.454 l
1298.16 384.487 l
} bind def
/pc_5 {
newpath
translate
1167.16 133.36 m
1327.04 219.927 l
1332.75 379.529 l
} bind def
/pc_6 {
newpath
translate
1202.14 126.849 m
1360.25 214.343 l
1367.72 374.517 l
} bind def
/pc_7 {
newpath
translate
1237.51 120.265 m
1393.8 208.701 l
1403.07 369.45 l
} bind def
/pc_8 {
newpath
translate
1273.28 113.608 m
1427.7 203.001 l
1438.8 364.328 l
} bind def
1.750 setlinewidth
0 setlinecap
0.900 setgray
gsave
0 0 pc_0
stroke
grestore
gsave
0 0 pc_1
stroke
grestore
gsave
0 0 pc_2
stroke
grestore
gsave
0 0 pc_3
stroke
grestore
gsave
0 0 pc_4
stroke
grestore
gsave
0 0 pc_5
stroke
grestore
gsave
0 0 pc_6
stroke
grestore
gsave
0 0 pc_7
stroke
grestore
gsave
0 0 pc_8
stroke
grestore
1.000 setlinewidth
1 setlinecap
1.000 setgray
gsave
588.1 334.5 914.4 91.98 clipbox
1216.44 263.736 m
stroke
grestore
1.750 setlinewidth
0.150 setgray
gsave
999.329 165.573 m
994.98 163.448 l
stroke
grestore
gsave
985.991409 143.869747 translate
0.000000 rotate
0.000000 0.000000 m /five glyphshow
grestore
1.000 setlinewidth
1.000 setgray
gsave
588.1 334.5 914.4 91.98 clipbox
1216.44 263.736 m
stroke
grestore
1.750 setlinewidth
0.150 setgray
gsave
1032.44 159.416 m
1028.13 157.267 l
stroke
grestore
gsave
1016.495389 137.621305 translate
0.000000 rotate
0.000000 0.000000 m /one glyphshow
5.561523 0.000000 m /zero glyphshow
grestore
1.000 setlinewidth
1.000 setgray
gsave
588.1 334.5 914.4 91.98 clipbox
1216.44 263.736 m
stroke
grestore
1.750 setlinewidth
0.150 setgray
gsave
1065.91 153.191 m
1061.64 151.019 l
stroke
grestore
gsave
1049.992044 131.304974 translate
0.000000 rotate
0.000000 0.000000 m /one glyphshow
5.561523 0.000000 m /five glyphshow
grestore
1.000 setlinewidth
1.000 setgray
gsave
588.1 334.5 914.4 91.98 clipbox
1216.44 263.736 m
stroke
grestore
1.750 setlinewidth
0.150 setgray
gsave
1099.75 146.899 m
1095.52 144.704 l
stroke
grestore
gsave
1083.690396 124.919640 translate
0.000000 rotate
0.000000 0.000000 m /two glyphshow
5.561523 0.000000 m /zero glyphshow
grestore
1.000 setlinewidth
1.000 setgray
gsave
588.1 334.5 914.4 91.98 clipbox
1216.44 263.736 m
stroke
grestore
1.750 setlinewidth
0.150 setgray
gsave
1133.95 140.538 m
1129.76 138.318 l
stroke
grestore
gsave
1117.924595 118.464168 translate
0.000000 rotate
0.000000 0.000000 m /two glyphshow
5.561523 0.000000 m /five glyphshow
grestore
1.000 setlinewidth
1.000 setgray
gsave
588.1 334.5 914.4 91.98 clipbox
1216.44 263.736 m
stroke
grestore
1.750 setlinewidth
0.150 setgray
gsave
1168.54 134.107 m
1164.39 131.862 l
stroke
grestore
gsave
1152.442989 111.937395 translate
0.000000 rotate
0.000000 0.000000 m /three glyphshow
5.561523 0.000000 m /zero glyphshow
grestore
1.000 setlinewidth
1.000 setgray
gsave
588.1 334.5 914.4 91.98 clipbox
1216.44 263.736 m
stroke
grestore
1.750 setlinewidth
0.150 setgray
gsave
1203.5 127.604 m
1199.4 125.335 l
stroke
grestore
gsave
1187.439375 105.338133 translate
0.000000 rotate
0.000000 0.000000 m /three glyphshow
5.561523 0.000000 m /five glyphshow
grestore
1.000 setlinewidth
1.000 setgray
gsave
588.1 334.5 914.4 91.98 clipbox
1216.44 263.736 m
stroke
grestore
1.750 setlinewidth
0.150 setgray
gsave
1238.86 121.029 m
1234.8 118.735 l
stroke
grestore
gsave
1222.724876 98.665168 translate
0.000000 rotate
0.000000 0.000000 m /four glyphshow
5.561523 0.000000 m /zero glyphshow
grestore
1.000 setlinewidth
1.000 setgray
gsave
588.1 334.5 914.4 91.98 clipbox
1216.44 263.736 m
stroke
grestore
1.750 setlinewidth
0.150 setgray
gsave
1274.61 114.381 m
1270.6 112.06 l
stroke
grestore
gsave
1258.509200 91.917259 translate
0.000000 rotate
0.000000 0.000000 m /four glyphshow
5.561523 0.000000 m /five glyphshow
grestore
0.750 setlinewidth
0.000 setgray
gsave
1433.38 202.046 m
1279.28 112.491 l
stroke
grestore
0.150 setgray
gsave
1362.423360 110.059831 translate
30.161580 rotate
/LiberationSans findfont
11.0 scalefont
setfont
0.000000 0.312500 moveto
/C glyphshow

7.943848 0.312500 moveto
/o glyphshow

14.061523 0.312500 moveto
/m glyphshow

23.224609 0.312500 moveto
/m glyphshow

32.387695 0.312500 moveto
/period glyphshow

35.443848 0.312500 moveto
/uni00A0 glyphshow

38.500000 0.312500 moveto
/R glyphshow

46.443848 0.312500 moveto
/a glyphshow

52.561523 0.312500 moveto
/n glyphshow

58.679199 0.312500 moveto
/g glyphshow

64.796875 0.312500 moveto
/e glyphshow

70.914551 0.312500 moveto
/uni00A0 glyphshow

/Cmmi10 findfont
11.0 scalefont
setfont
73.970703 0.312500 moveto
/d glyphshow


grestore
/pd_0 {
newpath
translate
984.045 332.501 m
996.016 167.651 l
1282.6 114.424 l
} bind def
/pd_1 {
newpath
translate
1029.14 351.2 m
1038.62 188.405 l
1321.7 137.142 l
} bind def
/pd_2 {
newpath
translate
1072.54 369.194 m
1079.69 208.417 l
1359.33 159.012 l
} bind def
/pd_3 {
newpath
translate
1114.34 386.524 m
1119.32 227.725 l
1395.58 180.078 l
} bind def
/pd_4 {
newpath
translate
1154.62 403.226 m
1157.59 246.367 l
1430.53 200.386 l
} bind def
1.750 setlinewidth
0 setlinecap
0.900 setgray
gsave
0 0 pd_0
stroke
grestore
gsave
0 0 pd_1
stroke
grestore
gsave
0 0 pd_2
stroke
grestore
gsave
0 0 pd_3
stroke
grestore
gsave
0 0 pd_4
stroke
grestore
1.000 setlinewidth
1 setlinecap
1.000 setgray
gsave
588.1 334.5 914.4 91.98 clipbox
1216.44 263.736 m
stroke
grestore
1.750 setlinewidth
0.150 setgray
gsave
1280.21 114.87 m
1287.41 113.532 l
stroke
grestore
gsave
1296.805284 95.055205 translate
0.000000 rotate
0.000000 0.000000 m /zero glyphshow
grestore
1.000 setlinewidth
1.000 setgray
gsave
588.1 334.5 914.4 91.98 clipbox
1216.44 263.736 m
stroke
grestore
1.750 setlinewidth
0.150 setgray
gsave
1319.33 137.571 m
1326.44 136.284 l
stroke
grestore
gsave
1332.794336 117.994907 translate
0.000000 rotate
0.000000 0.000000 m /five glyphshow
5.561523 0.000000 m /zero glyphshow
grestore
1.000 setlinewidth
1.000 setgray
gsave
588.1 334.5 914.4 91.98 clipbox
1216.44 263.736 m
stroke
grestore
1.750 setlinewidth
0.150 setgray
gsave
1356.99 159.424 m
1364.01 158.185 l
stroke
grestore
gsave
1367.507287 140.077694 translate
0.000000 rotate
0.000000 0.000000 m /one glyphshow
5.561523 0.000000 m /zero glyphshow
11.123047 0.000000 m /zero glyphshow
grestore
1.000 setlinewidth
1.000 setgray
gsave
588.1 334.5 914.4 91.98 clipbox
1216.44 263.736 m
stroke
grestore
1.750 setlinewidth
0.150 setgray
gsave
1393.28 180.476 m
1400.2 179.282 l
stroke
grestore
gsave
1403.453472 161.350702 translate
0.000000 rotate
0.000000 0.000000 m /one glyphshow
5.561523 0.000000 m /five glyphshow
11.123047 0.000000 m /zero glyphshow
grestore
1.000 setlinewidth
1.000 setgray
gsave
588.1 334.5 914.4 91.98 clipbox
1216.44 263.736 m
stroke
grestore
1.750 setlinewidth
0.150 setgray
gsave
1428.25 200.77 m
1435.09 199.618 l
stroke
grestore
gsave
1437.972425 181.857671 translate
0.000000 rotate
0.000000 0.000000 m /two glyphshow
5.561523 0.000000 m /zero glyphshow
11.123047 0.000000 m /zero glyphshow
grestore
0.750 setlinewidth
0.000 setgray
gsave
1433.38 202.046 m
1444.79 363.469 l
stroke
grestore
0.150 setgray
/LiberationSans findfont
11.000 scalefont
setfont
gsave
1496.471134 268.999138 translate
85.957534 rotate
0.000000 0.000000 m /c glyphshow
5.500000 0.000000 m /o glyphshow
11.617676 0.000000 m /m glyphshow
20.780762 0.000000 m /p glyphshow
26.898438 0.000000 m /s glyphshow
grestore
/pe_0 {
newpath
translate
1433.6 205.116 m
1160.66 250.879 l
992.164 169.02 l
} bind def
/pe_1 {
newpath
translate
1434.77 221.595 m
1160.38 266.905 l
990.921 185.842 l
} bind def
/pe_2 {
newpath
translate
1435.94 238.252 m
1160.09 283.097 l
989.665 202.851 l
} bind def
/pe_3 {
newpath
translate
1437.13 255.089 m
1159.8 299.458 l
988.395 220.05 l
} bind def
/pe_4 {
newpath
translate
1438.34 272.11 m
1159.5 315.989 l
987.11 237.443 l
} bind def
/pe_5 {
newpath
translate
1439.55 289.317 m
1159.2 332.693 l
985.811 255.034 l
} bind def
/pe_6 {
newpath
translate
1440.78 306.714 m
1158.9 349.574 l
984.497 272.824 l
} bind def
/pe_7 {
newpath
translate
1442.03 324.304 m
1158.59 366.634 l
983.168 290.819 l
} bind def
/pe_8 {
newpath
translate
1443.28 342.089 m
1158.29 383.875 l
981.824 309.021 l
} bind def
/pe_9 {
newpath
translate
1444.55 360.075 m
1157.97 401.302 l
980.464 327.434 l
} bind def
1.750 setlinewidth
0 setlinecap
0.900 setgray
gsave
0 0 pe_0
stroke
grestore
gsave
0 0 pe_1
stroke
grestore
gsave
0 0 pe_2
stroke
grestore
gsave
0 0 pe_3
stroke
grestore
gsave
0 0 pe_4
stroke
grestore
gsave
0 0 pe_5
stroke
grestore
gsave
0 0 pe_6
stroke
grestore
gsave
0 0 pe_7
stroke
grestore
gsave
0 0 pe_8
stroke
grestore
gsave
0 0 pe_9
stroke
grestore
1.000 setlinewidth
1 setlinecap
1.000 setgray
gsave
1216.44 263.736 m
stroke
grestore
1.750 setlinewidth
0.150 setgray
gsave
1431.32 205.498 m
1438.16 204.351 l
stroke
grestore
/LiberationSans findfont
10.000 scalefont
setfont
gsave
1455.105718 199.819721 translate
0.000000 rotate
0.000000 0.000000 m /zero glyphshow
grestore
1.000 setlinewidth
1.000 setgray
gsave
1216.44 263.736 m
stroke
grestore
1.750 setlinewidth
0.150 setgray
gsave
1432.48 221.973 m
1439.35 220.838 l
stroke
grestore
gsave
1456.630524 216.279772 translate
0.000000 rotate
0.000000 0.000000 m /one glyphshow
grestore
1.000 setlinewidth
1.000 setgray
gsave
1216.44 263.736 m
stroke
grestore
1.750 setlinewidth
0.150 setgray
gsave
1433.64 238.626 m
1440.55 237.502 l
stroke
grestore
gsave
1457.809845 232.917000 translate
0.000000 rotate
0.000000 0.000000 m /two glyphshow
grestore
1.000 setlinewidth
1.000 setgray
gsave
1216.44 263.736 m
stroke
grestore
1.750 setlinewidth
0.150 setgray
gsave
1434.82 255.459 m
1441.77 254.347 l
stroke
grestore
gsave
1459.034532 249.734279 translate
0.000000 rotate
0.000000 0.000000 m /three glyphshow
grestore
1.000 setlinewidth
1.000 setgray
gsave
1216.44 263.736 m
stroke
grestore
1.750 setlinewidth
0.150 setgray
gsave
1436.01 272.476 m
1443 271.376 l
stroke
grestore
gsave
1460.226690 266.734550 translate
0.000000 rotate
0.000000 0.000000 m /four glyphshow
grestore
1.000 setlinewidth
1.000 setgray
gsave
1216.44 263.736 m
stroke
grestore
1.750 setlinewidth
0.150 setgray
gsave
1437.21 289.679 m
1444.24 288.591 l
stroke
grestore
gsave
1461.722492 283.920814 translate
0.000000 rotate
0.000000 0.000000 m /five glyphshow
grestore
1.000 setlinewidth
1.000 setgray
gsave
1216.44 263.736 m
stroke
grestore
1.750 setlinewidth
0.150 setgray
gsave
1438.43 307.072 m
1445.5 305.997 l
stroke
grestore
gsave
1463.147178 301.296141 translate
0.000000 rotate
0.000000 0.000000 m /six glyphshow
grestore
1.000 setlinewidth
1.000 setgray
gsave
1216.44 263.736 m
stroke
grestore
1.750 setlinewidth
0.150 setgray
gsave
1439.66 324.657 m
1446.77 323.595 l
stroke
grestore
gsave
1464.555683 318.863669 translate
0.000000 rotate
0.000000 0.000000 m /seven glyphshow
grestore
1.000 setlinewidth
1.000 setgray
gsave
1216.44 263.736 m
stroke
grestore
1.750 setlinewidth
0.150 setgray
gsave
1440.9 342.439 m
1448.05 341.39 l
stroke
grestore
gsave
1465.877945 336.626603 translate
0.000000 rotate
0.000000 0.000000 m /eight glyphshow
grestore
1.000 setlinewidth
1.000 setgray
gsave
1216.44 263.736 m
stroke
grestore
1.750 setlinewidth
0.150 setgray
gsave
1442.16 360.419 m
1449.35 359.384 l
stroke
grestore
gsave
1467.317345 354.588223 translate
0.000000 rotate
0.000000 0.000000 m /nine glyphshow
grestore
/pf_0 {
newpath
translate
1088.94 212.493 m
1153.94 201.069 l
1220.31 189.404 l
1288.09 177.491 l
1357.33 165.321 l
1364.68 169.566 l
1371.98 173.78 l
1379.23 177.963 l
1386.42 182.115 l
1393.56 186.237 l
1400.65 190.328 l
1407.68 194.39 l
1414.67 198.422 l
1421.6 202.426 l
1353.92 213.822 l
1287.62 224.985 l
1222.67 235.923 l
1159.01 246.642 l
1151.44 242.953 l
1143.82 239.238 l
1136.14 235.498 l
1128.42 231.731 l
1120.63 227.937 l
1112.79 224.117 l
1104.9 220.27 l
1096.95 216.395 l
1088.94 212.493 l
cl
} bind def
/pf_1 {
newpath
translate
1000.03 252.265 m
1068.39 238.135 l
1138.17 224.238 l
1209.45 209.595 l
1282.23 194.105 l
1291.19 233.172 l
1297.91 184.196 l
1304.71 149.395 l
1312.11 141.488 l
1319.74 143.882 l
1327.36 148.069 l
1334.94 152.393 l
1342.46 156.735 l
1349.92 161.044 l
1357.33 165.321 l
1288.09 177.491 l
1220.31 189.404 l
1153.94 201.069 l
1088.94 212.493 l
1080.88 208.562 l
1072.76 204.603 l
1064.57 200.616 l
1056.33 196.599 l
1048.02 192.829 l
1039.13 197.846 l
1028.96 222.127 l
1015.82 289.578 l
1003.75 333.567 l
1000.03 252.265 l
cl
} bind def
0.300 setlinewidth
0 setlinecap
0.000 setgray
gsave
588.1 334.5 914.4 91.98 clipbox
0 0 pf_0
gsave
0.000 0.000 1.000 setrgbcolor
fill
grestore
stroke
grestore
gsave
588.1 334.5 914.4 91.98 clipbox
0 0 pf_1
gsave
0.000 0.000 0.500 setrgbcolor
fill
grestore
stroke
grestore
0.150 setgray
gsave
1144.490341 404.694909 translate
0.000000 rotate
/LiberationSans findfont
12.0 scalefont
setfont
0.000000 0.312500 moveto
/N glyphshow

8.666016 0.312500 moveto
/o glyphshow

15.339844 0.312500 moveto
/period glyphshow

18.673828 0.312500 moveto
/uni00A0 glyphshow

22.007812 0.312500 moveto
/o glyphshow

28.681641 0.312500 moveto
/f glyphshow

32.015625 0.312500 moveto
/uni00A0 glyphshow

35.349609 0.312500 moveto
/C glyphshow

44.015625 0.312500 moveto
/o glyphshow

50.689453 0.312500 moveto
/m glyphshow

60.685547 0.312500 moveto
/p glyphshow

67.359375 0.312500 moveto
/s glyphshow

73.359375 0.312500 moveto
/period glyphshow

76.693359 0.312500 moveto
/uni00A0 glyphshow

/Cmmi10 findfont
12.0 scalefont
setfont
80.027344 0.312500 moveto
/c glyphshow

85.212891 0.312500 moveto
/m glyphshow

95.748047 0.312500 moveto
/p glyphshow

/LiberationSans findfont
12.0 scalefont
setfont
101.783203 0.312500 moveto
/colon glyphshow

/Cmmi10 findfont
12.0 scalefont
setfont
105.117188 0.312500 moveto
/R glyphshow

/LiberationSans findfont
12.0 scalefont
setfont
114.222656 0.312500 moveto
/equal glyphshow

121.230469 0.312500 moveto
/three glyphshow


grestore

end
showpage
